{
  "recipes": [
    {
      "id": "mariner.tide.pickcustomtide.salvagemission.layer.2.pre",
      "extantreqs": {
        "mariner.aspects.vaults.salvagemission.layer.2": 1
      },
      "warmup": 120,
      "label": "The Tide Comes In",
      "description": "Time and Tide wait for no man.",
      "linked": [
        {
          "id": "mariner.tide.salvagemission.layer.2"
        }
      ]
    },
    {
      "id": "mariner.tide.salvagemission.layer.2",
      "deckeffects": {
        "mariner.decks.tide.salvagemission.layer.2": 1
      },
      "linked": [
        {
          "id": "mariner.tide.salvagemission.layer.2.spawnevent.suspicion"
        },
        {
          "id": "mariner.tide.salvagemission.layer.2.spawnevent.marinemists"
        },
        {
          "id": "mariner.tide.salvagemission.layer.2.spawnevent.windrises"
        },
        {
          "id": "mariner.tide.salvagemission.layer.2.spawnevent.fairweather"
        },
        {
          "id": "mariner.tide.postevent"
        }
      ]
    },
    {
      "id": "mariner.tide.salvagemission.layer.2.spawnevent.fairweather",
      "requirements": {
        "mariner.events.vaults.salvagemission.events.fairweather": 1
      },
      "effects": {
        "mariner.events.vaults.salvagemission.events.fairweather": -1
      },
      "inductions": [
        {
          "id": "mariner.vaults.salvagemission.events.fairweather"
        }
      ],
      "linked": [
        {
          "id": "mariner.tide.postevent"
        }
      ]
    },
    {
      "id": "mariner.tide.salvagemission.layer.2.spawnevent.windrises",
      "requirements": {
        "mariner.events.vaults.salvagemission.events.windrises": 1
      },
      "effects": {
        "mariner.events.vaults.salvagemission.events.windrises": -1
      },
      "inductions": [
        {
          "id": "mariner.vaults.salvagemission.events.windrises"
        }
      ],
      "linked": [
        {
          "id": "mariner.tide.postevent"
        }
      ]
    },
    {
      "id": "mariner.tide.salvagemission.layer.2.spawnevent.marinemists",
      "requirements": {
        "mariner.events.vaults.salvagemission.events.marinemists": 1
      },
      "effects": {
        "mariner.events.vaults.salvagemission.events.marinemists": -1
      },
      "inductions": [
        {
          "id": "mariner.vaults.salvagemission.events.marinemists"
        }
      ],
      "linked": [
        {
          "id": "mariner.tide.postevent"
        }
      ]
    },
    {
      "id": "mariner.tide.salvagemission.layer.2.spawnevent.suspicion",
      "requirements": {
        "seasonsuspicion": 1
      },
      "effects": {
        "seasonsuspicion": -1
      },
      "inductions": [
        {
          "id": "mariner.tide.suspicion.pre"
        }
      ],
      "linked": [
        {
          "id": "mariner.tide.postevent"
        }
      ]
    }
  ]
}