{
    "elements": [
        {
            "id": "mariner.mysteries.whatnow",
            "label": "What Now?",
            "description": "<What Now?>",
            "aspects": {
                "mariner.mystery": 1
            },
            "slots": [
                {
                    "id": "missing.story",
                    "label": "<A Story?>",
                    "description": "<>",
                    "required": {
                        "mariner.story": 1
                    }
                },
                {
                    "id": "Missing.item",
                    "label": "<Something matching>",
                    "description": "<>"
                }
            ]
        }
    ]
}