{
  "elements": [
    {
      "isAspect": true,
      "id": "mariner.flag.operation.lead.set",
      "noArtNeeded": true,
      "isHidden": true
    },
    {
      "isAspect": true,
      "id": "mariner.flag.operation.silver.set",
      "noArtNeeded": true,
      "isHidden": true
    },
    {
      "isAspect": true,
      "id": "mariner.flag.operation.gold.set",
      "noArtNeeded": true,
      "isHidden": true
    }
  ]
}