{
  "elements": [
    {
      "id": "mariner.weathers.northsea.mist.1",
      "icon": "weathers/mariner.weathers.mist",
      "label": "Mists Muffle",
      "description": "All sounds muffled by a haze of grey.",
      "lifetime": 377,
      "aspects": {
        "mariner.inspiration": 1,
        "mariner.weather": 1,
        "mariner.inspiration.nature": 1,
        "mariner.weathermeta.misty": 1,
        "winter": 4,
        "moth": 4
      },
      "xtriggers": {
        "mariner.signal.forceweatherdecay": [
          {
            "morpheffect": "decay"
          }
        ],
        "mariner.signal.performanceclearweather": "mariner.weathers.northsea.clear.performancespecial",
        "mariner.signal.performancerouseweather": "mariner.weathers.northsea.storm.performancespecial",
        "mariner.signal.channelratssetstorm": "mariner.weathers.northsea.storm.event",
        "mariner.signal.blizzardsetblizzard": "mariner.weathers.northsea.blizzard.event",
        "mariner.signal.borasetseasmoke": "mariner.weathers.northsea.seasmoke.event",
        "mariner.signal.mistralsetwind": "mariner.weathers.northsea.wind.event",
        "mariner.signal.harmattansetsandstorm": "mariner.weathers.northsea.sandstorm.event",
        "mariner.signal.siroccosetsirocco": "mariner.weathers.northsea.sirocco.event",
        "mariner.signal.brumesetnuma": "mariner.weathers.northsea.numa.event",
        "mariner.signal.arriveinsea.northsea": "mariner.weathers.changeto.northsea",
        "mariner.signal.arriveinsea.medsea": "mariner.weathers.changeto.medsea"
      },
      "decayTo": "mariner.weathers.northsea.storm.1"
    },
    {
      "id": "mariner.weathers.northsea.mist.2",
      "icon": "weathers/mariner.weathers.mist",
      "label": "Mists Muffle",
      "description": "All sounds muffled by a haze of grey.",
      "lifetime": 364,
      "aspects": {
        "mariner.inspiration": 1,
        "mariner.weather": 1,
        "mariner.inspiration.nature": 1,
        "mariner.weathermeta.misty": 1,
        "winter": 4,
        "moth": 4
      },
      "xtriggers": {
        "mariner.signal.forceweatherdecay": [
          {
            "morpheffect": "decay"
          }
        ],
        "mariner.signal.performanceclearweather": "mariner.weathers.northsea.clear.performancespecial",
        "mariner.signal.performancerouseweather": "mariner.weathers.northsea.storm.performancespecial",
        "mariner.signal.channelratssetstorm": "mariner.weathers.northsea.storm.event",
        "mariner.signal.blizzardsetblizzard": "mariner.weathers.northsea.blizzard.event",
        "mariner.signal.borasetseasmoke": "mariner.weathers.northsea.seasmoke.event",
        "mariner.signal.mistralsetwind": "mariner.weathers.northsea.wind.event",
        "mariner.signal.harmattansetsandstorm": "mariner.weathers.northsea.sandstorm.event",
        "mariner.signal.siroccosetsirocco": "mariner.weathers.northsea.sirocco.event",
        "mariner.signal.brumesetnuma": "mariner.weathers.northsea.numa.event",
        "mariner.signal.arriveinsea.northsea": "mariner.weathers.changeto.northsea",
        "mariner.signal.arriveinsea.medsea": "mariner.weathers.changeto.medsea"
      },
      "decayTo": "mariner.weathers.northsea.wind.1"
    },
    {
      "id": "mariner.weathers.northsea.rain.1",
      "icon": "weathers/mariner.weathers.rain",
      "label": "The Rain's Patter",
      "description": "The quiet cacophony of rain.",
      "lifetime": 390,
      "aspects": {
        "mariner.inspiration": 1,
        "mariner.weather": 1,
        "mariner.inspiration.nature": 1,
        "mariner.weathermeta.rainy": 1,
        "moth": 4
      },
      "xtriggers": {
        "mariner.signal.forceweatherdecay": [
          {
            "morpheffect": "decay"
          }
        ],
        "mariner.signal.performanceclearweather": "mariner.weathers.northsea.clear.performancespecial",
        "mariner.signal.performancerouseweather": "mariner.weathers.northsea.storm.performancespecial",
        "mariner.signal.channelratssetstorm": "mariner.weathers.northsea.storm.event",
        "mariner.signal.blizzardsetblizzard": "mariner.weathers.northsea.blizzard.event",
        "mariner.signal.borasetseasmoke": "mariner.weathers.northsea.seasmoke.event",
        "mariner.signal.mistralsetwind": "mariner.weathers.northsea.wind.event",
        "mariner.signal.harmattansetsandstorm": "mariner.weathers.northsea.sandstorm.event",
        "mariner.signal.siroccosetsirocco": "mariner.weathers.northsea.sirocco.event",
        "mariner.signal.brumesetnuma": "mariner.weathers.northsea.numa.event",
        "mariner.signal.arriveinsea.northsea": "mariner.weathers.changeto.northsea",
        "mariner.signal.arriveinsea.medsea": "mariner.weathers.changeto.medsea"
      },
      "decayTo": "mariner.weathers.northsea.clear.1"
    },
    {
      "id": "mariner.weathers.northsea.rain.2",
      "icon": "weathers/mariner.weathers.rain",
      "label": "The Rain's Patter",
      "description": "The quiet cacophony of rain.",
      "lifetime": 337,
      "aspects": {
        "mariner.inspiration": 1,
        "mariner.weather": 1,
        "mariner.inspiration.nature": 1,
        "mariner.weathermeta.rainy": 1,
        "moth": 4
      },
      "xtriggers": {
        "mariner.signal.forceweatherdecay": [
          {
            "morpheffect": "decay"
          }
        ],
        "mariner.signal.performanceclearweather": "mariner.weathers.northsea.clear.performancespecial",
        "mariner.signal.performancerouseweather": "mariner.weathers.northsea.storm.performancespecial",
        "mariner.signal.channelratssetstorm": "mariner.weathers.northsea.storm.event",
        "mariner.signal.blizzardsetblizzard": "mariner.weathers.northsea.blizzard.event",
        "mariner.signal.borasetseasmoke": "mariner.weathers.northsea.seasmoke.event",
        "mariner.signal.mistralsetwind": "mariner.weathers.northsea.wind.event",
        "mariner.signal.harmattansetsandstorm": "mariner.weathers.northsea.sandstorm.event",
        "mariner.signal.siroccosetsirocco": "mariner.weathers.northsea.sirocco.event",
        "mariner.signal.brumesetnuma": "mariner.weathers.northsea.numa.event",
        "mariner.signal.arriveinsea.northsea": "mariner.weathers.changeto.northsea",
        "mariner.signal.arriveinsea.medsea": "mariner.weathers.changeto.medsea"
      },
      "decayTo": "mariner.weathers.northsea.clear.2"
    },
    {
      "id": "mariner.weathers.northsea.wind.1",
      "icon": "weathers/mariner.weathers.wind",
      "label": "Winds Whistle",
      "description": "The wind plays the trees, and sings it's own many voiced harmonies.",
      "lifetime": 378,
      "aspects": {
        "mariner.inspiration": 1,
        "mariner.weather": 1,
        "mariner.inspiration.nature": 1,
        "mariner.weathermeta.windy": 1,
        "moth": 4,
        "heart": 4
      },
      "xtriggers": {
        "mariner.signal.forceweatherdecay": [
          {
            "morpheffect": "decay"
          }
        ],
        "mariner.signal.performanceclearweather": "mariner.weathers.northsea.clear.performancespecial",
        "mariner.signal.performancerouseweather": "mariner.weathers.northsea.storm.performancespecial",
        "mariner.signal.channelratssetstorm": "mariner.weathers.northsea.storm.event",
        "mariner.signal.blizzardsetblizzard": "mariner.weathers.northsea.blizzard.event",
        "mariner.signal.borasetseasmoke": "mariner.weathers.northsea.seasmoke.event",
        "mariner.signal.mistralsetwind": "mariner.weathers.northsea.wind.event",
        "mariner.signal.harmattansetsandstorm": "mariner.weathers.northsea.sandstorm.event",
        "mariner.signal.siroccosetsirocco": "mariner.weathers.northsea.sirocco.event",
        "mariner.signal.brumesetnuma": "mariner.weathers.northsea.numa.event",
        "mariner.signal.arriveinsea.northsea": "mariner.weathers.changeto.northsea",
        "mariner.signal.arriveinsea.medsea": "mariner.weathers.changeto.medsea"
      },
      "decayTo": "mariner.weathers.northsea.rain.1"
    },
    {
      "id": "mariner.weathers.northsea.wind.2",
      "icon": "weathers/mariner.weathers.wind",
      "label": "Winds Whistle",
      "description": "The wind plays the trees, and sings it's own many voiced harmonies.",
      "lifetime": 360,
      "aspects": {
        "mariner.inspiration": 1,
        "mariner.weather": 1,
        "mariner.inspiration.nature": 1,
        "mariner.weathermeta.windy": 1,
        "moth": 4,
        "heart": 4
      },
      "xtriggers": {
        "mariner.signal.forceweatherdecay": [
          {
            "morpheffect": "decay"
          }
        ],
        "mariner.signal.performanceclearweather": "mariner.weathers.northsea.clear.performancespecial",
        "mariner.signal.performancerouseweather": "mariner.weathers.northsea.storm.performancespecial",
        "mariner.signal.channelratssetstorm": "mariner.weathers.northsea.storm.event",
        "mariner.signal.blizzardsetblizzard": "mariner.weathers.northsea.blizzard.event",
        "mariner.signal.borasetseasmoke": "mariner.weathers.northsea.seasmoke.event",
        "mariner.signal.mistralsetwind": "mariner.weathers.northsea.wind.event",
        "mariner.signal.harmattansetsandstorm": "mariner.weathers.northsea.sandstorm.event",
        "mariner.signal.siroccosetsirocco": "mariner.weathers.northsea.sirocco.event",
        "mariner.signal.brumesetnuma": "mariner.weathers.northsea.numa.event",
        "mariner.signal.arriveinsea.northsea": "mariner.weathers.changeto.northsea",
        "mariner.signal.arriveinsea.medsea": "mariner.weathers.changeto.medsea"
      },
      "decayTo": "mariner.weathers.northsea.bright.2"
    },
    {
      "id": "mariner.weathers.northsea.storm.1",
      "icon": "weathers/mariner.weathers.storm",
      "label": "A Storm Howls",
      "description": "The sky's drum beats a furious rhythm.",
      "lifetime": 369,
      "aspects": {
        "mariner.inspiration": 1,
        "mariner.weather": 1,
        "mariner.inspiration.nature": 1,
        "mariner.weathermeta.rainy": 1,
        "mariner.weathermeta.windy": 1,
        "mariner.weathermeta.stormy": 1,
        "heart": 4,
        "edge": 4
      },
      "xtriggers": {
        "mariner.signal.forceweatherdecay": [
          {
            "morpheffect": "decay"
          }
        ],
        "mariner.signal.performanceclearweather": "mariner.weathers.northsea.clear.performancespecial",
        "mariner.signal.performancerouseweather": "mariner.weathers.northsea.storm.performancespecial",
        "mariner.signal.channelratssetstorm": "mariner.weathers.northsea.storm.event",
        "mariner.signal.blizzardsetblizzard": "mariner.weathers.northsea.blizzard.event",
        "mariner.signal.borasetseasmoke": "mariner.weathers.northsea.seasmoke.event",
        "mariner.signal.mistralsetwind": "mariner.weathers.northsea.wind.event",
        "mariner.signal.harmattansetsandstorm": "mariner.weathers.northsea.sandstorm.event",
        "mariner.signal.siroccosetsirocco": "mariner.weathers.northsea.sirocco.event",
        "mariner.signal.brumesetnuma": "mariner.weathers.northsea.numa.event",
        "mariner.signal.arriveinsea.northsea": "mariner.weathers.changeto.northsea",
        "mariner.signal.arriveinsea.medsea": "mariner.weathers.changeto.medsea"
      },
      "decayTo": "mariner.weathers.northsea.mist.2"
    },
    {
      "id": "mariner.weathers.northsea.storm.2",
      "icon": "weathers/mariner.weathers.storm",
      "label": "A Storm Howls",
      "description": "The sky's drum beats a furious rhythm.",
      "lifetime": 348,
      "aspects": {
        "mariner.inspiration": 1,
        "mariner.weather": 1,
        "mariner.inspiration.nature": 1,
        "mariner.weathermeta.rainy": 1,
        "mariner.weathermeta.windy": 1,
        "mariner.weathermeta.stormy": 1,
        "heart": 4,
        "edge": 4
      },
      "xtriggers": {
        "mariner.signal.forceweatherdecay": [
          {
            "morpheffect": "decay"
          }
        ],
        "mariner.signal.performanceclearweather": "mariner.weathers.northsea.clear.performancespecial",
        "mariner.signal.performancerouseweather": "mariner.weathers.northsea.storm.performancespecial",
        "mariner.signal.channelratssetstorm": "mariner.weathers.northsea.storm.event",
        "mariner.signal.blizzardsetblizzard": "mariner.weathers.northsea.blizzard.event",
        "mariner.signal.borasetseasmoke": "mariner.weathers.northsea.seasmoke.event",
        "mariner.signal.mistralsetwind": "mariner.weathers.northsea.wind.event",
        "mariner.signal.harmattansetsandstorm": "mariner.weathers.northsea.sandstorm.event",
        "mariner.signal.siroccosetsirocco": "mariner.weathers.northsea.sirocco.event",
        "mariner.signal.brumesetnuma": "mariner.weathers.northsea.numa.event",
        "mariner.signal.arriveinsea.northsea": "mariner.weathers.changeto.northsea",
        "mariner.signal.arriveinsea.medsea": "mariner.weathers.changeto.medsea"
      },
      "decayTo": "mariner.weathers.northsea.smog.2"
    },
    {
      "id": "mariner.weathers.northsea.storm.3",
      "icon": "weathers/mariner.weathers.storm",
      "label": "A Storm Howls",
      "description": "The sky's drum beats a furious rhythm.",
      "lifetime": 390,
      "aspects": {
        "mariner.inspiration": 1,
        "mariner.weather": 1,
        "mariner.inspiration.nature": 1,
        "mariner.weathermeta.rainy": 1,
        "mariner.weathermeta.windy": 1,
        "mariner.weathermeta.stormy": 1,
        "heart": 4,
        "edge": 4
      },
      "xtriggers": {
        "mariner.signal.forceweatherdecay": [
          {
            "morpheffect": "decay"
          }
        ],
        "mariner.signal.performanceclearweather": "mariner.weathers.northsea.clear.performancespecial",
        "mariner.signal.performancerouseweather": "mariner.weathers.northsea.storm.performancespecial",
        "mariner.signal.channelratssetstorm": "mariner.weathers.northsea.storm.event",
        "mariner.signal.blizzardsetblizzard": "mariner.weathers.northsea.blizzard.event",
        "mariner.signal.borasetseasmoke": "mariner.weathers.northsea.seasmoke.event",
        "mariner.signal.mistralsetwind": "mariner.weathers.northsea.wind.event",
        "mariner.signal.harmattansetsandstorm": "mariner.weathers.northsea.sandstorm.event",
        "mariner.signal.siroccosetsirocco": "mariner.weathers.northsea.sirocco.event",
        "mariner.signal.brumesetnuma": "mariner.weathers.northsea.numa.event",
        "mariner.signal.arriveinsea.northsea": "mariner.weathers.changeto.northsea",
        "mariner.signal.arriveinsea.medsea": "mariner.weathers.changeto.medsea"
      },
      "decayTo": "mariner.weathers.northsea.storm.2"
    },
    {
      "id": "mariner.weathers.northsea.storm.4",
      "icon": "weathers/mariner.weathers.storm",
      "label": "A Storm Howls",
      "description": "The sky's drum beats a furious rhythm.",
      "lifetime": 364,
      "aspects": {
        "mariner.inspiration": 1,
        "mariner.weather": 1,
        "mariner.inspiration.nature": 1,
        "mariner.weathermeta.rainy": 1,
        "mariner.weathermeta.windy": 1,
        "mariner.weathermeta.stormy": 1,
        "heart": 4,
        "edge": 4
      },
      "xtriggers": {
        "mariner.signal.forceweatherdecay": [
          {
            "morpheffect": "decay"
          }
        ],
        "mariner.signal.performanceclearweather": "mariner.weathers.northsea.clear.performancespecial",
        "mariner.signal.performancerouseweather": "mariner.weathers.northsea.storm.performancespecial",
        "mariner.signal.channelratssetstorm": "mariner.weathers.northsea.storm.event",
        "mariner.signal.blizzardsetblizzard": "mariner.weathers.northsea.blizzard.event",
        "mariner.signal.borasetseasmoke": "mariner.weathers.northsea.seasmoke.event",
        "mariner.signal.mistralsetwind": "mariner.weathers.northsea.wind.event",
        "mariner.signal.harmattansetsandstorm": "mariner.weathers.northsea.sandstorm.event",
        "mariner.signal.siroccosetsirocco": "mariner.weathers.northsea.sirocco.event",
        "mariner.signal.brumesetnuma": "mariner.weathers.northsea.numa.event",
        "mariner.signal.arriveinsea.northsea": "mariner.weathers.changeto.northsea",
        "mariner.signal.arriveinsea.medsea": "mariner.weathers.changeto.medsea"
      },
      "decayTo": "mariner.weathers.northsea.smog.1"
    },
    {
      "id": "mariner.weathers.northsea.clear.1",
      "icon": "weathers/mariner.weathers.clear",
      "label": "A Blank Sky",
      "description": "The sky is a patchwork of grey and white and blue, partway between stained vellum and a half-shorn fleece",
      "lifetime": 371,
      "aspects": {
        "mariner.inspiration": 1,
        "mariner.weather": 1,
        "mariner.inspiration.nature": 1,
        "mariner.weathermeta.clear": 1
      },
      "xtriggers": {
        "mariner.signal.forceweatherdecay": [
          {
            "morpheffect": "decay"
          }
        ],
        "mariner.signal.performanceclearweather": "mariner.weathers.northsea.clear.performancespecial",
        "mariner.signal.performancerouseweather": "mariner.weathers.northsea.storm.performancespecial",
        "mariner.signal.channelratssetstorm": "mariner.weathers.northsea.storm.event",
        "mariner.signal.blizzardsetblizzard": "mariner.weathers.northsea.blizzard.event",
        "mariner.signal.borasetseasmoke": "mariner.weathers.northsea.seasmoke.event",
        "mariner.signal.mistralsetwind": "mariner.weathers.northsea.wind.event",
        "mariner.signal.harmattansetsandstorm": "mariner.weathers.northsea.sandstorm.event",
        "mariner.signal.siroccosetsirocco": "mariner.weathers.northsea.sirocco.event",
        "mariner.signal.brumesetnuma": "mariner.weathers.northsea.numa.event",
        "mariner.signal.arriveinsea.northsea": "mariner.weathers.changeto.northsea",
        "mariner.signal.arriveinsea.medsea": "mariner.weathers.changeto.medsea"
      },
      "decayTo": "mariner.weathers.northsea.snow.1"
    },
    {
      "id": "mariner.weathers.northsea.clear.2",
      "icon": "weathers/mariner.weathers.clear",
      "label": "A Blank Sky",
      "description": "The sky is a patchwork of grey and white and blue, partway between stained vellum and a half-shorn fleece",
      "lifetime": 332,
      "aspects": {
        "mariner.inspiration": 1,
        "mariner.weather": 1,
        "mariner.inspiration.nature": 1,
        "mariner.weathermeta.clear": 1
      },
      "xtriggers": {
        "mariner.signal.forceweatherdecay": [
          {
            "morpheffect": "decay"
          }
        ],
        "mariner.signal.performanceclearweather": "mariner.weathers.northsea.clear.performancespecial",
        "mariner.signal.performancerouseweather": "mariner.weathers.northsea.storm.performancespecial",
        "mariner.signal.channelratssetstorm": "mariner.weathers.northsea.storm.event",
        "mariner.signal.blizzardsetblizzard": "mariner.weathers.northsea.blizzard.event",
        "mariner.signal.borasetseasmoke": "mariner.weathers.northsea.seasmoke.event",
        "mariner.signal.mistralsetwind": "mariner.weathers.northsea.wind.event",
        "mariner.signal.harmattansetsandstorm": "mariner.weathers.northsea.sandstorm.event",
        "mariner.signal.siroccosetsirocco": "mariner.weathers.northsea.sirocco.event",
        "mariner.signal.brumesetnuma": "mariner.weathers.northsea.numa.event",
        "mariner.signal.arriveinsea.northsea": "mariner.weathers.changeto.northsea",
        "mariner.signal.arriveinsea.medsea": "mariner.weathers.changeto.medsea"
      },
      "decayTo": "mariner.weathers.northsea.storm.4"
    },
    {
      "id": "mariner.weathers.northsea.clear.3",
      "icon": "weathers/mariner.weathers.clear",
      "label": "A Blank Sky",
      "description": "The sky is a patchwork of grey and white and blue, partway between stained vellum and a half-shorn fleece",
      "lifetime": 385,
      "aspects": {
        "mariner.inspiration": 1,
        "mariner.weather": 1,
        "mariner.inspiration.nature": 1,
        "mariner.weathermeta.clear": 1
      },
      "xtriggers": {
        "mariner.signal.forceweatherdecay": [
          {
            "morpheffect": "decay"
          }
        ],
        "mariner.signal.performanceclearweather": "mariner.weathers.northsea.clear.performancespecial",
        "mariner.signal.performancerouseweather": "mariner.weathers.northsea.storm.performancespecial",
        "mariner.signal.channelratssetstorm": "mariner.weathers.northsea.storm.event",
        "mariner.signal.blizzardsetblizzard": "mariner.weathers.northsea.blizzard.event",
        "mariner.signal.borasetseasmoke": "mariner.weathers.northsea.seasmoke.event",
        "mariner.signal.mistralsetwind": "mariner.weathers.northsea.wind.event",
        "mariner.signal.harmattansetsandstorm": "mariner.weathers.northsea.sandstorm.event",
        "mariner.signal.siroccosetsirocco": "mariner.weathers.northsea.sirocco.event",
        "mariner.signal.brumesetnuma": "mariner.weathers.northsea.numa.event",
        "mariner.signal.arriveinsea.northsea": "mariner.weathers.changeto.northsea",
        "mariner.signal.arriveinsea.medsea": "mariner.weathers.changeto.medsea"
      },
      "decayTo": "mariner.weathers.northsea.wind.2"
    },
    {
      "id": "mariner.weathers.northsea.snow.1",
      "icon": "weathers/mariner.weathers.snow",
      "label": "Ice Sings",
      "description": "Ice snaps in the river. Sometimes it is hours between notes.",
      "lifetime": 385,
      "aspects": {
        "mariner.inspiration": 1,
        "mariner.weather": 1,
        "mariner.inspiration.nature": 1,
        "mariner.weathermeta.rainy": 1,
        "mariner.weathermeta.cold": 1,
        "winter": 4
      },
      "xtriggers": {
        "mariner.signal.forceweatherdecay": [
          {
            "morpheffect": "decay"
          }
        ],
        "mariner.signal.performanceclearweather": "mariner.weathers.northsea.clear.performancespecial",
        "mariner.signal.performancerouseweather": "mariner.weathers.northsea.storm.performancespecial",
        "mariner.signal.channelratssetstorm": "mariner.weathers.northsea.storm.event",
        "mariner.signal.blizzardsetblizzard": "mariner.weathers.northsea.blizzard.event",
        "mariner.signal.borasetseasmoke": "mariner.weathers.northsea.seasmoke.event",
        "mariner.signal.mistralsetwind": "mariner.weathers.northsea.wind.event",
        "mariner.signal.harmattansetsandstorm": "mariner.weathers.northsea.sandstorm.event",
        "mariner.signal.siroccosetsirocco": "mariner.weathers.northsea.sirocco.event",
        "mariner.signal.brumesetnuma": "mariner.weathers.northsea.numa.event",
        "mariner.signal.arriveinsea.northsea": "mariner.weathers.changeto.northsea",
        "mariner.signal.arriveinsea.medsea": "mariner.weathers.changeto.medsea"
      },
      "decayTo": "mariner.weathers.northsea.storm.3"
    },
    {
      "id": "mariner.weathers.northsea.snow.2",
      "icon": "weathers/mariner.weathers.snow",
      "label": "Ice Sings",
      "description": "Ice snaps in the river. Sometimes it is hours between notes.",
      "lifetime": 363,
      "aspects": {
        "mariner.inspiration": 1,
        "mariner.weather": 1,
        "mariner.inspiration.nature": 1,
        "mariner.weathermeta.rainy": 1,
        "mariner.weathermeta.cold": 1,
        "winter": 4
      },
      "xtriggers": {
        "mariner.signal.forceweatherdecay": [
          {
            "morpheffect": "decay"
          }
        ],
        "mariner.signal.performanceclearweather": "mariner.weathers.northsea.clear.performancespecial",
        "mariner.signal.performancerouseweather": "mariner.weathers.northsea.storm.performancespecial",
        "mariner.signal.channelratssetstorm": "mariner.weathers.northsea.storm.event",
        "mariner.signal.blizzardsetblizzard": "mariner.weathers.northsea.blizzard.event",
        "mariner.signal.borasetseasmoke": "mariner.weathers.northsea.seasmoke.event",
        "mariner.signal.mistralsetwind": "mariner.weathers.northsea.wind.event",
        "mariner.signal.harmattansetsandstorm": "mariner.weathers.northsea.sandstorm.event",
        "mariner.signal.siroccosetsirocco": "mariner.weathers.northsea.sirocco.event",
        "mariner.signal.brumesetnuma": "mariner.weathers.northsea.numa.event",
        "mariner.signal.arriveinsea.northsea": "mariner.weathers.changeto.northsea",
        "mariner.signal.arriveinsea.medsea": "mariner.weathers.changeto.medsea"
      },
      "decayTo": "mariner.weathers.northsea.mist.1"
    },
    {
      "id": "mariner.weathers.northsea.bright.1",
      "icon": "weathers/mariner.weathers.bright",
      "label": "Bright Day's Bustle",
      "description": "Life inevitably finds its way outside on a lovely day. Its sounds follow.",
      "lifetime": 336,
      "aspects": {
        "mariner.inspiration": 1,
        "mariner.weather": 1,
        "mariner.inspiration.nature": 1,
        "mariner.weathermeta.sunny": 1,
        "mariner.weathermeta.clear": 1,
        "lantern": 4,
        "heart": 4
      },
      "xtriggers": {
        "mariner.signal.forceweatherdecay": [
          {
            "morpheffect": "decay"
          }
        ],
        "mariner.signal.performanceclearweather": "mariner.weathers.northsea.clear.performancespecial",
        "mariner.signal.performancerouseweather": "mariner.weathers.northsea.storm.performancespecial",
        "mariner.signal.channelratssetstorm": "mariner.weathers.northsea.storm.event",
        "mariner.signal.blizzardsetblizzard": "mariner.weathers.northsea.blizzard.event",
        "mariner.signal.borasetseasmoke": "mariner.weathers.northsea.seasmoke.event",
        "mariner.signal.mistralsetwind": "mariner.weathers.northsea.wind.event",
        "mariner.signal.harmattansetsandstorm": "mariner.weathers.northsea.sandstorm.event",
        "mariner.signal.siroccosetsirocco": "mariner.weathers.northsea.sirocco.event",
        "mariner.signal.brumesetnuma": "mariner.weathers.northsea.numa.event",
        "mariner.signal.arriveinsea.northsea": "mariner.weathers.changeto.northsea",
        "mariner.signal.arriveinsea.medsea": "mariner.weathers.changeto.medsea"
      },
      "decayTo": "mariner.weathers.northsea.snow.2"
    },
    {
      "id": "mariner.weathers.northsea.bright.2",
      "icon": "weathers/mariner.weathers.bright",
      "label": "Bright Day's Bustle",
      "description": "Life inevitably finds its way outside on a lovely day. Its sounds follow.",
      "lifetime": 361,
      "aspects": {
        "mariner.inspiration": 1,
        "mariner.weather": 1,
        "mariner.inspiration.nature": 1,
        "mariner.weathermeta.sunny": 1,
        "mariner.weathermeta.clear": 1,
        "lantern": 4,
        "heart": 4
      },
      "xtriggers": {
        "mariner.signal.forceweatherdecay": [
          {
            "morpheffect": "decay"
          }
        ],
        "mariner.signal.performanceclearweather": "mariner.weathers.northsea.clear.performancespecial",
        "mariner.signal.performancerouseweather": "mariner.weathers.northsea.storm.performancespecial",
        "mariner.signal.channelratssetstorm": "mariner.weathers.northsea.storm.event",
        "mariner.signal.blizzardsetblizzard": "mariner.weathers.northsea.blizzard.event",
        "mariner.signal.borasetseasmoke": "mariner.weathers.northsea.seasmoke.event",
        "mariner.signal.mistralsetwind": "mariner.weathers.northsea.wind.event",
        "mariner.signal.harmattansetsandstorm": "mariner.weathers.northsea.sandstorm.event",
        "mariner.signal.siroccosetsirocco": "mariner.weathers.northsea.sirocco.event",
        "mariner.signal.brumesetnuma": "mariner.weathers.northsea.numa.event",
        "mariner.signal.arriveinsea.northsea": "mariner.weathers.changeto.northsea",
        "mariner.signal.arriveinsea.medsea": "mariner.weathers.changeto.medsea"
      },
      "decayTo": "mariner.weathers.northsea.rain.2"
    },
    {
      "id": "mariner.weathers.northsea.smog.1",
      "icon": "weathers/mariner.weathers.smog",
      "label": "The Hiss of Smog",
      "description": "Hateful vapors opress upon the lungs; The vengeful offspring of mankind's most glorious work.",
      "lifetime": 361,
      "aspects": {
        "mariner.inspiration": 1,
        "mariner.weather": 1,
        "mariner.inspiration.nature": 1,
        "mariner.weathermeta.sickly": 1,
        "mariner.weathermeta.misty": 1,
        "forge": 4,
        "winter": 4
      },
      "xtriggers": {
        "mariner.signal.forceweatherdecay": [
          {
            "morpheffect": "decay"
          }
        ],
        "mariner.signal.performanceclearweather": "mariner.weathers.northsea.clear.performancespecial",
        "mariner.signal.performancerouseweather": "mariner.weathers.northsea.storm.performancespecial",
        "mariner.signal.channelratssetstorm": "mariner.weathers.northsea.storm.event",
        "mariner.signal.blizzardsetblizzard": "mariner.weathers.northsea.blizzard.event",
        "mariner.signal.borasetseasmoke": "mariner.weathers.northsea.seasmoke.event",
        "mariner.signal.mistralsetwind": "mariner.weathers.northsea.wind.event",
        "mariner.signal.harmattansetsandstorm": "mariner.weathers.northsea.sandstorm.event",
        "mariner.signal.siroccosetsirocco": "mariner.weathers.northsea.sirocco.event",
        "mariner.signal.brumesetnuma": "mariner.weathers.northsea.numa.event",
        "mariner.signal.arriveinsea.northsea": "mariner.weathers.changeto.northsea",
        "mariner.signal.arriveinsea.medsea": "mariner.weathers.changeto.medsea"
      },
      "decayTo": "mariner.weathers.northsea.bright.1"
    },
    {
      "id": "mariner.weathers.northsea.smog.2",
      "icon": "weathers/mariner.weathers.smog",
      "label": "The Hiss of Smog",
      "description": "Hateful vapors opress upon the lungs; The vengeful offspring of mankind's most glorious work.",
      "lifetime": 387,
      "aspects": {
        "mariner.inspiration": 1,
        "mariner.weather": 1,
        "mariner.inspiration.nature": 1,
        "mariner.weathermeta.sickly": 1,
        "mariner.weathermeta.misty": 1,
        "forge": 4,
        "winter": 4
      },
      "xtriggers": {
        "mariner.signal.forceweatherdecay": [
          {
            "morpheffect": "decay"
          }
        ],
        "mariner.signal.performanceclearweather": "mariner.weathers.northsea.clear.performancespecial",
        "mariner.signal.performancerouseweather": "mariner.weathers.northsea.storm.performancespecial",
        "mariner.signal.channelratssetstorm": "mariner.weathers.northsea.storm.event",
        "mariner.signal.blizzardsetblizzard": "mariner.weathers.northsea.blizzard.event",
        "mariner.signal.borasetseasmoke": "mariner.weathers.northsea.seasmoke.event",
        "mariner.signal.mistralsetwind": "mariner.weathers.northsea.wind.event",
        "mariner.signal.harmattansetsandstorm": "mariner.weathers.northsea.sandstorm.event",
        "mariner.signal.siroccosetsirocco": "mariner.weathers.northsea.sirocco.event",
        "mariner.signal.brumesetnuma": "mariner.weathers.northsea.numa.event",
        "mariner.signal.arriveinsea.northsea": "mariner.weathers.changeto.northsea",
        "mariner.signal.arriveinsea.medsea": "mariner.weathers.changeto.medsea"
      },
      "decayTo": "mariner.weathers.northsea.clear.3"
    },
    {
      "id": "mariner.weathers.changeto.northsea",
      "decayTo": [
        "mariner.weathers.northsea.mist.1",
        "mariner.weathers.northsea.mist.2",
        "mariner.weathers.northsea.rain.1",
        "mariner.weathers.northsea.rain.2",
        "mariner.weathers.northsea.wind.1",
        "mariner.weathers.northsea.wind.2",
        "mariner.weathers.northsea.storm.1",
        "mariner.weathers.northsea.storm.2",
        "mariner.weathers.northsea.storm.3",
        "mariner.weathers.northsea.storm.4",
        "mariner.weathers.northsea.clear.1",
        "mariner.weathers.northsea.clear.2",
        "mariner.weathers.northsea.clear.3",
        "mariner.weathers.northsea.snow.1",
        "mariner.weathers.northsea.snow.2",
        "mariner.weathers.northsea.bright.1",
        "mariner.weathers.northsea.bright.2",
        "mariner.weathers.northsea.smog.1",
        "mariner.weathers.northsea.smog.2"
      ],
      "lifetime": 1
    },
    {
      "id": "mariner.weathers.northsea.clear.performancespecial",
      "icon": "weathers/mariner.weathers.clear",
      "label": "A Blank Sky",
      "description": "The sky is a patchwork of grey and white and blue, partway between stained vellum and a half-shorn fleece",
      "lifetime": 280,
      "aspects": {
        "mariner.inspiration": 1,
        "mariner.weather": 1,
        "mariner.inspiration.nature": 1,
        "mariner.weathermeta.clear": 1
      },
      "xtriggers": {
        "mariner.signal.forceweatherdecay": [
          {
            "morpheffect": "decay"
          }
        ],
        "mariner.signal.performanceclearweather": "mariner.weathers.northsea.clear.performancespecial",
        "mariner.signal.performancerouseweather": "mariner.weathers.northsea.storm.performancespecial",
        "mariner.signal.channelratssetstorm": "mariner.weathers.northsea.storm.event",
        "mariner.signal.blizzardsetblizzard": "mariner.weathers.northsea.blizzard.event",
        "mariner.signal.borasetseasmoke": "mariner.weathers.northsea.seasmoke.event",
        "mariner.signal.mistralsetwind": "mariner.weathers.northsea.wind.event",
        "mariner.signal.harmattansetsandstorm": "mariner.weathers.northsea.sandstorm.event",
        "mariner.signal.siroccosetsirocco": "mariner.weathers.northsea.sirocco.event",
        "mariner.signal.brumesetnuma": "mariner.weathers.northsea.numa.event",
        "mariner.signal.arriveinsea.northsea": "mariner.weathers.changeto.northsea",
        "mariner.signal.arriveinsea.medsea": "mariner.weathers.changeto.medsea"
      },
      "decayTo": "mariner.weathers.northsea.bright.2"
    },
    {
      "id": "mariner.weathers.northsea.storm.performancespecial",
      "icon": "weathers/mariner.weathers.storm",
      "label": "A Storm Howls",
      "description": "The sky's drum beats a furious rhythm.",
      "lifetime": 280,
      "aspects": {
        "mariner.inspiration": 1,
        "mariner.weather": 1,
        "mariner.inspiration.nature": 1,
        "mariner.weathermeta.rainy": 1,
        "mariner.weathermeta.windy": 1,
        "mariner.weathermeta.stormy": 1,
        "heart": 4,
        "edge": 4
      },
      "xtriggers": {
        "mariner.signal.forceweatherdecay": [
          {
            "morpheffect": "decay"
          }
        ],
        "mariner.signal.performanceclearweather": "mariner.weathers.northsea.clear.performancespecial",
        "mariner.signal.performancerouseweather": "mariner.weathers.northsea.storm.performancespecial",
        "mariner.signal.channelratssetstorm": "mariner.weathers.northsea.storm.event",
        "mariner.signal.blizzardsetblizzard": "mariner.weathers.northsea.blizzard.event",
        "mariner.signal.borasetseasmoke": "mariner.weathers.northsea.seasmoke.event",
        "mariner.signal.mistralsetwind": "mariner.weathers.northsea.wind.event",
        "mariner.signal.harmattansetsandstorm": "mariner.weathers.northsea.sandstorm.event",
        "mariner.signal.siroccosetsirocco": "mariner.weathers.northsea.sirocco.event",
        "mariner.signal.brumesetnuma": "mariner.weathers.northsea.numa.event",
        "mariner.signal.arriveinsea.northsea": "mariner.weathers.changeto.northsea",
        "mariner.signal.arriveinsea.medsea": "mariner.weathers.changeto.medsea"
      },
      "decayTo": "mariner.weathers.northsea.clear.3"
    },
    {
      "id": "mariner.weathers.northsea.blizzard.event",
      "icon": "weathers/mariner.weathers.blizzard",
      "label": "Blizzard",
      "description": "When snow and sleet is more pushing then falling, and the cold is so deep it no longer bites but burns. when even the memory of warmth flickers in the soul.",
      "lifetime": 280,
      "aspects": {
        "mariner.inspiration": 1,
        "mariner.weather": 1,
        "mariner.inspiration.nature": 1,
        "mariner.weathermeta.windy": 1,
        "mariner.weathermeta.cold": 1,
        "mariner.weathermeta.stormy": 1,
        "winter": 4,
        "edge": 4
      },
      "xtriggers": {
        "mariner.signal.forceweatherdecay": [
          {
            "morpheffect": "decay"
          }
        ],
        "mariner.signal.performanceclearweather": "mariner.weathers.northsea.clear.performancespecial",
        "mariner.signal.performancerouseweather": "mariner.weathers.northsea.storm.performancespecial",
        "mariner.signal.channelratssetstorm": "mariner.weathers.northsea.storm.event",
        "mariner.signal.blizzardsetblizzard": "mariner.weathers.northsea.blizzard.event",
        "mariner.signal.borasetseasmoke": "mariner.weathers.northsea.seasmoke.event",
        "mariner.signal.mistralsetwind": "mariner.weathers.northsea.wind.event",
        "mariner.signal.harmattansetsandstorm": "mariner.weathers.northsea.sandstorm.event",
        "mariner.signal.siroccosetsirocco": "mariner.weathers.northsea.sirocco.event",
        "mariner.signal.brumesetnuma": "mariner.weathers.northsea.numa.event",
        "mariner.signal.arriveinsea.northsea": "mariner.weathers.changeto.northsea",
        "mariner.signal.arriveinsea.medsea": "mariner.weathers.changeto.medsea"
      },
      "decayTo": "mariner.weathers.northsea.snow.2"
    },
    {
      "id": "mariner.weathers.northsea.sandstorm.event",
      "icon": "weathers/mariner.weathers.sandstorm",
      "label": "Sandstorm",
      "description": "The sky thirsts and the wind is laced with a million needles and a thousand sabres.",
      "lifetime": 280,
      "aspects": {
        "mariner.inspiration": 1,
        "mariner.weather": 1,
        "mariner.inspiration.nature": 1,
        "mariner.weathermeta.windy": 1,
        "mariner.weathermeta.sandstorm": 1,
        "forge": 4,
        "edge": 4
      },
      "xtriggers": {
        "mariner.signal.forceweatherdecay": [
          {
            "morpheffect": "decay"
          }
        ],
        "mariner.signal.performanceclearweather": "mariner.weathers.northsea.clear.performancespecial",
        "mariner.signal.performancerouseweather": "mariner.weathers.northsea.storm.performancespecial",
        "mariner.signal.channelratssetstorm": "mariner.weathers.northsea.storm.event",
        "mariner.signal.blizzardsetblizzard": "mariner.weathers.northsea.blizzard.event",
        "mariner.signal.borasetseasmoke": "mariner.weathers.northsea.seasmoke.event",
        "mariner.signal.mistralsetwind": "mariner.weathers.northsea.wind.event",
        "mariner.signal.harmattansetsandstorm": "mariner.weathers.northsea.sandstorm.event",
        "mariner.signal.siroccosetsirocco": "mariner.weathers.northsea.sirocco.event",
        "mariner.signal.brumesetnuma": "mariner.weathers.northsea.numa.event",
        "mariner.signal.arriveinsea.northsea": "mariner.weathers.changeto.northsea",
        "mariner.signal.arriveinsea.medsea": "mariner.weathers.changeto.medsea"
      },
      "decayTo": "mariner.weathers.northsea.snow.2"
    },
    {
      "id": "mariner.weathers.northsea.seasmoke.event",
      "icon": "weathers/mariner.weathers.seasmoke",
      "label": "Seasmoke",
      "description": "The violence of the Furies, in a fog as dence as Asphodel. Forget everything except your will to survive.",
      "lifetime": 280,
      "aspects": {
        "mariner.inspiration": 1,
        "mariner.weather": 1,
        "mariner.inspiration.nature": 1,
        "mariner.weathermeta.misty": 1,
        "mariner.weathermeta.windy": 1,
        "mariner.weathermeta.rainy": 1,
        "mariner.weathermeta.stormy": 1,
        "moth": 4,
        "edge": 4
      },
      "xtriggers": {
        "mariner.signal.forceweatherdecay": [
          {
            "morpheffect": "decay"
          }
        ],
        "mariner.signal.performanceclearweather": "mariner.weathers.northsea.clear.performancespecial",
        "mariner.signal.performancerouseweather": "mariner.weathers.northsea.storm.performancespecial",
        "mariner.signal.channelratssetstorm": "mariner.weathers.northsea.storm.event",
        "mariner.signal.blizzardsetblizzard": "mariner.weathers.northsea.blizzard.event",
        "mariner.signal.borasetseasmoke": "mariner.weathers.northsea.seasmoke.event",
        "mariner.signal.mistralsetwind": "mariner.weathers.northsea.wind.event",
        "mariner.signal.harmattansetsandstorm": "mariner.weathers.northsea.sandstorm.event",
        "mariner.signal.siroccosetsirocco": "mariner.weathers.northsea.sirocco.event",
        "mariner.signal.brumesetnuma": "mariner.weathers.northsea.numa.event",
        "mariner.signal.arriveinsea.northsea": "mariner.weathers.changeto.northsea",
        "mariner.signal.arriveinsea.medsea": "mariner.weathers.changeto.medsea"
      },
      "decayTo": "mariner.weathers.northsea.storm.1"
    },
    {
      "id": "mariner.weathers.northsea.storm.event",
      "icon": "weathers/mariner.weathers.storm",
      "label": "A Storm Howls",
      "description": "The sky's drum beats a furious rhythm.",
      "lifetime": 280,
      "aspects": {
        "mariner.inspiration": 1,
        "mariner.weather": 1,
        "mariner.inspiration.nature": 1,
        "mariner.weathermeta.rainy": 1,
        "mariner.weathermeta.windy": 1,
        "mariner.weathermeta.stormy": 1,
        "heart": 4,
        "edge": 4
      },
      "xtriggers": {
        "mariner.signal.forceweatherdecay": [
          {
            "morpheffect": "decay"
          }
        ],
        "mariner.signal.performanceclearweather": "mariner.weathers.northsea.clear.performancespecial",
        "mariner.signal.performancerouseweather": "mariner.weathers.northsea.storm.performancespecial",
        "mariner.signal.channelratssetstorm": "mariner.weathers.northsea.storm.event",
        "mariner.signal.blizzardsetblizzard": "mariner.weathers.northsea.blizzard.event",
        "mariner.signal.borasetseasmoke": "mariner.weathers.northsea.seasmoke.event",
        "mariner.signal.mistralsetwind": "mariner.weathers.northsea.wind.event",
        "mariner.signal.harmattansetsandstorm": "mariner.weathers.northsea.sandstorm.event",
        "mariner.signal.siroccosetsirocco": "mariner.weathers.northsea.sirocco.event",
        "mariner.signal.brumesetnuma": "mariner.weathers.northsea.numa.event",
        "mariner.signal.arriveinsea.northsea": "mariner.weathers.changeto.northsea",
        "mariner.signal.arriveinsea.medsea": "mariner.weathers.changeto.medsea"
      },
      "decayTo": "mariner.weathers.northsea.bright.1"
    },
    {
      "id": "mariner.weathers.northsea.wind.event",
      "icon": "weathers/mariner.weathers.wind",
      "label": "Winds Whistle",
      "description": "The wind plays the trees, and sings it's own many voiced harmonies.",
      "lifetime": 280,
      "aspects": {
        "mariner.inspiration": 1,
        "mariner.weather": 1,
        "mariner.inspiration.nature": 1,
        "mariner.weathermeta.windy": 1,
        "moth": 4,
        "heart": 4
      },
      "xtriggers": {
        "mariner.signal.forceweatherdecay": [
          {
            "morpheffect": "decay"
          }
        ],
        "mariner.signal.performanceclearweather": "mariner.weathers.northsea.clear.performancespecial",
        "mariner.signal.performancerouseweather": "mariner.weathers.northsea.storm.performancespecial",
        "mariner.signal.channelratssetstorm": "mariner.weathers.northsea.storm.event",
        "mariner.signal.blizzardsetblizzard": "mariner.weathers.northsea.blizzard.event",
        "mariner.signal.borasetseasmoke": "mariner.weathers.northsea.seasmoke.event",
        "mariner.signal.mistralsetwind": "mariner.weathers.northsea.wind.event",
        "mariner.signal.harmattansetsandstorm": "mariner.weathers.northsea.sandstorm.event",
        "mariner.signal.siroccosetsirocco": "mariner.weathers.northsea.sirocco.event",
        "mariner.signal.brumesetnuma": "mariner.weathers.northsea.numa.event",
        "mariner.signal.arriveinsea.northsea": "mariner.weathers.changeto.northsea",
        "mariner.signal.arriveinsea.medsea": "mariner.weathers.changeto.medsea"
      },
      "decayTo": "mariner.weathers.northsea.bright.1"
    },
    {
      "id": "mariner.weathers.northsea.sirocco.event",
      "icon": "weathers/mariner.weathers.sirocco",
      "label": "The Whistle Of The Sirocco",
      "description": "The winds flow here mercilesly from where the Sun's rule is still felt most oppressively.",
      "lifetime": 280,
      "aspects": {
        "mariner.inspiration": 1,
        "mariner.weather": 1,
        "mariner.inspiration.nature": 1,
        "mariner.weathermeta.sunny": 1,
        "mariner.weathermeta.windy": 1,
        "forge": 4,
        "lantern": 4
      },
      "xtriggers": {
        "mariner.signal.forceweatherdecay": [
          {
            "morpheffect": "decay"
          }
        ],
        "mariner.signal.performanceclearweather": "mariner.weathers.northsea.clear.performancespecial",
        "mariner.signal.performancerouseweather": "mariner.weathers.northsea.storm.performancespecial",
        "mariner.signal.channelratssetstorm": "mariner.weathers.northsea.storm.event",
        "mariner.signal.blizzardsetblizzard": "mariner.weathers.northsea.blizzard.event",
        "mariner.signal.borasetseasmoke": "mariner.weathers.northsea.seasmoke.event",
        "mariner.signal.mistralsetwind": "mariner.weathers.northsea.wind.event",
        "mariner.signal.harmattansetsandstorm": "mariner.weathers.northsea.sandstorm.event",
        "mariner.signal.siroccosetsirocco": "mariner.weathers.northsea.sirocco.event",
        "mariner.signal.brumesetnuma": "mariner.weathers.northsea.numa.event",
        "mariner.signal.arriveinsea.northsea": "mariner.weathers.changeto.northsea",
        "mariner.signal.arriveinsea.medsea": "mariner.weathers.changeto.medsea"
      },
      "decayTo": "mariner.weathers.northsea.mist.1"
    },
    {
      "id": "mariner.weathers.northsea.numa.event",
      "icon": "weathers/mariner.weathers.numa",
      "label": "A Whisp of Nume-Brume",
      "description": "A swirl of the Ninth season has wafted onto the sea. Beyond the horizon, wherever we are, can now be found the Edge of the World.",
      "lifetime": 280,
      "aspects": {
        "mariner.inspiration": 1,
        "mariner.weather": 1,
        "mariner.inspiration.nature": 1,
        "mariner.weathermeta.misty": 1,
        "knock": 4
      },
      "xtriggers": {
        "mariner.signal.forceweatherdecay": [
          {
            "morpheffect": "decay"
          }
        ],
        "mariner.signal.performanceclearweather": "mariner.weathers.northsea.clear.performancespecial",
        "mariner.signal.performancerouseweather": "mariner.weathers.northsea.storm.performancespecial",
        "mariner.signal.channelratssetstorm": "mariner.weathers.northsea.storm.event",
        "mariner.signal.blizzardsetblizzard": "mariner.weathers.northsea.blizzard.event",
        "mariner.signal.borasetseasmoke": "mariner.weathers.northsea.seasmoke.event",
        "mariner.signal.mistralsetwind": "mariner.weathers.northsea.wind.event",
        "mariner.signal.harmattansetsandstorm": "mariner.weathers.northsea.sandstorm.event",
        "mariner.signal.siroccosetsirocco": "mariner.weathers.northsea.sirocco.event",
        "mariner.signal.brumesetnuma": "mariner.weathers.northsea.numa.event",
        "mariner.signal.arriveinsea.northsea": "mariner.weathers.changeto.northsea",
        "mariner.signal.arriveinsea.medsea": "mariner.weathers.changeto.medsea"
      },
      "decayTo": "mariner.weathers.northsea.wind.2"
    }
  ]
}