{
  "recipes": [
    {
      "id": "jumpstart.mariner.sailing.seaevents.start.operation_mercury",
      "actionId": "jumpstart.mariner.sailing.seaevents.start.operation_mercury",
      "effects": {
        "mariner.influences.forge": 10
      },
      "linked": [
        {
          "id": "mariner.sailing.seaevents.start.operation_mercury"
        }
      ]
    },
    {
      "id": "mariner.sailing.seaevents.start.operation_mercury",
      "warmup": 20,
      "grandReqs": {
        "root/mariner.flag.operation.gold.set": 1
      },
      "label": "The Operations of the Sky: Mercurial Airs",
      "startdescription": "The air thrums with potential. On days like these, painters become visionaries and alchemists bottle distilled truth. This is not the season called numa, but rather the clear air that remains after thie ringing of certain bella. With the applicaiton of Forge in her highest form, we can tame not only wind and wave but the flame of time herself.",
      "linked": [
        {
          "id": "mariner.sailing.seaevents.operation_mercury.outcome.success",
          "chance": "([forge]/10)*100"
        },
        {
          "id": "mariner.sailing.seaevents.operation_mercury.outcome.failure"
        }
      ],
      "lots": [
        {
          "actionId": "mariner.sail",
          "id": "mariner.sail1",
          "label": "Help",
          "description": "Which implements are available for my approach.",
          "required": {
            "funds": 1,
            "mariner.crew": 1,
            "tool": 1,
            "mariner.inspiration.nature": 1,
            "mariner.lackheart": 1,
            "mariner.halfheart": 1
          },
          "forbidden": {
            "mariner.crew.traits.landlubber": 1,
            "mariner.crew.exhausted": 1,
            "mariner.tool.broken": 1,
            "mariner.vaults.help": 1
          }
        },
        {
          "actionId": "mariner.sail",
          "id": "mariner.sail2",
          "label": "Help",
          "description": "Which implements are available for my approach.",
          "required": {
            "funds": 1,
            "mariner.crew": 1,
            "tool": 1,
            "mariner.inspiration.nature": 1,
            "mariner.lackheart": 1,
            "mariner.halfheart": 1
          },
          "forbidden": {
            "mariner.crew.traits.landlubber": 1,
            "mariner.crew.exhausted": 1,
            "mariner.tool.broken": 1,
            "mariner.vaults.help": 1
          }
        },
        {
          "actionId": "mariner.sail",
          "id": "mariner.sail3",
          "label": "Help",
          "description": "Which implements are available for my approach.",
          "required": {
            "funds": 1,
            "mariner.crew": 1,
            "tool": 1,
            "mariner.inspiration.nature": 1,
            "mariner.lackheart": 1,
            "mariner.halfheart": 1
          },
          "forbidden": {
            "mariner.crew.traits.landlubber": 1,
            "mariner.crew.exhausted": 1,
            "mariner.tool.broken": 1,
            "mariner.vaults.help": 1
          }
        }
      ]
    },
    {
      "id": "mariner.sailing.seaevents.operation_mercury.outcome.success",
      "warmup": 20,
      "label": "In Perpetuum Potestas, in Potentia Perpetua",
      "startdescription": "There is a power who cannot act, not yet. but in the space between potential and reality, they are known nudge things in the right direction. and now, so are we. We will arrive at our location imminently.",
      "effects": {
        "mariner.sailing.distancetravelled": 300
      },
      "linked": [
        {
          "id": "mariner.sailing.postevent"
        }
      ]
    },
    {
      "id": "mariner.sailing.seaevents.operation_mercury.outcome.failure",
      "warmup": 20,
      "label": "Baser Weathers",
      "startdescription": "We could not meet the demands to wield the airs of potential. The pressure shifts, the moment fades, and we drift back into less leaden weather patterns.",
      "linked": [
        {
          "id": "mariner.sailing.postevent"
        }
      ]
    }
  ]
}