{
  "recipes": [
    {
      "id": "mariner.agentactions.default.investigate",
      "furthermore": [
        {
          "target": "~/exterior",
          "aspects": {
            "mariner.signal.agent.pressureport": 1
          }
        }
      ]
    }
  ]
}