{
  "recipes": [
    {
      "id": "mariner.conversations.medsea.marseille.alexia.chest",
      "craftable": true,
      "actionId": "talk",
      "warmup": 60,
      "label": "<Ask for help with a Ward>",
      "startdescription": "\"<A Ward on a Chest?>\"",
      "grandReqs": {
        "mariner.vaults.thebes.chest": 1,
        "mariner.locations.medsea.marseille.alexia": 1,
        "mariner.location.hostile": -1
      },
      "description": "\"<Pilfered from some forgotten corner of history?\" She examines the chest, following the grain of the wood and inspecting the chains closely. \"Triple chained... The work of the House of Lethe, I would venture. \" She laces her fingers, then frowns.\"These wards and curses are extensive, more extensive then I could tackle here in the field. And if I took it back to the Institute, you are unlikely to see the contents again. I have a contact in Constantinople, Mother Euphresme. I would trust her capable of opening this lock.\""
    },
    {
      "id": "mariner.conversations.medsea.marseille.alexia.hyksos",
      "craftable": true,
      "actionId": "talk",
      "warmup": 60,
      "label": "<Discuss the Unknown Glyphs with Miss Alexia>",
      "startdescription": "\"<You have something you wish to show me?>\"",
      "grandReqs": {
        "mariner.vaults.damascus.glyphs.hidden": 1,
        "mariner.locations.medsea.marseille.alexia": 1,
        "mariner.location.hostile": -1
      },
      "description": "\"I do now recognise this script, though I can see some symbols that look much like Egyptian Hieroglyphs. With your permission i will make a copy to enter into our own archives. Perhaps one of the researchers there can identify what it is.\" For the next couple of hours, Alexia is bend over the page, copying the copy meticulously, and taking copious notes. I do get back my rubbings at the end, thought she seems conflicted to let them go. I am unsure wether this is for her own curiosity, or a concern of public safety."
    },
    {
      "id": "mariner.conversations.medsea.marseille.alexia.halfheart",
      "craftable": true,
      "actionId": "talk",
      "warmup": 60,
      "label": "<Ask Miss Alexia after my Half-Heart>",
      "startdescription": "\"<Half-Heart? The term rings a bell...>\"",
      "grandReqs": {
        "mariner.halfheart": 1,
        "mariner.locations.medsea.marseille.alexia": 1,
        "mariner.location.hostile": -1
      },
      "description": "\"It is not something I would be called to deal with often. Most Half hearts are not much trouble, so I heard. But they are contained on our lists, when we are made aware of them. Since they are special births, but not special blood, they cannot be tracked preemptively.\""
    },
    {
      "id": "mariner.conversations.medsea.marseille.alexia.lackheart",
      "craftable": true,
      "actionId": "talk",
      "warmup": 60,
      "label": "<Ask Miss Alexia about my Lack-Heart>",
      "startdescription": "\"The darkness that dwells within? I am familiar\"",
      "grandReqs": {
        "mariner.lackheart": 1,
        "mariner.locations.medsea.marseille.alexia": 1,
        "mariner.location.hostile": -1
      },
      "description": "\"<Sometimes, when the nights are long and the work shows it worst face, I find myself envisioning myself on a stairwell, spiralling down into a dark pit below. Faintly, far above I can see light, but I am so tired, and my body aches. It would be so much easier just to sink into the darkness. But I do not, Because every step brings me closer to the light. That's why I keep moving.>\""
    },
    {
      "id": "mariner.conversations.medsea.marseille.alexia.vagabonddedication",
      "craftable": true,
      "actionId": "talk",
      "warmup": 60,
      "label": "<Discuss with Alexia of the Centipedes Pilgrimage>",
      "startdescription": "\"\"",
      "grandReqs": {
        "mariner.ascension.vagabond.dedication": 1,
        "mariner.locations.medsea.marseille.alexia": 1,
        "mariner.location.hostile": -1
      },
      "description": "\"I heard a rumour, that the Pilgrimage the Centipede sets out for Half Hearts is quite unlike those the other Vageries go on. Ofcourse there are very few historical documents of confirmed Halfhearts, so it's hard to speak on it with much certainty.\""
    },
    {
      "id": "mariner.conversations.medsea.marseille.alexia.twinsdedication",
      "craftable": true,
      "actionId": "talk",
      "warmup": 60,
      "label": "<Discuss with Alexia the Path of Becoming Whole>",
      "startdescription": "\"<You seek to repair your lonely heart?>\"",
      "grandReqs": {
        "mariner.ascension.twins.dedication": 1,
        "mariner.locations.medsea.marseille.alexia": 1,
        "mariner.location.hostile": -1
      },
      "description": "\"No man is an island, or so the saying goes. But in the hazy cacophony of modernity, I something worry we are all islands, drifting apart in the fog of confusion. I wish you luck, but I bid you caution. If the costs to the world becomes too great... I would hate for you to become another assignment.\""
    },
    {
      "id": "mariner.conversations.medsea.marseille.alexia.forgesong",
      "craftable": true,
      "actionId": "talk",
      "warmup": 60,
      "label": "<Discuss the Power of my Songs>",
      "startdescription": "\"You wish to discuss the magic of chants and incantations?\"",
      "grandReqs": {
        "mariner.song.forge": 1,
        "mariner.locations.medsea.marseille.alexia": 1,
        "mariner.location.hostile": -1
      },
      "description": "\"I studied the Arts of Brigid, Skadi and the Skalds. Songs of Light and dancing shadows, the sputtering of fires and the wail of brass and steel. [insert something it forge songs can do]\""
    },
    {
      "id": "mariner.conversations.medsea.marseille.alexia.knocksong",
      "craftable": true,
      "actionId": "talk",
      "warmup": 60,
      "label": "<Discuss the Power of my Songs>",
      "startdescription": "\"<You wish to discuss the practice of chants and incantations?>\"",
      "grandReqs": {
        "mariner.song.knock": 1,
        "mariner.locations.medsea.marseille.alexia": 1,
        "mariner.location.hostile": -1
      },
      "description": "\"The songs of the underplaces and the spaces between... I have come across them in my Investigations. Some aspects of the mansus are best described in mathematics, but it's dimensions are best expressed in Song. But my experiences are just in the field, not in study. Perhaps someone who holds more of a focus on the spiritual can bring you further.\""
    },
    {
      "id": "mariner.conversations.medsea.marseille.alexia.quest.studentexsanguinate.1",
      "craftable": true,
      "actionId": "talk",
      "warmup": 60,
      "label": "<Discuss the Case of the Student Exsanguinate>",
      "startdescription": "\"<You have a case you wish to discuss with me?>\"",
      "grandReqs": {
        "mariner.song.knock": 1,
        "mariner.locations.medsea.marseille.alexia": 1,
        "mariner.location.hostile": -1
      },
      "description": "\"You have kept pushing? I understand the fascination of investigation. Don’t let it pull you too deep, and if you find something I should know, don’t be a stranger. \""
    },
    {
      "id": "mariner.conversations.medsea.marseille.alexia.quest.studentexsanguinate.2",
      "craftable": true,
      "actionId": "talk",
      "warmup": 60,
      "label": "<Discuss the Case of the Student Exsanguinate further>",
      "startdescription": "\"<There have been developments?>\"",
      "grandReqs": {
        "mariner.song.knock": 1,
        "mariner.locations.medsea.marseille.alexia": 1,
        "mariner.location.hostile": -1
      },
      "description": "\"Peculiar in the least, troubling at worst. At this time, the ties to this city cannot be ignored.\""
    },
    {
      "id": "mariner.conversations.medsea.marseille.alexia.quest.stink.1",
      "craftable": true,
      "actionId": "talk",
      "warmup": 60,
      "label": "Discuss the Stench of Marseille",
      "startdescription": "\"<You have a case you wish to discuss with me?>\"",
      "grandReqs": {
        "mariner.song.knock": 1,
        "mariner.locations.medsea.marseille.alexia": 1,
        "mariner.location.hostile": -1
      },
      "description": "\"I make it a point not to speculate about my theories when there are witnesses present. It might just lead them to foolish conclusions. Let me process this on my own until we have acquired some more data, and I can sort the threats from possible to probable to faint.\""
    },
    {
      "id": "mariner.conversations.medsea.marseille.alexia.quest.bewitch.1",
      "craftable": true,
      "actionId": "talk",
      "warmup": 60,
      "label": "<Discuss the Bewitchment of the City>",
      "startdescription": "\"<You have a case you wish to discuss with me?>\"",
      "grandReqs": {
        "mariner.song.knock": 1,
        "mariner.locations.medsea.marseille.alexia": 1,
        "mariner.location.hostile": -1
      },
      "description": "\"A minor cretin at the best of times. I would tell you to be careful with dealing with him, but I trust you will be able to handle him. Just remember that all of his motives will be of the utmost selfishness, and that he can only be relied on only in his villainy.\""
    },
    {
      "id": "mariner.conversations.medsea.marseille.alexia.quest.bewitch.2",
      "craftable": true,
      "actionId": "talk",
      "warmup": 60,
      "label": "<Discuss the Bewitchment of the City further>",
      "startdescription": "\"<There have been further developments?>\"",
      "grandReqs": {
        "mariner.song.knock": 1,
        "mariner.locations.medsea.marseille.alexia": 1,
        "mariner.location.hostile": -1
      },
      "description": "\"Well from the stench on the wind I can guess who is behind these latest irregularities. I hope what you get from him will be worth it. If you speak with your accomplice, you can let him know that he has not escaped my notice, but that he shares a level of priority on my to do list, with the other cockroaches that crawl through the gutter.\""
    },
    {
      "id": "mariner.conversations.medsea.marseille.alexia.quest.towers.1",
      "craftable": true,
      "actionId": "talk",
      "warmup": 60,
      "label": "<Discuss the Vision of the Many Towers>",
      "startdescription": "\"<You have a case you wish to discuss with me?>\"",
      "grandReqs": {
        "mariner.song.knock": 1,
        "mariner.locations.medsea.marseille.alexia": 1,
        "mariner.location.hostile": -1
      },
      "description": "\" I am not sure what to tell you of the Mansus… as little as I can explain a sunset to the blind. But yes, there are directions in dreams. but it is a rare breed that can reject the rich delight of the Glory and not immediately flee back into the inviting ignorance of the dark Woods.\""
    },
    {
      "id": "mariner.conversations.medsea.marseille.alexia.quest.caper.1",
      "craftable": true,
      "actionId": "talk",
      "warmup": 60,
      "label": "<Discuss the Caper of the Copper Manse>",
      "startdescription": "\"\"",
      "grandReqs": {
        "mariner.song.knock": 1,
        "mariner.locations.medsea.marseille.alexia": 1,
        "mariner.location.hostile": -1
      },
      "description": "\"A burgling Count, you say?\" Alexia's eyes narrow for just a moment. \"I am sure I could not imagine something so odd. As for aiding and abetting them… even a witty crime is still illegal.\""
    },
    {
      "id": "mariner.conversations.medsea.marseille.alexia.quest.discardedtruth.1",
      "craftable": true,
      "actionId": "talk",
      "warmup": 60,
      "label": "<Discuss the Recovery of Discarded Truth>",
      "startdescription": "\"<You have a case you wish to discuss with me?>\"",
      "grandReqs": {
        "mariner.song.knock": 1,
        "mariner.locations.medsea.marseille.alexia": 1,
        "mariner.location.hostile": -1
      },
      "description": "\"Unearthing buried secrets, at the behest of one who cannot tell you what you might uncover… I can offer you nothing except a word of caution. Even doting old women can be dangerous… There is a tale I could tell you from London that would curdle your blood.\""
    },
    {
      "id": "mariner.conversations.medsea.marseille.alexia.quest.sisterhood.1",
      "craftable": true,
      "actionId": "talk",
      "warmup": 60,
      "label": "<Discuss the Reunion of the Sisterhood>",
      "startdescription": "\"<You have a case you wish to discuss with me?>\"",
      "grandReqs": {
        "mariner.song.knock": 1,
        "mariner.locations.medsea.marseille.alexia": 1,
        "mariner.location.hostile": -1
      },
      "description": "\"A heterodox sect hidden inside the orthodox church, disbanded out of fear of the inquisitions? I cannot say I am surprised. Organized religions always seem to vacillate between sponsoring witch-hunts and sheltering cults of enlightenment within their midst. The more things change...\""
    },
    {
      "id": "mariner.conversations.medsea.marseille.alexia.quest.wist.1",
      "craftable": true,
      "actionId": "talk",
      "warmup": 60,
      "label": "<Discuss the Path to Constellation>",
      "startdescription": "\"<You have a case you wish to discuss with me?>\"",
      "grandReqs": {
        "mariner.song.knock": 1,
        "mariner.locations.medsea.marseille.alexia": 1,
        "mariner.location.hostile": -1
      },
      "description": "\"The House of Lethe is fascinating. An ancient fraternity but its principles still live on to this day: The Obliviates…  Never  the greatest source of my troubles, but their influence spreads far, and even when they are benign, they are so damn slippery.\""
    },
    {
      "id": "mariner.conversations.medsea.marseille.alexia.quest.wist.2",
      "craftable": true,
      "actionId": "talk",
      "warmup": 60,
      "label": "<Discuss the Path to Constellation further>",
      "startdescription": "\"<You have a case you wish to discuss with me?>\"",
      "grandReqs": {
        "mariner.song.knock": 1,
        "mariner.locations.medsea.marseille.alexia": 1,
        "mariner.location.hostile": -1
      },
      "description": "\"They say the elegiast is not a kind hour, but he is never cruel. Yet I fear for what he represents… Should we remember all that is now past, even those things wicked, cruel or profane? The Institute's official stance is that knowledge itself poses no danger, it's the all in the hands that hold it. But some days I believe the Watchman's Tree is right to bloom its flowers, and my hands have been known to stain red or black or white.\""
    },
    {
      "id": "mariner.conversations.medsea.marseille.alexia.quest.imago.1",
      "craftable": true,
      "actionId": "talk",
      "warmup": 60,
      "label": "<Discuss the Exemplary Path>",
      "startdescription": "\"<You have a case you wish to discuss with me?>\"",
      "grandReqs": {
        "mariner.song.knock": 1,
        "mariner.locations.medsea.marseille.alexia": 1,
        "mariner.location.hostile": -1
      },
      "description": "\"The tale of Mattias is a classic, each of its versions is in their own right. The Imago herself is now invoked as one of the Cardinals, and her presence is felt all across the world, but she rarely makes herself available for comment. But of Mattias… I do not know what became of him. I don’t think I know of anyone making contact with him after their rise into the service of the Forge, nor have I ever heard any suggestion that he might have been cast down. Might he burn still? Or does he serve as fuel for another's flame. \""
    },
    {
      "id": "mariner.conversations.medsea.marseille.alexia.quest.muse.1",
      "craftable": true,
      "actionId": "talk",
      "warmup": 60,
      "label": "<Discuss the Chase of the Missing Muse>",
      "startdescription": "\"<You have a case you wish to discuss with me?>\"",
      "grandReqs": {
        "mariner.song.knock": 1,
        "mariner.locations.medsea.marseille.alexia": 1,
        "mariner.location.hostile": -1
      },
      "description": "\"Blomkvist? That is more the kind of music that my father is into, and I have done my best to avoid it.  But I have heard of the Stemmelos Havfrue. A seminal piece of music, showing how to incorporate the mysteries of Heart into music without compelling the audience to flay itself. Occultists might call it gutless, but I can appreciate its approachability. But having seen the trajectory of other mystic artists like Savage, perhaps it is best if mr. Blomkvist and his muse are never reunited.\""
    },
    {
      "id": "mariner.conversations.medsea.marseille.mfm.chest",
      "craftable": true,
      "actionId": "talk",
      "warmup": 60,
      "label": "Show of the Chest to mister Sombrueil",
      "startdescription": "\"<Some loot you want to deciminate?>\"",
      "grandReqs": {
        "mariner.vaults.thebes.chest": 1,
        "mariner.locations.medsea.marseille.mfm": 1,
        "mariner.location.hostile": -1
      },
      "description": "\"Let's see what we have here...\" He hardly touches the chest before his hand recoils, and he snaps back at me, expression darkened. \"What is this? are you trying to trap me?\". His lanky, sharp frame suddenly cast an menacing shadow in the room. \"In the future, be mindful not to bring items trapped in active snares to your business partners. I am not a saint willing to risk my hide for your profit.\""
    },
    {
      "id": "mariner.conversations.medsea.marseille.mfm.hyksos",
      "craftable": true,
      "actionId": "talk",
      "warmup": 60,
      "label": "<Discuss the unknown glyphs with mister Sombrueil>",
      "startdescription": "\"Something mysterious and illicit? my, that could be my calling card.\"",
      "grandReqs": {
        "mariner.vaults.damascus.glyphs.hidden": 1,
        "mariner.locations.medsea.marseille.mfm": 1,
        "mariner.location.hostile": -1
      },
      "description": "Sereno studies the rubbings for a long time, pushing aside my hands not to miss a single stroke. He sighs, a not unhappy sound, before he turns back to me.\"My, My, quite the find. You hold there a Treshold Ward written in Hyksos, the Tongue of the western Kings. Sell it for a premium, or use it in schemes where desire and danger meet.\""
    },
    {
      "id": "mariner.conversations.medsea.marseille.mfm.lackheart",
      "craftable": true,
      "actionId": "talk",
      "warmup": 60,
      "label": "<Talk to Sereno about my Lack Heart>",
      "startdescription": "\"<You feel a dark emptyness inside?>\"",
      "grandReqs": {
        "mariner.lackheart": 1,
        "mariner.locations.medsea.marseille.mfm": 1,
        "mariner.location.hostile": -1
      },
      "description": "\"Yes. That what is there at the heart of things. Some people flee that knowledge, instead of facing the fact. Others ply themselves with a false paradise, imagined beauty. But it takes true strength to aknowledge the pit we find ourself in. Only then, can you begin to rise.\""
    },
    {
      "id": "mariner.conversations.medsea.marseille.mfm.vagabonddedication",
      "craftable": true,
      "actionId": "talk",
      "warmup": 60,
      "label": "<Talk to Sereno Sombrueil about the Centipedes Pilgrimage>",
      "startdescription": "\"<Listening to the Centipedes whsiper, are you>\"",
      "grandReqs": {
        "mariner.ascension.vagabond.dedication": 1,
        "mariner.locations.medsea.marseille.mfm": 1,
        "mariner.location.hostile": -1
      },
      "description": "\"It'll bring you to interesting places, if it doesn't bring you death. The world does not look kind upon percieved vermin crawling into places uninvited, belief me.\""
    },
    {
      "id": "mariner.conversations.medsea.marseille.mfm.twinsdedication",
      "craftable": true,
      "actionId": "talk",
      "warmup": 60,
      "label": "<Talk to Sereno Sombruiel about the Path to Becoming Whole>",
      "startdescription": "\"<So the Twins guiding your path huh?>\"",
      "grandReqs": {
        "mariner.ascension.twins.dedication": 1,
        "mariner.locations.medsea.marseille.mfm": 1,
        "mariner.location.hostile": -1
      },
      "description": "\"Well, I cannot blame you. Everyone deserves to feel whole. If this is your path, I wish you all the luck. They are fickle patrons to have picking at your soul.\""
    },
    {
      "id": "mariner.conversations.medsea.marseille.mfm.songedge",
      "craftable": true,
      "actionId": "talk",
      "warmup": 60,
      "label": "<<Discuss the Power of my Songs>>",
      "startdescription": "\"<I am not very musically minded, but Power I find irresistable.>\"",
      "grandReqs": {
        "mariner.song.edge": 1,
        "mariner.locations.medsea.marseille.mfm": 1,
        "mariner.location.hostile": -1
      },
      "description": "\"Conflict is the engine on which the world runs. The Direciton of Edge is moving in the direcitons of your obstacles, but also what drives you forward. If you wish to confuse your enemies, for example, combine the puzzling Intent of Moth with the Direction of Edge.\""
    },
    {
      "id": "mariner.conversations.medsea.marseille.mfm.songwrong",
      "craftable": true,
      "actionId": "talk",
      "warmup": 60,
      "label": "<<Discuss the Power of my Songs>>",
      "startdescription": "\"<I am not very musically minded, but Power I find irresistable.>\"",
      "grandReqs": {
        "mariner.song": 1,
        "mariner.locations.medsea.marseille.mfm": 1,
        "mariner.location.hostile": -1
      },
      "description": "\"Yes? I see. Tell what you have discovered so far...\" While the we talk for a while, Sereno stays cagey. After a while it becomes clear he is knows nothing, or is unwilling to share, and is simply trying to get me to spill what I know."
    },
    {
      "id": "mariner.conversations.medsea.marseille.mfm.quest.student.1",
      "craftable": true,
      "actionId": "talk",
      "warmup": 60,
      "label": "<Discuss the Case of the Student Exsanguinate>",
      "startdescription": "\"<You are on a job?>\"",
      "grandReqs": {
        "mariner.song.knock": 1,
        "mariner.locations.medsea.marseille.mfm": 1,
        "mariner.location.hostile": -1
      },
      "description": "\"Grisly scene huh? Isn’t it amazing what men can inflict with just a scalpel and a blade… I wonder if there was anyone to witness the gruesome act… \""
    },
    {
      "id": "mariner.conversations.medsea.marseille.mfm.quest.stench.1",
      "craftable": true,
      "actionId": "talk",
      "warmup": 60,
      "label": "<Discuss the Stench of Marseille>",
      "startdescription": "\"<You are on a job?>\"",
      "grandReqs": {
        "mariner.song.knock": 1,
        "mariner.locations.medsea.marseille.mfm": 1,
        "mariner.location.hostile": -1
      },
      "description": "\"Smells like peaches and cream to me… the smell of greed and opportunity. There is nothing else this city should smell like.\""
    },
    {
      "id": "mariner.conversations.medsea.marseille.mfm.quest.stench.2",
      "craftable": true,
      "actionId": "talk",
      "warmup": 60,
      "label": "<Discuss the Stench of Marseille further>",
      "startdescription": "\"<Still on the job?>\"",
      "grandReqs": {
        "mariner.song.knock": 1,
        "mariner.locations.medsea.marseille.mfm": 1,
        "mariner.location.hostile": -1
      },
      "description": "\"A hospital? I am sure I could tell you nothing of interest about that. All I will say is, if you find yourself injured or sick, I would recommend being so at the other side of town.\""
    },
    {
      "id": "mariner.conversations.medsea.marseille.mfm.quest.bewitch.1",
      "craftable": true,
      "actionId": "talk",
      "warmup": 60,
      "label": "<Discuss the Bewitchment of the city>",
      "startdescription": "\"<You are on a job?>\"",
      "grandReqs": {
        "mariner.song.knock": 1,
        "mariner.locations.medsea.marseille.mfm": 1,
        "mariner.location.hostile": -1
      },
      "description": "\"Don’t worry about the details, I will be sure to make it worth your while.\""
    },
    {
      "id": "mariner.conversations.medsea.marseille.mfm.quest.towers.1",
      "craftable": true,
      "actionId": "talk",
      "warmup": 60,
      "label": "<Discuss the Reverie of the Crumbling Towers>",
      "startdescription": "\"<You are on a job?>\"",
      "grandReqs": {
        "mariner.song.knock": 1,
        "mariner.locations.medsea.marseille.mfm": 1,
        "mariner.location.hostile": -1
      },
      "description": "\"Don’t you love these rats running in mazes? Even when they think to tunnel through the walls, they still go for the stinking cheese.\""
    },
    {
      "id": "mariner.conversations.medsea.marseille.mfm.quest.truth.1",
      "craftable": true,
      "actionId": "talk",
      "warmup": 60,
      "label": "<Discuss The Recovery of Discarded Truth>",
      "startdescription": "\"<You are on a job?>\"",
      "grandReqs": {
        "mariner.song.knock": 1,
        "mariner.locations.medsea.marseille.mfm": 1,
        "mariner.location.hostile": -1
      },
      "description": "\"Can’t let the past lie buried? I am the same. I pick at my past like a dog licking its wounds back open. Its pain can be a sweet succor \""
    },
    {
      "id": "mariner.conversations.medsea.marseille.mfm.quest.sisterhood.1",
      "craftable": true,
      "actionId": "talk",
      "warmup": 60,
      "label": "<Discuss the Reunion of a Sisterhood>",
      "startdescription": "\"<You are on a job?>\"",
      "grandReqs": {
        "mariner.song.knock": 1,
        "mariner.locations.medsea.marseille.mfm": 1,
        "mariner.location.hostile": -1
      },
      "description": "\"I know what it is to be persecuted. What is seen as vermin is rarely tolerated and never celebrated. These little flies have been scattered. I wish you good luck to catch your quarry.\""
    },
    {
      "id": "mariner.conversations.medsea.marseille.mfm.quest.caper.1",
      "craftable": true,
      "actionId": "talk",
      "warmup": 60,
      "label": "<Discuss The Caper of the Copper Manse>",
      "startdescription": "\"<You are on a job?>\"",
      "grandReqs": {
        "mariner.song.knock": 1,
        "mariner.locations.medsea.marseille.mfm": 1,
        "mariner.location.hostile": -1
      },
      "description": "\"\""
    },
    {
      "id": "mariner.conversations.medsea.marseille.mfm.quest.wist.1",
      "craftable": true,
      "actionId": "talk",
      "warmup": 60,
      "label": "<Discuss the path to Constellation>",
      "startdescription": "\"You are on a job?",
      "grandReqs": {
        "mariner.song.knock": 1,
        "mariner.locations.medsea.marseille.mfm": 1,
        "mariner.location.hostile": -1
      },
      "description": "\"<Cowards, generations and generations of cowards. If turning away from the world makes you special, then just brick yourself into a wall and suffocate in your splendid isolation.>\""
    },
    {
      "id": "mariner.conversations.medsea.marseille.mfm.quest.wist.2",
      "craftable": true,
      "actionId": "talk",
      "warmup": 60,
      "label": "<Discuss the path to Constellation further>",
      "startdescription": "\"You still on a job?\"",
      "grandReqs": {
        "mariner.song.knock": 1,
        "mariner.locations.medsea.marseille.mfm": 1,
        "mariner.location.hostile": -1
      },
      "description": "<I never considered this anonymity of there's a  wound to the soul… but scars hold power, the Apostate Hound can tell us that. I wonder what power the scarring of other parts of the soul might yield… He smiles his predator grin. \"I wonder which parts I even have left whole.\""
    },
    {
      "id": "mariner.conversations.medsea.marseille.mfm.quest.struggimento.1",
      "craftable": true,
      "actionId": "talk",
      "warmup": 60,
      "label": "<Discuss the Exemplory Path>",
      "startdescription": "\"<You are on a job?>\"",
      "grandReqs": {
        "mariner.song.knock": 1,
        "mariner.locations.medsea.marseille.mfm": 1,
        "mariner.location.hostile": -1
      },
      "description": "\"Pwah! The Cardinal Bug.. But I can’t say I know much about her. She was chased. She was plucked of her wings. She was immolated. All the things hunters are likely to do to bugs.\""
    },
    {
      "id": "mariner.conversations.medsea.marseille.mfm.quest.struggimento.2",
      "craftable": true,
      "actionId": "talk",
      "warmup": 60,
      "label": "<Discuss the Exemplory Path>",
      "startdescription": "\"<You still on a job?>\"",
      "grandReqs": {
        "mariner.song.knock": 1,
        "mariner.locations.medsea.marseille.mfm": 1,
        "mariner.location.hostile": -1
      },
      "description": "\"Ancient history, told and retold and chewed up and spit out again. Don’t trick yourself into thinking you will get to the truth. History is told by the victors and when they hold their peace, the silence is filled by fools instead.\""
    },
    {
      "id": "mariner.conversations.medsea.marseille.mfm.quest.muse.1",
      "craftable": true,
      "actionId": "talk",
      "warmup": 60,
      "label": "<Discuss with Sereno the Chase of the Missing Muse",
      "startdescription": "\"<You are on a job?>\"",
      "grandReqs": {
        "mariner.song.knock": 1,
        "mariner.locations.medsea.marseille.mfm": 1,
        "mariner.location.hostile": -1
      },
      "description": "\"The Old form\" He laughs a wheezing laugh. \"Gone. Dead or Gone. Vermin either way.\""
    },
    {
      "id": "mariner.quests.frenchheartcult.bothertheprofessor",
      "actionId": "talk",
      "craftable": true,
      "grandReqs": {
        "mariner.locations.medsea.marseille.professor": 1,
        "root/mariner.globalflags.frenchheartcult.unmaskedprofessor": -1,
        "[mariner.routines.professor.rest] + [mariner.routines.professor.rest2]": 1
      },
      "label": "<Bothering the Professor?>",
      "startdescription": "<>",
      "description": "<>",
      "warmup": 60,
      "effects": {
        "mariner.notoriety": 1
      }
    },
    {
      "id": "mariner.quests.frenchheartcult.tailtheprofessor",
      "actionId": "explore",
      "craftable": true,
      "grandReqs": {
        "mariner.locations.medsea.marseille.professor": 1,
        "root/mariner.globalflags.frenchheartcult.unmaskedprofessor": -1,
        "mariner.routines.professor.nightowl": 1
      },
      "label": "<Following the Professor?>",
      "linked": [
        {
          "id": "mariner.minigames.distancematching.tailingprofessor.start"
        }
      ]
    },
    {
      "id": "mariner.quests.frenchheartcult.unmaskprofessor",
      "label": "<Unmasked Professor>",
      "warmup": 60,
      "effects": {
        "mariner.locations.medsea.ossuary.away": -1
      }
    }
  ]
}