{
  "recipes": [
    {
      "id": "mariner.sailing.leaving.hint.localactivity",
      "label": "Cannot Leave",
      "actionId": "mariner.sail",
      "hintonly": true,
      "requirements": {
        "mariner.ship": 1,
        "mariner.destination": 1
      },
      "startdescription": "I am too entangled here... I cannot set sail until I tie up my affairs."
    },
    {
      "id": "mariner.sailing.postevent",
      "mutations": [
        {
          "filter": "mariner.crew",
          "mutate": "mariner.crew.exhausted",
          "level": 1,
          "additive": true
        }
      ],
      "movements": {
        "~/tabletop": [
          "mariner.crew",
          "mariner.song",
          "tool",
          "mariner.inspiration.nature",
          "mariner.lackheart",
          "mariner.halfheart"
        ]
      },
      "effects": {
        "mariner.sailing.eventopportunity": -1,
        "mariner.sailing.timesincelastevent": -20
      },
      "linked": [
        {
          "id": "mariner.sailing.cycleend"
        }
      ]
    },
    {
      "id": "mariner.sailing.cycleend",
      "furthermore": [
        {
          "effects": {
            "mariner.sailing.distancetravelledinpercents": -100
          }
        },
        {
          "effects": {
            "mariner.sailing.eventopportunity": "[mariner.sailing.timesincelastevent] >= 3 and [mariner.sailing.eventopportunity] == 0",
            "mariner.sailing.timespentatsea": 1,
            "mariner.sailing.timesincelastmeal": 1,
            "mariner.sailing.distancetravelled": "mariner.ship.speed"
          }
        },
        {
          "effects": {
            "mariner.sailing.distancetravelledinpercents": "Min(100, ([mariner.sailing.totaldistance] > 0) * (([mariner.sailing.distancetravelled] / [mariner.sailing.totaldistance]) * 100))"
          }
        }
      ],
      "inductions": [
        {
          "id": "mariner.starvation.start",
          "expulsion": {
            "filter": {
              "mariner.sailing.timesincelastmeal": 1
            }
          }
        }
      ],
      "linked": [
        {
          "id": "mariner.sailing.postmainloop"
        },
        {
          "id": "mariner.sailing.openseamainloop"
        },
        {
          "id": "mariner.sailing.mainloop"
        }
      ]
    },
    {
      "id": "mariner.sailing.postmainloop",
      "grandReqs": {
        "mariner.sailing.totaldistance": 1,
        "mariner.sailing.distancetravelled": "mariner.sailing.totaldistance"
      },
      "furthermore": [
        {
          "target": "~/exterior",
          "mutations": [
            {
              "filter": "mariner.waypoint",
              "mutate": "mariner.waypoint.comingfrom",
              "level": 0,
              "additive": false
            }
          ]
        },
        {
          "aspects": {
            "mariner.signal.arrivetodestination": 1
          }
        }
      ],
      "linked": []
    }
  ]
}