{
    "recipes": [
        {
            "id": "mariner.sailing.sinking",
            "label": "The World Shrinks",
            "actionId": "mariner.sail",
            "startdescription": "The pressure of all the ocean is pushing itself through the skin of my ship. The ends' approach is dreadfully quick, and numbingly slow.",
            "ending": "mariner.endings.sank",
            "signalendingflavour": "Melancholy",
            "warmup": 20,
            "requirements": {
                "mariner.ship.damage": "mariner.ship.durability"
            }
        },
        {
            "id": "mariner.sailing.sinkingfromevents",
            "label": "The World Shrinks",
            "actionId": "mariner.sinkingfromevents",
            "startdescription": "The pressure of all the ocean is pushing itself through the skin of my ship. The ends' approach is dreadfully quick, and numbingly slow.",
            "ending": "mariner.endings.sank",
            "signalendingflavour": "Melancholy",
            "warmup": 20,
            "requirements": {
                "mariner.ship.damage": "mariner.ship.durability"
            }
        }
    ]
}