{
  "elements": [
    {
      "id": "mariner.sailing.eventopportunity",
      "label": "Event Opportunity",
      "description": "I may encounter trails and tribulations on my travels."
    },
    {
      "id": "mariner.sailing.timespentatsea",
      "label": "[Time spent at sea]"
    },
    {
      "id": "mariner.sailing.timesincelastmeal",
      "label": "[Time since last meal]"
    },
    {
      "id": "mariner.sailing.timesincelastevent",
      "label": "[Time since last event]"
    },
    {
      "id": "mariner.sailing.totaldistance",
      "label": "Total distance to travel",
      "xtriggers": {
        "mariner.signal.arrivetodestination": {
          "morpheffect": "destroy"
        }
      }
    },
    {
      "id": "mariner.sailing.distancetravelled",
      "label": "Distance travelled",
      "xtriggers": {
        "mariner.signal.arrivetodestination": {
          "morpheffect": "destroy"
        }
      }
    },
    {
      "id": "mariner.sailing.distancetravelledinpercents",
      "label": "[Distance travelled in percents]",
      "xtriggers": {
        "mariner.signal.arrivetodestination": {
          "morpheffect": "destroy"
        }
      }
    }
  ]
}