{
  "elements": [
    {
      "id": "mariner.experiences.rattling",
      "icon": "experiences/rattling",
      "label": "A Rattling Experience",
      "description": "\"What I have lived through has shaken me too my core. Traces of it keep echoing in the hollow spaces of my soul, and in each reverberation renew its disquiet.\"",
      "aspects": {
        "mariner.experience": 1,
        "mariner.experiencefixedbystoryaspect.grim": 1
      },
      "lifetime": 480,
      "decayTo": "mariner.experiences.rattling.decayed",
      "xtriggers": {
        "mariner.signal.duplicateexperiences": {
          "morpheffect": "spawn",
          "id": "mariner.experiences.rattling"
        }
      },
      "slots": [
        {
          "id": "story",
          "ifAspectsPresent": {
            "mariner.bar": 1
          },
          "label": "Story",
          "description": "<related story to clear exp>",
          "actionId": "talk",
          "addsSlots": true,
          "required": {
            "mariner.story": 1
          }
        }
      ]
    },
    {
      "id": "mariner.experiences.rattling.standby",
      "overlays": [
        {
          "image": "experiences/rattling",
          "grayscale": true,
          "color": "#A6A6AA"
        }
      ],
      "label": "A Rattling Experience [stand by]",
      "description": "\"What I have lived through has shaken me too my core. Traces of it keep echoing in the hollow spaces of my soul, and in each reverberation renew its disquiet.\"",
      "aspects": {
        "mariner.experience": 1,
        "mariner.experience.standby": 1,
        "mariner.experiencefixedbystoryaspect.grim": 1
      },
      "xtriggers": {
        "mariner.signal.allowexperiences": "mariner.experiences.rattling",
        "mariner.signal.duplicateexperiences": {
          "morpheffect": "spawn",
          "id": "mariner.experiences.rattling.standby"
        }
      }
    },
    {
      "id": "mariner.experiences.rattling.decayed",
      "label": "A Rattling Experience [decayed]",
      "overlays": [
        {
          "image": "experiences/rattling",
          "grayscale": true,
          "color": "#000000"
        }
      ],
      "description": "\"What I have lived through has shaken me too my core. Traces of it keep echoing in the hollow spaces of my soul, and in each reverberation renew its disquiet.\"",
      "aspects": {
        "mariner.experience.decayed": 1,
        "mariner.experiencefixedbystoryaspect.grim": 1
      },
      "xtriggers": {
        "mariner.signal.duplicateexperiences": {
          "morpheffect": "spawn",
          "id": "mariner.experiences.rattling.decayed"
        }
      }
    },
    {
      "id": "mariner.experiences.dreadful",
      "icon": "experiences/dreadful",
      "label": "A Dreadful Experience",
      "description": "<\"A deep gloom has settled over my being after the past events. Soon, it might end up staining me until only darkness filters through to my heart.\">",
      "aspects": {
        "mariner.experience": 1,
        "mariner.experiencefixedbystoryaspect.grim": 1
      },
      "lifetime": 480,
      "decayTo": "mariner.experiences.dreadful.decayed",
      "xtriggers": {
        "mariner.signal.duplicateexperiences": {
          "morpheffect": "spawn",
          "id": "mariner.experiences.dreadful"
        }
      },
      "slots": [
        {
          "id": "story",
          "ifAspectsPresent": {
            "mariner.bar": 1
          },
          "label": "Story",
          "description": "<related story to clear exp>",
          "actionId": "talk",
          "addsSlots": true,
          "required": {
            "mariner.story": 1
          }
        }
      ]
    },
    {
      "id": "mariner.experiences.dreadful.standby",
      "overlays": [
        {
          "image": "experiences/dreadful",
          "grayscale": true,
          "color": "#A6A6AA"
        }
      ],
      "label": "A Dreadful Experience [stand by]",
      "description": "<\"A deep gloom has settled over my being after the past events. Soon, it might end up staining me until only darkness filters through to my heart.\">",
      "aspects": {
        "mariner.experience": 1,
        "mariner.experience.standby": 1,
        "mariner.experiencefixedbystoryaspect.grim": 1
      },
      "xtriggers": {
        "mariner.signal.allowexperiences": "mariner.experiences.dreadful",
        "mariner.signal.duplicateexperiences": {
          "morpheffect": "spawn",
          "id": "mariner.experiences.dreadful.standby"
        }
      }
    },
    {
      "id": "mariner.experiences.dreadful.decayed",
      "label": "A Dreadful Experience [decayed]",
      "overlays": [
        {
          "image": "experiences/dreadful",
          "grayscale": true,
          "color": "#000000"
        }
      ],
      "description": "<\"A deep gloom has settled over my being after the past events. Soon, it might end up staining me until only darkness filters through to my heart.\">",
      "aspects": {
        "mariner.experience.decayed": 1,
        "mariner.experiencefixedbystoryaspect.grim": 1
      },
      "xtriggers": {
        "mariner.signal.duplicateexperiences": {
          "morpheffect": "spawn",
          "id": "mariner.experiences.dreadful.decayed"
        }
      }
    },
    {
      "id": "mariner.experiences.unsettling",
      "icon": "experiences/unsettling",
      "label": "An Unsettling Experience",
      "description": "<My heart rate will not return to its regular beating. At the slightest sound my thoughts spiral away in unruly patterns.>",
      "aspects": {
        "mariner.experience": 1,
        "mariner.experiencefixedbystoryaspect.whimsical": 1
      },
      "lifetime": 480,
      "decayTo": "mariner.experiences.unsettling.decayed",
      "xtriggers": {
        "mariner.signal.duplicateexperiences": {
          "morpheffect": "spawn",
          "id": "mariner.experiences.unsettling"
        }
      },
      "slots": [
        {
          "id": "story",
          "ifAspectsPresent": {
            "mariner.bar": 1
          },
          "label": "Story",
          "description": "<related story to clear exp>",
          "actionId": "talk",
          "addsSlots": true,
          "required": {
            "mariner.story": 1
          }
        }
      ]
    },
    {
      "id": "mariner.experiences.unsettling.standby",
      "overlays": [
        {
          "image": "experiences/unsettling",
          "grayscale": true,
          "color": "#A6A6AA"
        }
      ],
      "label": "An Unsettling Experience [stand by]",
      "description": "<My heart rate will not return to its regular beating. At the slightest sound my thoughts spiral away in unruly patterns.>",
      "aspects": {
        "mariner.experience": 1,
        "mariner.experience.standby": 1,
        "mariner.experiencefixedbystoryaspect.whimsical": 1
      },
      "xtriggers": {
        "mariner.signal.allowexperiences": "mariner.experiences.unsettling",
        "mariner.signal.duplicateexperiences": {
          "morpheffect": "spawn",
          "id": "mariner.experiences.unsettling.standby"
        }
      }
    },
    {
      "id": "mariner.experiences.unsettling.decayed",
      "label": "An Unsettling Experience [decayed]",
      "overlays": [
        {
          "image": "experiences/unsettling",
          "grayscale": true,
          "color": "#000000"
        }
      ],
      "description": "<My heart rate will not return to its regular beating. At the slightest sound my thoughts spiral away in unruly patterns.>",
      "aspects": {
        "mariner.experience.decayed": 1,
        "mariner.experiencefixedbystoryaspect.whimsical": 1
      },
      "xtriggers": {
        "mariner.signal.duplicateexperiences": {
          "morpheffect": "spawn",
          "id": "mariner.experiences.unsettling.decayed"
        }
      }
    },
    {
      "id": "mariner.experiences.vivid",
      "icon": "experiences/vivid",
      "label": "An Vivid Experience",
      "description": "<I have peeked past the veil that covers the black seas of existence, and the sights I’ve seen will not leave me. When I close my eyes, the sights return.>",
      "aspects": {
        "mariner.experience": 1,
        "mariner.experiencefixedbystoryaspect.whimsical": 1
      },
      "lifetime": 480,
      "decayTo": "mariner.experiences.vivid.decayed",
      "xtriggers": {
        "mariner.signal.duplicateexperiences": {
          "morpheffect": "spawn",
          "id": "mariner.experiences.vivid"
        }
      },
      "slots": [
        {
          "id": "story",
          "ifAspectsPresent": {
            "mariner.bar": 1
          },
          "label": "Story",
          "description": "<related story to clear exp>",
          "actionId": "talk",
          "addsSlots": true,
          "required": {
            "mariner.story": 1
          }
        }
      ]
    },
    {
      "id": "mariner.experiences.vivid.standby",
      "overlays": [
        {
          "image": "experiences/vivid",
          "grayscale": true,
          "color": "#A6A6AA"
        }
      ],
      "label": "An Vivid Experience [stand by]",
      "description": "<I have peeked past the veil that covers the black seas of existence, and the sights I’ve seen will not leave me. When I close my eyes, the sights return.>",
      "aspects": {
        "mariner.experience": 1,
        "mariner.experience.standby": 1,
        "mariner.experiencefixedbystoryaspect.whimsical": 1
      },
      "xtriggers": {
        "mariner.signal.allowexperiences": "mariner.experiences.vivid",
        "mariner.signal.duplicateexperiences": {
          "morpheffect": "spawn",
          "id": "mariner.experiences.vivid.standby"
        }
      }
    },
    {
      "id": "mariner.experiences.vivid.decayed",
      "label": "An Vivid Experience [decayed]",
      "overlays": [
        {
          "image": "experiences/vivid",
          "grayscale": true,
          "color": "#000000"
        }
      ],
      "description": "<I have peeked past the veil that covers the black seas of existence, and the sights I’ve seen will not leave me. When I close my eyes, the sights return.>",
      "aspects": {
        "mariner.experience.decayed": 1,
        "mariner.experiencefixedbystoryaspect.whimsical": 1
      },
      "xtriggers": {
        "mariner.signal.duplicateexperiences": {
          "morpheffect": "spawn",
          "id": "mariner.experiences.vivid.decayed"
        }
      }
    },
    {
      "id": "mariner.experiences.unraveling",
      "icon": "experiences/unraveling",
      "label": "An Unraveling Experience",
      "description": "<I have been rent. The strain of what occurred has caused a fraying at my edges, and I fear what part of me may get torn away.>",
      "aspects": {
        "mariner.experience": 1,
        "mariner.experiencefixedbystoryaspect.grim": 1,
        "mariner.experiencefixedbystoryaspect.whimsical": 1
      },
      "lifetime": 480,
      "decayTo": "mariner.experiences.unraveling.decayed",
      "xtriggers": {
        "mariner.signal.duplicateexperiences": {
          "morpheffect": "spawn",
          "id": "mariner.experiences.unraveling"
        }
      },
      "slots": [
        {
          "id": "story",
          "ifAspectsPresent": {
            "mariner.bar": 1
          },
          "label": "Story",
          "description": "<related story to clear exp>",
          "actionId": "talk",
          "addsSlots": true,
          "required": {
            "mariner.story": 1
          }
        }
      ]
    },
    {
      "id": "mariner.experiences.unraveling.standby",
      "overlays": [
        {
          "image": "experiences/unraveling",
          "grayscale": true,
          "color": "#A6A6AA"
        }
      ],
      "label": "An Unraveling Experience [stand by]",
      "description": "<I have been rent. The strain of what occurred has caused a fraying at my edges, and I fear what part of me may get torn away.>",
      "aspects": {
        "mariner.experience": 1,
        "mariner.experience.standby": 1,
        "mariner.experiencefixedbystoryaspect.grim": 1,
        "mariner.experiencefixedbystoryaspect.whimsical": 1
      },
      "xtriggers": {
        "mariner.signal.allowexperiences": "mariner.experiences.unraveling",
        "mariner.signal.duplicateexperiences": {
          "morpheffect": "spawn",
          "id": "mariner.experiences.unraveling.standby"
        }
      }
    },
    {
      "id": "mariner.experiences.unraveling.decayed",
      "label": "An Unraveling Experience [decayed]",
      "overlays": [
        {
          "image": "experiences/unraveling",
          "grayscale": true,
          "color": "#000000"
        }
      ],
      "description": "<I have been rent. The strain of what occurred has caused a fraying at my edges, and I fear what part of me may get torn away.>",
      "aspects": {
        "mariner.experience.decayed": 1,
        "mariner.experiencefixedbystoryaspect.grim": 1,
        "mariner.experiencefixedbystoryaspect.whimsical": 1
      },
      "xtriggers": {
        "mariner.signal.duplicateexperiences": {
          "morpheffect": "spawn",
          "id": "mariner.experiences.unraveling.decayed"
        }
      }
    },
    {
      "id": "mariner.experiences.divisive",
      "icon": "experiences/divisive",
      "label": "A Divisive Experience",
      "description": "<What has occurred has not been easy on the crew. If I do not rally them, tempers will rise and some will seek less straining employ.>",
      "aspects": {
        "mariner.experience": 1,
        "mariner.experiencefixedbystoryaspect.rousing": 1
      },
      "lifetime": 480,
      "decayTo": "mariner.experiences.divisive.decayed",
      "xtriggers": {
        "mariner.signal.duplicateexperiences": {
          "morpheffect": "spawn",
          "id": "mariner.experiences.divisive"
        }
      },
      "slots": [
        {
          "id": "story",
          "ifAspectsPresent": {
            "mariner.bar": 1
          },
          "label": "Story",
          "description": "<related story to clear exp>",
          "actionId": "talk",
          "addsSlots": true,
          "required": {
            "mariner.story": 1
          }
        }
      ]
    },
    {
      "id": "mariner.experiences.divisive.standby",
      "overlays": [
        {
          "image": "experiences/divisive",
          "grayscale": true,
          "color": "#A6A6AA"
        }
      ],
      "label": "A Divisive Experience [stand by]",
      "description": "<What has occurred has not been easy on the crew. If I do not rally them, tempers will rise and some will seek less straining employ.>",
      "aspects": {
        "mariner.experience": 1,
        "mariner.experience.standby": 1,
        "mariner.experiencefixedbystoryaspect.rousing": 1
      },
      "xtriggers": {
        "mariner.signal.allowexperiences": "mariner.experiences.divisive",
        "mariner.signal.duplicateexperiences": {
          "morpheffect": "spawn",
          "id": "mariner.experiences.divisive.standby"
        }
      }
    },
    {
      "id": "mariner.experiences.divisive.decayed",
      "label": "A Divisive Experience [decayed]",
      "overlays": [
        {
          "image": "experiences/divisive",
          "grayscale": true,
          "color": "#000000"
        }
      ],
      "description": "<What has occurred has not been easy on the crew. If I do not rally them, tempers will rise and some will seek less straining employ.>",
      "aspects": {
        "mariner.experience.decayed": 1,
        "mariner.experiencefixedbystoryaspect.rousing": 1
      },
      "xtriggers": {
        "mariner.signal.duplicateexperiences": {
          "morpheffect": "spawn",
          "id": "mariner.experiences.divisive.decayed"
        }
      }
    },
    {
      "id": "mariner.experiences.sobering",
      "icon": "experiences/sobering",
      "label": "A Sobering Experience",
      "description": "<Sometimes the most horrible shock is a shift in perspective. What value lies in what I chase behind the waves>",
      "aspects": {
        "mariner.experience": 1,
        "mariner.experiencefixedbystoryaspect.rousing": 1
      },
      "lifetime": 480,
      "decayTo": "mariner.experiences.sobering.decayed",
      "xtriggers": {
        "mariner.signal.duplicateexperiences": {
          "morpheffect": "spawn",
          "id": "mariner.experiences.sobering"
        }
      },
      "slots": [
        {
          "id": "story",
          "ifAspectsPresent": {
            "mariner.bar": 1
          },
          "label": "Story",
          "description": "<related story to clear exp>",
          "actionId": "talk",
          "addsSlots": true,
          "required": {
            "mariner.story": 1
          }
        }
      ]
    },
    {
      "id": "mariner.experiences.sobering.standby",
      "overlays": [
        {
          "image": "experiences/sobering",
          "grayscale": true,
          "color": "#A6A6AA"
        }
      ],
      "label": "A Sobering Experience [stand by]",
      "description": "<Sometimes the most horrible shock is a shift in perspective. What value lies in what I chase behind the waves>",
      "aspects": {
        "mariner.experience": 1,
        "mariner.experience.standby": 1,
        "mariner.experiencefixedbystoryaspect.rousing": 1
      },
      "xtriggers": {
        "mariner.signal.allowexperiences": "mariner.experiences.sobering",
        "mariner.signal.duplicateexperiences": {
          "morpheffect": "spawn",
          "id": "mariner.experiences.sobering.standby"
        }
      }
    },
    {
      "id": "mariner.experiences.sobering.decayed",
      "label": "A Sobering Experience [decayed]",
      "overlays": [
        {
          "image": "experiences/sobering",
          "grayscale": true,
          "color": "#000000"
        }
      ],
      "description": "<Sometimes the most horrible shock is a shift in perspective. What value lies in what I chase behind the waves>",
      "aspects": {
        "mariner.experience.decayed": 1,
        "mariner.experiencefixedbystoryaspect.rousing": 1
      },
      "xtriggers": {
        "mariner.signal.duplicateexperiences": {
          "morpheffect": "spawn",
          "id": "mariner.experiences.sobering.decayed"
        }
      }
    },
    {
      "id": "mariner.experiences.sophorific",
      "icon": "experiences/sophorific",
      "label": "A Sophorific Experience",
      "description": "<The aftermath of the event still clings to me like nettles or old perfume. I may wish for nothing more than to be rid of it, or nothing more than to experience the more, the more, the more.>",
      "aspects": {
        "mariner.experience": 1,
        "mariner.experiencefixedbystoryaspect.rousing": 1
      },
      "lifetime": 480,
      "decayTo": "mariner.experiences.sophorific.decayed",
      "xtriggers": {
        "mariner.signal.duplicateexperiences": {
          "morpheffect": "spawn",
          "id": "mariner.experiences.sophorific"
        }
      },
      "slots": [
        {
          "id": "story",
          "ifAspectsPresent": {
            "mariner.bar": 1
          },
          "label": "Story",
          "description": "<related story to clear exp>",
          "actionId": "talk",
          "addsSlots": true,
          "required": {
            "mariner.story": 1
          }
        }
      ]
    },
    {
      "id": "mariner.experiences.sophorific.standby",
      "overlays": [
        {
          "image": "experiences/sophorific",
          "grayscale": true,
          "color": "#A6A6AA"
        }
      ],
      "label": "A Sophorific Experience [stand by]",
      "description": "<The aftermath of the event still clings to me like nettles or old perfume. I may wish for nothing more than to be rid of it, or nothing more than to experience the more, the more, the more.>",
      "aspects": {
        "mariner.experience": 1,
        "mariner.experience.standby": 1,
        "mariner.experiencefixedbystoryaspect.rousing": 1
      },
      "xtriggers": {
        "mariner.signal.allowexperiences": "mariner.experiences.sophorific",
        "mariner.signal.duplicateexperiences": {
          "morpheffect": "spawn",
          "id": "mariner.experiences.sophorific.standby"
        }
      }
    },
    {
      "id": "mariner.experiences.sophorific.decayed",
      "label": "A Sophorific Experience [decayed]",
      "overlays": [
        {
          "image": "experiences/sophorific",
          "grayscale": true,
          "color": "#000000"
        }
      ],
      "description": "<The aftermath of the event still clings to me like nettles or old perfume. I may wish for nothing more than to be rid of it, or nothing more than to experience the more, the more, the more.>",
      "aspects": {
        "mariner.experience.decayed": 1,
        "mariner.experiencefixedbystoryaspect.rousing": 1
      },
      "xtriggers": {
        "mariner.signal.duplicateexperiences": {
          "morpheffect": "spawn",
          "id": "mariner.experiences.sophorific.decayed"
        }
      }
    },
    {
      "id": "mariner.experiences.pain",
      "icon": "experiences/pain",
      "label": "An Experience of Pain",
      "description": "<I have been hurt, and now hurt is echoing through my systems, turning my sensens to plinters, and my heartbeat to a dull throb.>",
      "aspects": {
        "mariner.experience": 1
      },
      "lifetime": 10,
      "decayTo": "mariner.experiences.pain.decayed",
      "xtriggers": {
        "mariner.signal.duplicateexperiences": {
          "morpheffect": "spawn",
          "id": "mariner.experiences.pain"
        }
      },
      "slots": [
        {
          "id": "story",
          "ifAspectsPresent": {
            "mariner.bar": 1
          },
          "label": "Story",
          "description": "<related story to clear exp>",
          "actionId": "talk",
          "addsSlots": true,
          "required": {
            "mariner.story": 1
          }
        }
      ]
    },
    {
      "id": "mariner.experiences.pain.standby",
      "overlays": [
        {
          "image": "experiences/pain",
          "grayscale": true,
          "color": "#A6A6AA"
        }
      ],
      "label": "An Experience of Pain [stand by]",
      "description": "<I have been hurt, and now hurt is echoing through my systems, turning my sensens to plinters, and my heartbeat to a dull throb.>",
      "aspects": {
        "mariner.experience": 1,
        "mariner.experience.standby": 1
      },
      "xtriggers": {
        "mariner.signal.allowexperiences": "mariner.experiences.pain",
        "mariner.signal.duplicateexperiences": {
          "morpheffect": "spawn",
          "id": "mariner.experiences.pain.standby"
        }
      }
    },
    {
      "id": "mariner.experiences.pain.decayed",
      "label": "An Experience of Pain [decayed]",
      "overlays": [
        {
          "image": "experiences/pain",
          "grayscale": true,
          "color": "#000000"
        }
      ],
      "description": "<I have been hurt, and now hurt is echoing through my systems, turning my sensens to plinters, and my heartbeat to a dull throb.>",
      "aspects": {
        "mariner.experience.decayed": 1
      },
      "xtriggers": {
        "mariner.signal.duplicateexperiences": {
          "morpheffect": "spawn",
          "id": "mariner.experiences.pain.decayed"
        }
      }
    },
    {
      "id": "mariner.experiences.injury",
      "icon": "experiences/injury",
      "label": "The Experience of Impairment",
      "description": "<I have been wounded, and my limbs do not serve me as they ought too. And as a captain I know that if one part fails, the whole is in peril.>",
      "aspects": {
        "mariner.experience": 1
      },
      "lifetime": 10,
      "decayTo": "mariner.experiences.injury.decayed",
      "xtriggers": {
        "mariner.signal.duplicateexperiences": {
          "morpheffect": "spawn",
          "id": "mariner.experiences.injury"
        }
      },
      "slots": [
        {
          "id": "story",
          "ifAspectsPresent": {
            "mariner.bar": 1
          },
          "label": "Story",
          "description": "<related story to clear exp>",
          "actionId": "talk",
          "addsSlots": true,
          "required": {
            "mariner.story": 1
          }
        }
      ]
    },
    {
      "id": "mariner.experiences.injury.standby",
      "overlays": [
        {
          "image": "experiences/injury",
          "grayscale": true,
          "color": "#A6A6AA"
        }
      ],
      "label": "The Experience of Impairment [stand by]",
      "description": "<I have been wounded, and my limbs do not serve me as they ought too. And as a captain I know that if one part fails, the whole is in peril.>",
      "aspects": {
        "mariner.experience": 1,
        "mariner.experience.standby": 1
      },
      "xtriggers": {
        "mariner.signal.allowexperiences": "mariner.experiences.injury",
        "mariner.signal.duplicateexperiences": {
          "morpheffect": "spawn",
          "id": "mariner.experiences.injury.standby"
        }
      }
    },
    {
      "id": "mariner.experiences.injury.decayed",
      "label": "The Experience of Impairment [decayed]",
      "overlays": [
        {
          "image": "experiences/injury",
          "grayscale": true,
          "color": "#000000"
        }
      ],
      "description": "<I have been wounded, and my limbs do not serve me as they ought too. And as a captain I know that if one part fails, the whole is in peril.>",
      "aspects": {
        "mariner.experience.decayed": 1
      },
      "xtriggers": {
        "mariner.signal.duplicateexperiences": {
          "morpheffect": "spawn",
          "id": "mariner.experiences.injury.decayed"
        }
      }
    }
  ]
}