{
  "recipes": [
    {
      "id": "mariner.medsea.constantinople.tinyheist.fulfilled.hint",
      "label": "Preparations and Reparations?",
      "actionId": "talk",
      "startdescription": "\"You have collected what I need?\"",
      "hintOnly": true,
      "requirements": {
        "mariner.locations.medsea.constantinople.tourist": 1,
        "mariner.quests.tinyheist": 1,
        "mariner.globalflags.quests.tinyheist.salutations": 1,
        "mariner.tool.knock": -1,
        "mariner.trappings.moth": 1,
        "mariner.song.grail": 1,
        "mariner.influences.heart": 1
      },
      "warmup": 60
    },
    {
      "id": "mariner.medsea.constantinople.tinyheist.fulfilled.hint2",
      "label": "Preparations and Reparations?",
      "actionId": "talk",
      "startdescription": "\"You have collected what I need?\"",
      "hintOnly": true,
      "requirements": {
        "mariner.locations.medsea.constantinople.tourist": 1,
        "mariner.quests.tinyheist": 1,
        "mariner.globalflags.quests.tinyheist.salutations": 1,
        "mariner.tool.knock": 1,
        "mariner.trappings.moth": -1,
        "mariner.song.grail": 1,
        "mariner.influences.heart": 1
      },
      "warmup": 60
    },
    {
      "id": "mariner.medsea.constantinople.tinyheist.fulfilled.hint3",
      "label": "Preparations and Reparations?",
      "actionId": "talk",
      "startdescription": "\"You have collected what I need?\"",
      "hintOnly": true,
      "requirements": {
        "mariner.locations.medsea.constantinople.tourist": 1,
        "mariner.quests.tinyheist": 1,
        "mariner.globalflags.quests.tinyheist.salutations": 1,
        "mariner.tool.knock": 1,
        "mariner.trappings.moth": 1,
        "mariner.song.grail": -1,
        "mariner.influences.heart": 1
      },
      "warmup": 60
    },
    {
      "id": "mariner.medsea.constantinople.tinyheist.fulfilled.hint4",
      "label": "Preparations and Reparations?",
      "actionId": "talk",
      "startdescription": "\"You have collected what I need?\"",
      "hintOnly": true,
      "requirements": {
        "mariner.locations.medsea.constantinople.tourist": 1,
        "mariner.quests.tinyheist": 1,
        "mariner.globalflags.quests.tinyheist.salutations": 1,
        "mariner.tool.knock": 1,
        "mariner.trappings.moth": 1,
        "mariner.song.grail": 1,
        "mariner.influences.heart": -1
      },
      "warmup": 60
    },
    {
      "id": "mariner.medsea.constantinople.tinyheist.fulfilled.hint5",
      "label": "Preparations and Reparations?",
      "actionId": "talk",
      "startdescription": "\"You have collected what I need?\"",
      "hintOnly": true,
      "requirements": {
        "mariner.locations.medsea.constantinople.tourist": 1,
        "mariner.quests.tinyheist": 1,
        "mariner.globalflags.quests.tinyheist.salutations": 1,
        "mariner.tool.knock": -1,
        "mariner.trappings.moth": -1,
        "mariner.song.grail": 1,
        "mariner.influences.heart": 1
      },
      "warmup": 60
    },
    {
      "id": "mariner.medsea.constantinople.tinyheist.fulfilled.hint6",
      "label": "Preparations and Reparations?",
      "actionId": "talk",
      "startdescription": "\"You have collected what I need?\"",
      "hintOnly": true,
      "requirements": {
        "mariner.locations.medsea.constantinople.tourist": 1,
        "mariner.quests.tinyheist": 1,
        "mariner.globalflags.quests.tinyheist.salutations": 1,
        "mariner.tool.knock": -1,
        "mariner.trappings.moth": 1,
        "mariner.song.grail": -1,
        "mariner.influences.heart": 1
      },
      "warmup": 60
    },
    {
      "id": "mariner.medsea.constantinople.tinyheist.fulfilled.hint7",
      "label": "Preparations and Reparations?",
      "actionId": "talk",
      "startdescription": "\"You have collected what I need?\"",
      "hintOnly": true,
      "requirements": {
        "mariner.locations.medsea.constantinople.tourist": 1,
        "mariner.quests.tinyheist": 1,
        "mariner.globalflags.quests.tinyheist.salutations": 1,
        "mariner.tool.knock": -1,
        "mariner.trappings.moth": 1,
        "mariner.song.grail": 1,
        "mariner.influences.heart": -1
      },
      "warmup": 60
    },
    {
      "id": "mariner.medsea.constantinople.tinyheist.fulfilled.hint8",
      "label": "Preparations and Reparations?",
      "actionId": "talk",
      "startdescription": "\"You have collected what I need?\"",
      "hintOnly": true,
      "requirements": {
        "mariner.locations.medsea.constantinople.tourist": 1,
        "mariner.quests.tinyheist": 1,
        "mariner.globalflags.quests.tinyheist.salutations": 1,
        "mariner.tool.knock": 1,
        "mariner.trappings.moth": -1,
        "mariner.song.grail": -1,
        "mariner.influences.heart": -1
      },
      "warmup": 60
    },
    {
      "id": "mariner.medsea.constantinople.tinyheist.fulfilled.hint9",
      "label": "Preparations and Reparations?",
      "actionId": "talk",
      "startdescription": "\"You have collected what I need?\"",
      "hintOnly": true,
      "requirements": {
        "mariner.locations.medsea.constantinople.tourist": 1,
        "mariner.quests.tinyheist": 1,
        "mariner.globalflags.quests.tinyheist.salutations": 1,
        "mariner.tool.knock": 1,
        "mariner.trappings.moth": -1,
        "mariner.song.grail": 1,
        "mariner.influences.heart": -1
      },
      "warmup": 60
    },
    {
      "id": "mariner.medsea.constantinople.tinyheist.fulfilled.hint10",
      "label": "Preparations and Reparations?",
      "actionId": "talk",
      "startdescription": "\"You have collected what I need?\"",
      "hintOnly": true,
      "requirements": {
        "mariner.locations.medsea.constantinople.tourist": 1,
        "mariner.quests.tinyheist": 1,
        "mariner.globalflags.quests.tinyheist.salutations": 1,
        "mariner.tool.knock": 1,
        "mariner.trappings.moth": 1,
        "mariner.song.grail": -1,
        "mariner.influences.heart": -1
      },
      "warmup": 60
    },
    {
      "id": "mariner.medsea.constantinople.tinyheist.fulfilled.hint11",
      "label": "Preparations and Reparations?",
      "actionId": "talk",
      "startdescription": "\"You have collected what I need?\"",
      "hintOnly": true,
      "requirements": {
        "mariner.locations.medsea.constantinople.tourist": 1,
        "mariner.quests.tinyheist": 1,
        "mariner.globalflags.quests.tinyheist.salutations": 1,
        "mariner.tool.knock": -1,
        "mariner.trappings.moth": -1,
        "mariner.song.grail": -1,
        "mariner.influences.heart": 1
      },
      "warmup": 60
    },
    {
      "id": "mariner.medsea.constantinople.tinyheist.fulfilled.hint12",
      "label": "Preparations and Reparations?",
      "actionId": "talk",
      "startdescription": "\"You have collected what I need?\"",
      "hintOnly": true,
      "requirements": {
        "mariner.locations.medsea.constantinople.tourist": 1,
        "mariner.quests.tinyheist": 1,
        "mariner.globalflags.quests.tinyheist.salutations": 1,
        "mariner.tool.knock": 1,
        "mariner.trappings.moth": -1,
        "mariner.song.grail": -1,
        "mariner.influences.heart": -1
      },
      "warmup": 60
    },
    {
      "id": "mariner.medsea.constantinople.tinyheist.fulfilled.hint13",
      "label": "Preparations and Reparations?",
      "actionId": "talk",
      "startdescription": "\"You have collected what I need?\"",
      "hintOnly": true,
      "requirements": {
        "mariner.locations.medsea.constantinople.tourist": 1,
        "mariner.quests.tinyheist": 1,
        "mariner.globalflags.quests.tinyheist.salutations": 1,
        "mariner.tool.knock": 1,
        "mariner.trappings.moth": -1,
        "mariner.song.grail": -1,
        "mariner.influences.heart": -1
      },
      "warmup": 60
    },
    {
      "id": "mariner.medsea.constantinople.tinyheist.fulfilled.hint14",
      "label": "Preparations and Reparations?",
      "actionId": "talk",
      "startdescription": "\"You have collected what I need?\"",
      "hintOnly": true,
      "requirements": {
        "mariner.locations.medsea.constantinople.tourist": 1,
        "mariner.quests.tinyheist": 1,
        "mariner.globalflags.quests.tinyheist.salutations": 1,
        "mariner.tool.knock": -1,
        "mariner.trappings.moth": -1,
        "mariner.song.grail": 1,
        "mariner.influences.heart": -1
      },
      "warmup": 60
    },
    {
      "id": "mariner.medsea.constantinople.tinyheist.fulfilled.hint15",
      "label": "Preparations and Reparations?",
      "actionId": "talk",
      "startdescription": "\"You have collected what I need?\"",
      "hintOnly": true,
      "requirements": {
        "mariner.locations.medsea.constantinople.tourist": 1,
        "mariner.quests.tinyheist": 1,
        "mariner.globalflags.quests.tinyheist.salutations": 1,
        "mariner.tool.knock": -1,
        "mariner.trappings.moth": -1,
        "mariner.song.grail": -1,
        "mariner.influences.heart": -1
      },
      "warmup": 60
    }
  ]
}