{
  "verbs": [
    {
      "id": "talk",
      "slot$dictedit": {
        "required$add": {
          "modded_talk_allowed": 1
        },
        "forbidden$add": {
          "modded_talk_forbidden": 1
        }
      }
    },
    {
      "id": "explore",
      "slot$dictedit": {
        "required$add": {
          "modded_explore_allowed": 1
        },
        "forbidden$add": {
          "modded_explore_forbidden": 1
        }
      }
    }
  ]
}