{
    "elements": [
        {
            "id": "grail",
            "induces": []
        },
        {
            "id": "heart",
            "induces": []
        },
        {
            "id": "lantern",
            "induces": []
        },
        {
            "id": "moth",
            "induces": []
        },
        {
            "id": "funds",
            "induces": []
        }
    ]
}