{
  "elements": [
    {
      "id": "mariner.rumour.northsea",
      "label": "A rumour in the North Sea",
      "description": "The chitter chatter of the locals contains old myths, local legends and unlikely stories. This one may lead to an opportunity in the North Sea.",
      "lifetime": 480,
      "aspects": {
        "mariner.rumour": 1,
        "mariner.navigate_allowed": 1
      },
      "icon": "rumour",
      "slots": [
        {
          "id": "information",
          "label": "Information",
          "actionId": "mariner.navigate",
          "required": {
            "mariner.scrapofinformation": 1
          }
        }
      ]
    },
    {
      "id": "mariner.rumour.medsea",
      "label": "A rumour in the Mediterranean Sea",
      "description": "The chitter chatter of the locals contains old myths, local legends and unlikely stories. This one may lead to an opportunity in the Mediterranean Sea.",
      "lifetime": 480,
      "aspects": {
        "mariner.rumour": 1,
        "mariner.navigate_allowed": 1
      },
      "icon": "rumour",
      "slots": [
        {
          "id": "information",
          "label": "Information",
          "actionId": "mariner.navigate",
          "required": {
            "mariner.scrapofinformation": 1
          }
        }
      ]
    }
  ]
}