{
  "elements": [
    {
      "id": "mariner.vaults.eddangerforest.laws",
      "label": "The Doorstep Laws",
      "unique": true,
      "description": "The Saga-tales and Fishwife Wisdoms are in accord on how to treat the Unseen Folk. The Dream-dwelling Hillfolk shall not impede me if I follow these old rules of cordiality and hospitality.",
      "aspects": {
        "mariner.local": 1,
        "mariner.vaults.help": 1
      }
    },
    {
      "id": "mariner.vaults.eddangerforest.riverkey",
      "label": "River Unwound",
      "unique": true,
      "description": "What was looped is now uncoiled. What was a lock is now a road.",
      "aspects": {
        "mariner.local": 1,
        "mariner.vaults.help": 1
      }
    },
    {
      "id": "mariner.vaults.eddangerforest.guidance",
      "label": "Guidance of Pearls",
      "unique": true,
      "icon": "tranquillity",
      "description": "The seabreeze follows me, laces between my fingers, to remind both me and observing parties who I belong to.",
      "aspects": {
        "mariner.local": 1,
        "mariner.vaults.help": 1
      }
    },
    {
      "id": "mariner.vaults.eddanger.resin",
      "label": "Spiteful Resin",
      "description": "Still, within its amber brilliance, a stubborn hatred for machines lies. Do not allow this close to the cogs of any machine you care about",
      "aspects": {
        "mariner.trapping": 1,
        "mariner.trapping.worth": 2,
        "mariner.trappings.moth": 2,
        "moth": 2,
        "mariner.trappingtypes.natural": 1
      }
    },
    {
      "id": "mariner.vaults.eddanger.machineparts",
      "label": "Eager Parts",
      "description": "Scraps of machines, whose movement has been halted for decades. They ache to act.",
      "aspects": {
        "mariner.trapping": 1,
        "mariner.trapping.worth": 1,
        "mariner.trappings.forge": 1,
        "forge": 1,
        "mariner.trappingtypes.crafts": 1
      }
    },
    {
      "id": "mariner.vaults.eddangerforest.wall",
      "label": "The Forest Wall",
      "description": "The coast here has been swallowed by the Forest. The trees weave a thick canopy right up to the waterline, dark and impenetrable.",
      "aspects": {
        "mariner.local": 1,
        "mariner.aspects.vaults.eddangerforest.layer.1": 1,
        "modded_explore_allowed": 1
      }
    },
    {
      "id": "mariner.vaults.eddangerforest.coast",
      "icon": "tasks/mariner.tasks.shoreline.blue",
      "label": "The Coast",
      "description": "More familiar to me than the dark embrace of the forest, is the open expanse of sea and sky. I could take a moment to align myself to its rhythms and affirm my affiliation to the powers that guide me there.",
      "aspects": {
        "mariner.local": 1,
        "mariner.aspects.vaults.eddangerforest.layer.1": 1,
        "mariner.navigate_allowed": 1
      },
      "slots": [
        {
          "actionId": "mariner.navigate",
          "id": "mariner.navigate1",
          "label": "Help",
          "description": "Which implements are available for my approach.",
          "required": {
            "funds": 1,
            "mariner.crew": 1,
            "mariner.song": 1,
            "mariner.story": 1,
            "mariner.inspiration.melody": 1,
            "mariner.tune": 1,
            "mariner.lackheart": 1,
            "mariner.halfheart": 1,
            "mariner.vaults.help": 1
          },
          "forbidden": {
            "mariner.crew.traits.singleminded": 1,
            "mariner.crew.exhausted": 1,
            "mariner.tool.broken": 1
          }
        },
        {
          "actionId": "mariner.navigate",
          "id": "mariner.navigate2",
          "label": "Help",
          "description": "Which implements are available for my approach.",
          "required": {
            "funds": 1,
            "mariner.crew": 1,
            "mariner.song": 1,
            "mariner.story": 1,
            "mariner.inspiration.melody": 1,
            "mariner.tune": 1,
            "mariner.lackheart": 1,
            "mariner.halfheart": 1,
            "mariner.vaults.help": 1
          },
          "forbidden": {
            "mariner.crew.traits.singleminded": 1,
            "mariner.crew.exhausted": 1,
            "mariner.tool.broken": 1
          }
        },
        {
          "actionId": "mariner.navigate",
          "id": "mariner.navigate3",
          "label": "Help",
          "description": "Which implements are available for my approach.",
          "required": {
            "funds": 1,
            "mariner.crew": 1,
            "mariner.song": 1,
            "mariner.story": 1,
            "mariner.inspiration.melody": 1,
            "mariner.tune": 1,
            "mariner.lackheart": 1,
            "mariner.halfheart": 1,
            "mariner.vaults.help": 1
          },
          "forbidden": {
            "mariner.crew.traits.singleminded": 1,
            "mariner.crew.exhausted": 1,
            "mariner.tool.broken": 1
          }
        }
      ]
    },
    {
      "id": "mariner.vaults.eddangerforest.edge",
      "icon": "tasks/mariner.tasks.forestpath.green",
      "label": "The Twilight Edge",
      "description": "I could venture into the borderlands, but not far enough to lose my bearings. Here I would always find my way as I take my first step into those sylvan depths.",
      "aspects": {
        "mariner.local": 1,
        "mariner.aspects.vaults.eddangerforest.layer.1": 1,
        "mariner.sing_allowed": 1,
        "modded_explore_allowed": 1
      },
      "slots": [
        {
          "actionId": "mariner.sing",
          "id": "mariner.sing1",
          "label": "Help",
          "description": "Which implements are available for my approach.",
          "required": {
            "funds": 1,
            "mariner.crew": 1,
            "mariner.song": 1,
            "mariner.instrument": 1,
            "mariner.inspiration.melody": 1,
            "mariner.tune": 1,
            "mariner.vaults.help": 1
          },
          "forbidden": {
            "mariner.crew.traits.rhythmless": 1,
            "mariner.crew.exhausted": 1
          }
        },
        {
          "actionId": "mariner.sing",
          "id": "mariner.sing2",
          "label": "Help",
          "description": "Which implements are available for my approach.",
          "required": {
            "funds": 1,
            "mariner.crew": 1,
            "mariner.song": 1,
            "mariner.instrument": 1,
            "mariner.inspiration.melody": 1,
            "mariner.tune": 1,
            "mariner.vaults.help": 1
          },
          "forbidden": {
            "mariner.crew.traits.rhythmless": 1,
            "mariner.crew.exhausted": 1
          }
        },
        {
          "actionId": "mariner.sing",
          "id": "mariner.sing3",
          "label": "Help",
          "description": "Which implements are available for my approach.",
          "required": {
            "funds": 1,
            "mariner.crew": 1,
            "mariner.song": 1,
            "mariner.instrument": 1,
            "mariner.inspiration.melody": 1,
            "mariner.tune": 1,
            "mariner.vaults.help": 1
          },
          "forbidden": {
            "mariner.crew.traits.rhythmless": 1,
            "mariner.crew.exhausted": 1
          }
        },
        {
          "actionId": "explore",
          "id": "explore1",
          "label": "Help",
          "description": "Which implements are available for my approach.",
          "required": {
            "funds": 1,
            "mariner.crew": 1,
            "tool": 1,
            "mariner.inspiration.nature": 1,
            "mariner.vaults.help": 1
          },
          "forbidden": {
            "mariner.crew.traits.craven": 1,
            "mariner.crew.exhausted": 1,
            "mariner.tool.broken": 1
          }
        },
        {
          "actionId": "explore",
          "id": "explore2",
          "label": "Help",
          "description": "Which implements are available for my approach.",
          "required": {
            "funds": 1,
            "mariner.crew": 1,
            "tool": 1,
            "mariner.inspiration.nature": 1,
            "mariner.vaults.help": 1
          },
          "forbidden": {
            "mariner.crew.traits.craven": 1,
            "mariner.crew.exhausted": 1,
            "mariner.tool.broken": 1
          }
        },
        {
          "actionId": "explore",
          "id": "explore3",
          "label": "Help",
          "description": "Which implements are available for my approach.",
          "required": {
            "funds": 1,
            "mariner.crew": 1,
            "tool": 1,
            "mariner.inspiration.nature": 1,
            "mariner.vaults.help": 1
          },
          "forbidden": {
            "mariner.crew.traits.craven": 1,
            "mariner.crew.exhausted": 1,
            "mariner.tool.broken": 1
          }
        }
      ]
    },
    {
      "id": "mariner.vaults.eddangerforest.camp",
      "icon": "tasks/mariner.tasks.tinker.forge",
      "label": "The Resin Soaked Camp",
      "description": "Near the waters' edge lies a logging camp, which was discarded when the situation became untenable.",
      "aspects": {
        "mariner.local": 1,
        "mariner.aspects.vaults.eddangerforest.layer.1": 1,
        "mariner.navigate_allowed": 1
      },
      "slots": [
        {
          "actionId": "mariner.navigate",
          "id": "mariner.navigate1",
          "label": "Help",
          "description": "Which implements are available for my approach.",
          "required": {
            "funds": 1,
            "mariner.crew": 1,
            "mariner.song": 1,
            "mariner.story": 1,
            "mariner.inspiration.melody": 1,
            "mariner.tune": 1,
            "mariner.lackheart": 1,
            "mariner.halfheart": 1,
            "mariner.vaults.help": 1
          },
          "forbidden": {
            "mariner.crew.traits.singleminded": 1,
            "mariner.crew.exhausted": 1,
            "mariner.tool.broken": 1
          }
        },
        {
          "actionId": "mariner.navigate",
          "id": "mariner.navigate2",
          "label": "Help",
          "description": "Which implements are available for my approach.",
          "required": {
            "funds": 1,
            "mariner.crew": 1,
            "mariner.song": 1,
            "mariner.story": 1,
            "mariner.inspiration.melody": 1,
            "mariner.tune": 1,
            "mariner.lackheart": 1,
            "mariner.halfheart": 1,
            "mariner.vaults.help": 1
          },
          "forbidden": {
            "mariner.crew.traits.singleminded": 1,
            "mariner.crew.exhausted": 1,
            "mariner.tool.broken": 1
          }
        },
        {
          "actionId": "mariner.navigate",
          "id": "mariner.navigate3",
          "label": "Help",
          "description": "Which implements are available for my approach.",
          "required": {
            "funds": 1,
            "mariner.crew": 1,
            "mariner.song": 1,
            "mariner.story": 1,
            "mariner.inspiration.melody": 1,
            "mariner.tune": 1,
            "mariner.lackheart": 1,
            "mariner.halfheart": 1,
            "mariner.vaults.help": 1
          },
          "forbidden": {
            "mariner.crew.traits.singleminded": 1,
            "mariner.crew.exhausted": 1,
            "mariner.tool.broken": 1
          }
        }
      ]
    },
    {
      "id": "mariner.vaults.eddangerforest.river",
      "icon": "tasks/mariner.tasks.landscape.petroleblue",
      "label": "The River Mouth",
      "description": "At this river mouth, the strangest waters collect from a hundred little streams, flowing from the countless secret places in the depths of the Eddanger forest.",
      "aspects": {
        "mariner.local": 1,
        "mariner.aspects.vaults.eddangerforest.layer.1": 1,
        "mariner.navigate_allowed": 1,
        "modded_explore_allowed": 1
      },
      "slots": [
        {
          "actionId": "mariner.navigate",
          "id": "mariner.navigate1",
          "label": "Help",
          "description": "Which implements are available for my approach.",
          "required": {
            "funds": 1,
            "mariner.crew": 1,
            "mariner.song": 1,
            "mariner.story": 1,
            "mariner.inspiration.melody": 1,
            "mariner.tune": 1,
            "mariner.lackheart": 1,
            "mariner.halfheart": 1,
            "mariner.vaults.help": 1
          },
          "forbidden": {
            "mariner.crew.traits.singleminded": 1,
            "mariner.crew.exhausted": 1,
            "mariner.tool.broken": 1
          }
        },
        {
          "actionId": "mariner.navigate",
          "id": "mariner.navigate2",
          "label": "Help",
          "description": "Which implements are available for my approach.",
          "required": {
            "funds": 1,
            "mariner.crew": 1,
            "mariner.song": 1,
            "mariner.story": 1,
            "mariner.inspiration.melody": 1,
            "mariner.tune": 1,
            "mariner.lackheart": 1,
            "mariner.halfheart": 1,
            "mariner.vaults.help": 1
          },
          "forbidden": {
            "mariner.crew.traits.singleminded": 1,
            "mariner.crew.exhausted": 1,
            "mariner.tool.broken": 1
          }
        },
        {
          "actionId": "mariner.navigate",
          "id": "mariner.navigate3",
          "label": "Help",
          "description": "Which implements are available for my approach.",
          "required": {
            "funds": 1,
            "mariner.crew": 1,
            "mariner.song": 1,
            "mariner.story": 1,
            "mariner.inspiration.melody": 1,
            "mariner.tune": 1,
            "mariner.lackheart": 1,
            "mariner.halfheart": 1,
            "mariner.vaults.help": 1
          },
          "forbidden": {
            "mariner.crew.traits.singleminded": 1,
            "mariner.crew.exhausted": 1,
            "mariner.tool.broken": 1
          }
        },
        {
          "actionId": "explore",
          "id": "explore1",
          "label": "Help",
          "description": "Which implements are available for my approach.",
          "required": {
            "funds": 1,
            "mariner.crew": 1,
            "tool": 1,
            "mariner.inspiration.nature": 1,
            "mariner.vaults.help": 1
          },
          "forbidden": {
            "mariner.crew.traits.craven": 1,
            "mariner.crew.exhausted": 1,
            "mariner.tool.broken": 1
          }
        },
        {
          "actionId": "explore",
          "id": "explore2",
          "label": "Help",
          "description": "Which implements are available for my approach.",
          "required": {
            "funds": 1,
            "mariner.crew": 1,
            "tool": 1,
            "mariner.inspiration.nature": 1,
            "mariner.vaults.help": 1
          },
          "forbidden": {
            "mariner.crew.traits.craven": 1,
            "mariner.crew.exhausted": 1,
            "mariner.tool.broken": 1
          }
        },
        {
          "actionId": "explore",
          "id": "explore3",
          "label": "Help",
          "description": "Which implements are available for my approach.",
          "required": {
            "funds": 1,
            "mariner.crew": 1,
            "tool": 1,
            "mariner.inspiration.nature": 1,
            "mariner.vaults.help": 1
          },
          "forbidden": {
            "mariner.crew.traits.craven": 1,
            "mariner.crew.exhausted": 1,
            "mariner.tool.broken": 1
          }
        }
      ]
    },
    {
      "id": "mariner.vaults.eddangerforest.insight",
      "label": "Botanical Insight",
      "description": "Considerations of resources and relays. Of bodies and of stems and trunks and vines. And of where to snip and where to prune, if it comes to that. <br><br>[This card will affect some obstacles and events of this Adventure from the board.]",
      "unique": true,
      "aspects": {
        "mariner.local": 1,
        "mariner.vaults.help": 1,
        "mariner.vaults.help.passive": 1
      }
    },
    {
      "id": "mariner.vaults.eddangerforest.favor",
      "label": "Whimsical Blessings",
      "description": "My actions seem to have pleased the Yew. But favor never last for one so fickle. I should act on it quickly.",
      "lifetime": "120",
      "aspects": {
        "mariner.local": 1,
        "mariner.vaults.help": 1
      }
    },
    {
      "id": "mariner.vaults.eddangerforest.fruit",
      "label": "The Merry-Red Berries",
      "description": "Such delight is contained in their form, their shade, their flesh... But each contains shriveled black heart, lethal as venom.",
      "aspects": {
        "mariner.trapping": 1,
        "mariner.trapping.worth": 5,
        "mariner.trappings.grail": 5,
        "grail": 5,
        "mariner.trappingtypes.natural": 1
      }
    },
    {
      "id": "mariner.vaults.eddangerforest.flower",
      "label": "Corpse-Bloom Cutting",
      "description": "Life from death is as natural as death after life. As long as we provide the flowers of soil and meat, it will remain in bloom.",
      "aspects": {
        "mariner.trapping": 1,
        "mariner.trapping.worth": 2,
        "mariner.trappings.winter": 5,
        "winter": 5,
        "mariner.trappingtypes.natural": 1
      }
    },
    {
      "id": "mariner.vaults.eddangerforest.treasure",
      "label": "Manyfold Knot",
      "unique": true,
      "icon": "toolsecrethistoriesb",
      "description": "An item sacred to a certain religious sect. I know they venerated the Ring-Yew, among others. In between the many contortions of the iron bands, I can see a heart. Is it trapping it, or protecting it?",
      "aspects": {
        "mariner.trapping": 1,
        "mariner.trapping.worth": 5,
        "mariner.trappings.heart": 1,
        "heart": 1,
        "mariner.trappingtypes.artifact": 1
      }
    },
    {
      "id": "mariner.vaults.eddangerforest.glade",
      "label": "The Innermost Glade",
      "description": "After the crowded forest, always rustling and chirping with things unseen, this glade is completely quiet. In its center stands the matriarch of the woods, and the forest floor around is carpeted with flowers. ",
      "aspects": {
        "mariner.local": 1,
        "mariner.aspects.vaults.eddangerforest.layer.2": 1,
        "modded_explore_allowed": 1
      }
    },
    {
      "id": "mariner.vaults.eddangerforest.nooks",
      "icon": "tasks/mariner.tasks.delve.forge",
      "label": "The Taking Nooks",
      "description": "The Old Yew at the center of the glade is surrounded by the supplicant dead. Their arms still stretch out, with rotting fingers trapped between the many pleads and folds of her bark.",
      "aspects": {
        "mariner.local": 1,
        "mariner.aspects.vaults.eddangerforest.layer.2": 1,
        "modded_explore_allowed": 1,
        "mariner.sing_allowed": 1
      },
      "slots": [
        {
          "actionId": "explore",
          "id": "explore1",
          "label": "Help",
          "description": "Which implements are available for my approach.",
          "required": {
            "funds": 1,
            "mariner.crew": 1,
            "tool": 1,
            "mariner.inspiration.nature": 1,
            "mariner.vaults.help": 1
          },
          "forbidden": {
            "mariner.crew.traits.craven": 1,
            "mariner.crew.exhausted": 1,
            "mariner.tool.broken": 1
          }
        },
        {
          "actionId": "explore",
          "id": "explore2",
          "label": "Help",
          "description": "Which implements are available for my approach.",
          "required": {
            "funds": 1,
            "mariner.crew": 1,
            "tool": 1,
            "mariner.inspiration.nature": 1,
            "mariner.vaults.help": 1
          },
          "forbidden": {
            "mariner.crew.traits.craven": 1,
            "mariner.crew.exhausted": 1,
            "mariner.tool.broken": 1
          }
        },
        {
          "actionId": "explore",
          "id": "explore3",
          "label": "Help",
          "description": "Which implements are available for my approach.",
          "required": {
            "funds": 1,
            "mariner.crew": 1,
            "tool": 1,
            "mariner.inspiration.nature": 1,
            "mariner.vaults.help": 1
          },
          "forbidden": {
            "mariner.crew.traits.craven": 1,
            "mariner.crew.exhausted": 1,
            "mariner.tool.broken": 1
          }
        },
        {
          "actionId": "mariner.sing",
          "id": "mariner.sing1",
          "label": "Help",
          "description": "Which implements are available for my approach.",
          "required": {
            "funds": 1,
            "mariner.crew": 1,
            "mariner.song": 1,
            "mariner.instrument": 1,
            "mariner.inspiration.melody": 1,
            "mariner.tune": 1,
            "mariner.vaults.help": 1
          },
          "forbidden": {
            "mariner.crew.traits.rhythmless": 1,
            "mariner.crew.exhausted": 1
          }
        },
        {
          "actionId": "mariner.sing",
          "id": "mariner.sing2",
          "label": "Help",
          "description": "Which implements are available for my approach.",
          "required": {
            "funds": 1,
            "mariner.crew": 1,
            "mariner.song": 1,
            "mariner.instrument": 1,
            "mariner.inspiration.melody": 1,
            "mariner.tune": 1,
            "mariner.vaults.help": 1
          },
          "forbidden": {
            "mariner.crew.traits.rhythmless": 1,
            "mariner.crew.exhausted": 1
          }
        },
        {
          "actionId": "mariner.sing",
          "id": "mariner.sing3",
          "label": "Help",
          "description": "Which implements are available for my approach.",
          "required": {
            "funds": 1,
            "mariner.crew": 1,
            "mariner.song": 1,
            "mariner.instrument": 1,
            "mariner.inspiration.melody": 1,
            "mariner.tune": 1,
            "mariner.vaults.help": 1
          },
          "forbidden": {
            "mariner.crew.traits.rhythmless": 1,
            "mariner.crew.exhausted": 1
          }
        }
      ]
    },
    {
      "id": "mariner.vaults.eddangerforest.corpses",
      "icon": "tasks/mariner.tasks.summon.petroleblue",
      "label": "The Blooming Corpses",
      "description": "In the glade, especially at the base of the Heart Tree, the forest floor is littered with corpses. Adventurers, revelers, lost souls, all now forever languishing in the Honey-Tree's court, flower-crowned and rotten.",
      "aspects": {
        "mariner.local": 1,
        "mariner.aspects.vaults.eddangerforest.layer.2": 1,
        "modded_explore_allowed": 1,
        "mariner.sing_allowed": 1,
        "mariner.navigate_allowed": 1
      },
      "slots": [
        {
          "actionId": "explore",
          "id": "explore1",
          "label": "Help",
          "description": "Which implements are available for my approach.",
          "required": {
            "funds": 1,
            "mariner.crew": 1,
            "tool": 1,
            "mariner.inspiration.nature": 1,
            "mariner.vaults.help": 1
          },
          "forbidden": {
            "mariner.crew.traits.craven": 1,
            "mariner.crew.exhausted": 1,
            "mariner.tool.broken": 1
          }
        },
        {
          "actionId": "explore",
          "id": "explore2",
          "label": "Help",
          "description": "Which implements are available for my approach.",
          "required": {
            "funds": 1,
            "mariner.crew": 1,
            "tool": 1,
            "mariner.inspiration.nature": 1,
            "mariner.vaults.help": 1
          },
          "forbidden": {
            "mariner.crew.traits.craven": 1,
            "mariner.crew.exhausted": 1,
            "mariner.tool.broken": 1
          }
        },
        {
          "actionId": "explore",
          "id": "explore3",
          "label": "Help",
          "description": "Which implements are available for my approach.",
          "required": {
            "funds": 1,
            "mariner.crew": 1,
            "tool": 1,
            "mariner.inspiration.nature": 1,
            "mariner.vaults.help": 1
          },
          "forbidden": {
            "mariner.crew.traits.craven": 1,
            "mariner.crew.exhausted": 1,
            "mariner.tool.broken": 1
          }
        },
        {
          "actionId": "mariner.sing",
          "id": "mariner.sing1",
          "label": "Help",
          "description": "Which implements are available for my approach.",
          "required": {
            "funds": 1,
            "mariner.crew": 1,
            "mariner.song": 1,
            "mariner.instrument": 1,
            "mariner.inspiration.melody": 1,
            "mariner.tune": 1,
            "mariner.vaults.help": 1
          },
          "forbidden": {
            "mariner.crew.traits.rhythmless": 1,
            "mariner.crew.exhausted": 1
          }
        },
        {
          "actionId": "mariner.sing",
          "id": "mariner.sing2",
          "label": "Help",
          "description": "Which implements are available for my approach.",
          "required": {
            "funds": 1,
            "mariner.crew": 1,
            "mariner.song": 1,
            "mariner.instrument": 1,
            "mariner.inspiration.melody": 1,
            "mariner.tune": 1,
            "mariner.vaults.help": 1
          },
          "forbidden": {
            "mariner.crew.traits.rhythmless": 1,
            "mariner.crew.exhausted": 1
          }
        },
        {
          "actionId": "mariner.sing",
          "id": "mariner.sing3",
          "label": "Help",
          "description": "Which implements are available for my approach.",
          "required": {
            "funds": 1,
            "mariner.crew": 1,
            "mariner.song": 1,
            "mariner.instrument": 1,
            "mariner.inspiration.melody": 1,
            "mariner.tune": 1,
            "mariner.vaults.help": 1
          },
          "forbidden": {
            "mariner.crew.traits.rhythmless": 1,
            "mariner.crew.exhausted": 1
          }
        },
        {
          "actionId": "mariner.navigate",
          "id": "mariner.navigate1",
          "label": "Help",
          "description": "Which implements are available for my approach.",
          "required": {
            "funds": 1,
            "mariner.crew": 1,
            "mariner.song": 1,
            "mariner.story": 1,
            "mariner.inspiration.melody": 1,
            "mariner.tune": 1,
            "mariner.lackheart": 1,
            "mariner.halfheart": 1,
            "mariner.vaults.help": 1
          },
          "forbidden": {
            "mariner.crew.traits.singleminded": 1,
            "mariner.crew.exhausted": 1,
            "mariner.tool.broken": 1
          }
        },
        {
          "actionId": "mariner.navigate",
          "id": "mariner.navigate2",
          "label": "Help",
          "description": "Which implements are available for my approach.",
          "required": {
            "funds": 1,
            "mariner.crew": 1,
            "mariner.song": 1,
            "mariner.story": 1,
            "mariner.inspiration.melody": 1,
            "mariner.tune": 1,
            "mariner.lackheart": 1,
            "mariner.halfheart": 1,
            "mariner.vaults.help": 1
          },
          "forbidden": {
            "mariner.crew.traits.singleminded": 1,
            "mariner.crew.exhausted": 1,
            "mariner.tool.broken": 1
          }
        },
        {
          "actionId": "mariner.navigate",
          "id": "mariner.navigate3",
          "label": "Help",
          "description": "Which implements are available for my approach.",
          "required": {
            "funds": 1,
            "mariner.crew": 1,
            "mariner.song": 1,
            "mariner.story": 1,
            "mariner.inspiration.melody": 1,
            "mariner.tune": 1,
            "mariner.lackheart": 1,
            "mariner.halfheart": 1,
            "mariner.vaults.help": 1
          },
          "forbidden": {
            "mariner.crew.traits.singleminded": 1,
            "mariner.crew.exhausted": 1,
            "mariner.tool.broken": 1
          }
        }
      ]
    },
    {
      "id": "mariner.vaults.eddangerforest.fruits",
      "icon": "tasks/mariner.tasks.treasure.green",
      "label": "The Berries in the Boughs",
      "description": "Between blue needles of the Mother Yew, bright red treasures blink. The fruits from a sacred yew have many miraculous properties asigned to them in myth and story, beside their profane toxicity.",
      "aspects": {
        "mariner.local": 1,
        "mariner.aspects.vaults.eddangerforest.layer.2": 1,
        "modded_explore_allowed": 1
      },
      "slots": [
        {
          "actionId": "explore",
          "id": "explore1",
          "label": "Help",
          "description": "Which implements are available for my approach.",
          "required": {
            "funds": 1,
            "mariner.crew": 1,
            "tool": 1,
            "mariner.inspiration.nature": 1,
            "mariner.vaults.help": 1
          },
          "forbidden": {
            "mariner.crew.traits.craven": 1,
            "mariner.crew.exhausted": 1,
            "mariner.tool.broken": 1
          }
        },
        {
          "actionId": "explore",
          "id": "explore2",
          "label": "Help",
          "description": "Which implements are available for my approach.",
          "required": {
            "funds": 1,
            "mariner.crew": 1,
            "tool": 1,
            "mariner.inspiration.nature": 1,
            "mariner.vaults.help": 1
          },
          "forbidden": {
            "mariner.crew.traits.craven": 1,
            "mariner.crew.exhausted": 1,
            "mariner.tool.broken": 1
          }
        },
        {
          "actionId": "explore",
          "id": "explore3",
          "label": "Help",
          "description": "Which implements are available for my approach.",
          "required": {
            "funds": 1,
            "mariner.crew": 1,
            "tool": 1,
            "mariner.inspiration.nature": 1,
            "mariner.vaults.help": 1
          },
          "forbidden": {
            "mariner.crew.traits.craven": 1,
            "mariner.crew.exhausted": 1,
            "mariner.tool.broken": 1
          }
        }
      ]
    }
  ]
}