{
  "recipes": [
    {
      "id": "mariner.wanderingevents.start.allseas.randomevent.storm",
      "label": "Nature Invades",
      "grandReqs": {
        "root/mariner.cycle": "Abs([root/mariner.globaltimers.allseas.randomevent.storm]) + 25"
      },
      "rootAdd": {
        "mariner.globaltimers.allseas.randomevent.storm": "[root/mariner.cycle] - [root/mariner.globaltimers.allseas.randomevent.storm]"
      },
      "startdescription": "In civil confines, it is easy to forget the the raw strength of nature, but tonight she insists on showing us her majesty. The night is carved to bright shards by lightning, windowpanes clatter in their rebates. My Soul soaks in the wild glory.",
      "tablereqs": {
        "mariner.weathermeta.windy": 1
      },
      "effects": {
        "mariner.thrill": 1
      }
    }
  ]
}