{
  "recipes": [
    {
      "id": "mariner.wanderingevents.start.allseas.randomevent.wanted",
      "label": "On Our Trail",
      "grandReqs": {
        "root/mariner.cycle": "Abs([root/mariner.globaltimers.allseas.randomevent.wanted]) + 25"
      },
      "rootAdd": {
        "mariner.globaltimers.allseas.randomevent.wanted": "[root/mariner.cycle] - [root/mariner.globaltimers.allseas.randomevent.wanted]"
      },
      "startdescription": "One of my crew had a past they would have preferred to leave behind, but it has caught up to them now. Their bad name is spreading to the Kite, and it might be wise to leave here soon.",
      "effects": {
        "mariner.notoriety": 2
      },
      "tablereqs": {
        "mariner.crew.traits.wanted": 1
      }
    }
  ]
}