{
  "recipes": [
    {
      "id": "mariner.wanderingevents.start.allseas.randomevent.connection",
      "label": "A Chance encounter with a Raconteur",
      "grandReqs": {
        "root/mariner.cycle": "Abs([root/mariner.globaltimers.allseas.randomevent.connection]) + 25"
      },
      "rootAdd": {
        "mariner.globaltimers.allseas.randomevent.connection": "[root/mariner.cycle] - [root/mariner.globaltimers.allseas.randomevent.connection]"
      },
      "startdescription": "I encounter another, who knows the stories and whistles the tunes of the raconteurs. As we walk the streets, we teach eachother the greetings, the walks and the gestures we have learned on our travels.",
      "effects": {
        "mariner.influences.knock": 2
      }
    }
  ]
}