{
  "decks": [
    {
      "id": "mariner.rewarddecks.medsea.precious",
      "spec": [
        "mariner.trappings.lantern.1",
        "mariner.trappings.grail.1"
      ],
      "resetonexhaustion": true
    },
    {
      "id": "mariner.rewarddecks.medsea.jumble",
      "spec": [
        "mariner.trappings.edge.1",
        "mariner.trappings.moth.1",
        "mariner.trappings.heart.1"
      ],
      "resetonexhaustion": true
    },
    {
      "id": "mariner.rewarddecks.medsea.scholarly",
      "spec": [
        "mariner.scrapofinformation"
      ],
      "resetonexhaustion": true
    }
  ]
}