{
  "recipes": [
    {
      "id": "jumpstart.mariner.sailing.seaevents.start.new_moon",
      "actionId": "jumpstart.mariner.sailing.seaevents.start.new_moon",
      "effects": {
        "mariner.influneces.moth": 10
      },
      "linked": [
        {
          "id": "mariner.sailing.seaevents.start.new_moon"
        }
      ]
    },
    {
      "id": "mariner.sailing.seaevents.start.new_moon",
      "warmup": 20,
      "grandReqs": {
        "~/exterior : mariner.moon.basic.1": 1
      },
      "label": "<A New Moon Rising>",
      "startdescription": "These nights the moon has been devoured until there isn't a sliver left and we sail in complete darkness. With no celestial observer and no land in sight we sway in crucim between anuwhere and Nowhere. We could cling to the skin of the world we know with sufficient heart, or catch the currents the sea conjures when the moon is absent.",
      "linked": [
        {
          "id": "mariner.sailing.seaevents.new_moon.outcome.safe",
          "chance": "([heart]/10)*100"
        },
        {
          "id": "mariner.sailing.seaevents.new_moon.outcome.chance_change",
          "chance": "([moth]/10)*100"
        },
        {
          "id": "mariner.sailing.seaevents.new_moon.outcome.chance_delay"
        }
      ],
      "slots": [
        {
          "actionId": "mariner.sail",
          "id": "mariner.sail1",
          "label": "Help",
          "description": "Which implements are available for my approach.",
          "required": {
            "funds": 1,
            "mariner.crew": 1,
            "tool": 1,
            "mariner.inspiration.nature": 1,
            "mariner.lackheart": 1,
            "mariner.halfheart": 1
          },
          "forbidden": {
            "mariner.crew.traits.landlubber": 1,
            "mariner.crew.exhausted": 1,
            "mariner.tool.broken": 1,
            "mariner.vaults.help": 1
          }
        },
        {
          "actionId": "mariner.sail",
          "id": "mariner.sail2",
          "label": "Help",
          "description": "Which implements are available for my approach.",
          "required": {
            "funds": 1,
            "mariner.crew": 1,
            "tool": 1,
            "mariner.inspiration.nature": 1,
            "mariner.lackheart": 1,
            "mariner.halfheart": 1
          },
          "forbidden": {
            "mariner.crew.traits.landlubber": 1,
            "mariner.crew.exhausted": 1,
            "mariner.tool.broken": 1,
            "mariner.vaults.help": 1
          }
        },
        {
          "actionId": "mariner.sail",
          "id": "mariner.sail3",
          "label": "Help",
          "description": "Which implements are available for my approach.",
          "required": {
            "funds": 1,
            "mariner.crew": 1,
            "tool": 1,
            "mariner.inspiration.nature": 1,
            "mariner.lackheart": 1,
            "mariner.halfheart": 1
          },
          "forbidden": {
            "mariner.crew.traits.landlubber": 1,
            "mariner.crew.exhausted": 1,
            "mariner.tool.broken": 1,
            "mariner.vaults.help": 1
          }
        }
      ]
    },
    {
      "id": "mariner.sailing.seaevents.new_moon.outcome.safe",
      "warmup": 20,
      "label": "<The World Still Turns>",
      "startdescription": "<Those who watch do not sleep, not even when the moon is blind. so in their eyeswe will remain bound and back and here. >",
      "linked": [
        {
          "id": "mariner.sailing.postevent"
        }
      ]
    },
    {
      "id": "mariner.sailing.seaevents.new_moon.outcome.chance_change",
      "warmup": 20,
      "label": "<Into the Unseen>",
      "startdescription": "<We sail onto stranger tides, and out of sight of the omnipresent sun of vigilant moon. Here location can lapse from certainty and we swaying in potentia, in waves. When the sun rises, on that collapsing wave the sun first lights, we will be somewhere again, and must once again find our bearing.>",
      "effects": {
        "mariner.sailing.distancetravelled": 300
      }
    },
    {
      "id": "mariner.sailing.seaevents.new_moon.outcome.chance_delay",
      "warmup": 20,
      "label": "<Into the Unseen>",
      "startdescription": "<We sail onto stranger tides, and out of sight of the omnipresent sun of vigilant moon. Here location can lapse from certainty and we swaying in potentia, in waves. When the sun rises, on that collapsing wave the sun first lights, we will be somewhere again, and must once again find our bearing.>",
      "effects": {
        "mariner.sailing.distance": 60
      }
    }
  ]
}