{
  "recipes": [
    {
      "warmup": 1,
      "id": "mariner.genericevents.traumatizecrewmember.supernatural",
      "actionId": "mariner.traumatizecrewmember.supernatural",
      "linked": [
        {
          "id": "mariner.genericevents.traumatizecrewmember.supernatural.foundexpulsed"
        },
        {
          "id": "mariner.genericevents.traumatizecrewmember.supernatural.grabexpulsed"
        }
      ]
    },
    {
      "id": "mariner.genericevents.traumatizecrewmember.supernatural.foundexpulsed",
      "requirements": {
        "mariner.crew": 1
      },
      "label": "<>",
      "startdescription": "<Visions of impossible horrors.>",
      "linked": [
        {
          "id": "mariner.genericevents.traumatizecrewmember.supernatural.triggeraction"
        }
      ]
    },
    {
      "id": "mariner.genericevents.traumatizecrewmember.supernatural.grabexpulsed",
      "warmup": 15,
      "label": "<>",
      "startdescription": "<Visions of impossible horrors.>",
      "requirements": {
        "mariner.crew": -1
      },
      "slots": [
        {
          "id": "victim",
          "label": "The Daggers of Danger",
          "description": "I know this won't end well.",
          "greedy": true,
          "required": {
            "mariner.crew": 1
          }
        }
      ],
      "linked": [
        {
          "id": "mariner.genericevents.traumatizecrewmember.supernatural.triggeraction"
        }
      ]
    },
    {
      "id": "mariner.genericevents.traumatizecrewmember.supernatural.triggeraction",
      "mutations": [
        {
          "filter": "mariner.crew",
          "mutate": "mariner.crew.targeted",
          "level": 1,
          "additive": false
        }
      ],
      "aspects": {
        "mariner.signal.witnesssupernaturaltrauma": 1
      }
    },
    {
      "id": "mariner.genericevents.traumatizecrewmember.supernatural.injuremortal",
      "warmup": 15,
      "label": "<>",
      "startdescription": "<>",
      "description": "<>",
      "effects": {
        "mariner.crew": -1
      },
      "mutations": [
        {
          "filter": "mariner.crew",
          "mutate": "mariner.crew.trauma.superstitious",
          "level": 1,
          "additive": false
        }
      ]
    },
    {
      "warmup": 1,
      "id": "mariner.genericevents.traumatizecrewmember.horror",
      "actionId": "mariner.traumatizecrewmember.horror",
      "linked": [
        {
          "id": "mariner.genericevents.traumatizecrewmember.horror.foundexpulsed"
        },
        {
          "id": "mariner.genericevents.traumatizecrewmember.horror.grabexpulsed"
        }
      ]
    },
    {
      "id": "mariner.genericevents.traumatizecrewmember.horror.foundexpulsed",
      "requirements": {
        "mariner.crew": 1
      },
      "label": "<>",
      "startdescription": "<Visions of impossible horrors.>",
      "linked": [
        {
          "id": "mariner.genericevents.traumatizecrewmember.horror.triggeraction"
        }
      ]
    },
    {
      "id": "mariner.genericevents.traumatizecrewmember.horror.grabexpulsed",
      "warmup": 15,
      "label": "<>",
      "startdescription": "<Contemplating Pure Violence.>",
      "requirements": {
        "mariner.crew": -1
      },
      "slots": [
        {
          "id": "victim",
          "label": "The Daggers of Danger",
          "description": "I know this won't end well.",
          "greedy": true,
          "required": {
            "mariner.crew": 1
          }
        }
      ],
      "linked": [
        {
          "id": "mariner.genericevents.traumatizecrewmember.horror.triggeraction"
        }
      ]
    },
    {
      "id": "mariner.genericevents.traumatizecrewmember.horror.triggeraction",
      "mutations": [
        {
          "filter": "mariner.crew",
          "mutate": "mariner.crew.targeted",
          "level": 1,
          "additive": false
        }
      ],
      "aspects": {
        "mariner.signal.witnesshorrortrauma": 1
      }
    },
    {
      "id": "mariner.genericevents.traumatizecrewmember.horror.injuremortal",
      "warmup": 15,
      "label": "<>",
      "startdescription": "<>",
      "description": "<>",
      "effects": {
        "mariner.crew": -1
      },
      "mutations": [
        {
          "filter": "mariner.crew",
          "mutate": "mariner.crew.trauma.shaken",
          "level": 1,
          "additive": false
        }
      ]
    }
  ]
}