{
  "elements": [
    {
      "isAspect": true,
      "id": "mariner.discoveredwharves.medsea.marseille",
      "noArtNeeded": true,
      "isHidden": true
    },
    {
      "isAspect": true,
      "id": "mariner.discoveredwharves.medsea.bizerta",
      "noArtNeeded": true,
      "isHidden": true
    },
    {
      "isAspect": true,
      "id": "mariner.discoveredwharves.medsea.constantinople",
      "noArtNeeded": true,
      "isHidden": true
    },
    {
      "isAspect": true,
      "id": "mariner.discoveredwharves.medsea.haifa",
      "noArtNeeded": true,
      "isHidden": true
    }
  ]
}