{
  "elements": [
    {
      "isAspect": true,
      "id": "mariner.locations.medsea.sailingthere",
      "label": "Sailing to a place connected to Mediterranean Sea",
      "description": "Sailing to a place connected to Mediterranean Sea, so we should unlock things of this sea when arriving",
      "decayTo": "anything really",
      "noArtNeeded": true,
      "isHidden": true
    },
    {
      "isAspect": true,
      "id": "mariner.locations.medsea.presentthere",
      "label": "Present in Mediterranean Sea",
      "description": "Present in Mediterranean Sea (unavailable, might get deleted in the future)",
      "decayTo": "anything really"
    }
  ]
}