{
  "elements": [
    {
      "id": "mariner.locations.medsea.haifa.archeologist",
      "$derives": [
        "mariner.composables.recipientnpc",
        "mariner.composables.canbecomehostile"
      ],
      "xexts": {
        "$background": "locations/medsea/haifa/archeologist",
        "$frame": "locations/medsea/haifa/haifa_frame"
      },
      "label": "Professor Miriam Sayegh",
      "description": "The thoughtful, accomplished, dust-flecked, Archeology Chair of Haifa University.",
      "decayTo": "mariner.locations.medsea.haifa.archeologist.away",
      "aspects": {
        "mariner.recipient.medsea.haifa.archeologist": 1
      },
      "xtriggers": {
        "mariner.location.makehostile": "mariner.locations.medsea.haifa.archeologist.hostile"
      }
    },
    {
      "id": "mariner.locations.medsea.haifa.archeologist.away",
      "overlays": [
        {
          "image": "locations/medsea/haifa/archeologist",
          "grayscale": true,
          "color": "#000000"
        },
        "locations/medsea/haifa/haifa_frame"
      ],
      "label": "Professor Miriam Sayegh [away]",
      "description": "The thoughtful, accomplished, dust-flecked, Archeology Chair of Haifa University.",
      "decayTo": "mariner.locations.medsea.haifa.archeologist",
      "aspects": {
        "mariner.locations.medsea.haifa.destination": 1
      }
    },
    {
      "id": "mariner.locations.medsea.haifa.archeologist.hostile",
      "$derives": [
        "mariner.composables.recipientnpc",
        "mariner.composables.npc.hostile"
      ],
      "xexts": {
        "$background": "locations/medsea/haifa/archeologist",
        "$frame": "locations/medsea/haifa/haifa_frame"
      },
      "label": "Professor Miriam Sayegh [hard to meet]",
      "description": "The thoughtful, accomplished, dust-flecked, Archeology Chair of Haifa University.",
      "icon": "mariner.locations.medsea.haifa.archeologist",
      "decayTo": "mariner.locations.medsea.haifa.archeologist.away",
      "xtriggers": {
        "mariner.location.makenothostile": "mariner.locations.medsea.haifa.archeologist"
      }
    },
    {
      "id": "mariner.locations.medsea.haifa.zoha",
      "$derives": [
        "mariner.composables.recipientnpc",
        "mariner.composables.canbecomehostile"
      ],
      "xexts": {
        "$background": "locations/medsea/haifa/zoha",
        "$frame": "locations/medsea/haifa/haifa_frame"
      },
      "dynamicLabel": "@#mariner.knowname|Zoha#|The Dreamer@",
      "description": "A young woman with an evidently a hard life allready behind her, but a fire still raging inside. She has walked down many roads, and now found herself back to Haifa, but not back to home.",
      "decayTo": "mariner.locations.medsea.haifa.zoha.away",
      "aspects": {
        "mariner.recipient.medsea.haifa.zoha": 1
      },
      "xtriggers": {
        "mariner.location.makehostile": "mariner.locations.medsea.haifa.zoha.hostile",
        "mariner.signal.discoverlocalelement": {
          "morpheffect": "link",
          "id": "mariner.explore.medsea.haifa.discover.zoha"
        }
      }
    },
    {
      "id": "mariner.locations.medsea.haifa.zoha.away",
      "overlays": [
        {
          "image": "locations/medsea/haifa/zoha",
          "grayscale": true,
          "color": "#000000"
        },
        "locations/medsea/haifa/haifa_frame"
      ],
      "label": "undefined [away]",
      "description": "A young woman with an evidently a hard life allready behind her, but a fire still raging inside. She has walked down many roads, and now found herself back to Haifa, but not back to home.",
      "decayTo": "mariner.locations.medsea.haifa.zoha",
      "aspects": {
        "mariner.locations.medsea.haifa.destination": 1
      }
    },
    {
      "id": "mariner.locations.medsea.haifa.zoha.hostile",
      "$derives": [
        "mariner.composables.recipientnpc",
        "mariner.composables.npc.hostile"
      ],
      "xexts": {
        "$background": "locations/medsea/haifa/zoha",
        "$frame": "locations/medsea/haifa/haifa_frame"
      },
      "label": "undefined [hard to meet]",
      "dynamicLabel": "@#mariner.knowname|Zoha#|The Dreamer@",
      "description": "A young woman with an evidently a hard life allready behind her, but a fire still raging inside. She has walked down many roads, and now found herself back to Haifa, but not back to home.",
      "icon": "mariner.locations.medsea.haifa.zoha",
      "decayTo": "mariner.locations.medsea.haifa.zoha.away",
      "xtriggers": {
        "mariner.location.makenothostile": "mariner.locations.medsea.haifa.zoha"
      }
    },
    {
      "id": "mariner.locations.medsea.haifa.galantha",
      "$derives": [
        "mariner.composables.npc",
        "mariner.composables.canbecomehostile"
      ],
      "xexts": {
        "$background": "locations/medsea/haifa/galantha",
        "$frame": "locations/medsea/haifa/haifa_frame"
      },
      "label": "The Galantha, Roaming",
      "description": "A tourist out of time, a conqueress surveying her lands, a wolf-amongst-sheep",
      "decayTo": "mariner.locations.medsea.haifa.galantha.away",
      "aspects": {},
      "xtriggers": {
        "mariner.location.makehostile": "mariner.locations.medsea.haifa.galantha.hostile"
      }
    },
    {
      "id": "mariner.locations.medsea.haifa.galantha.away",
      "overlays": [
        {
          "image": "locations/medsea/haifa/galantha",
          "grayscale": true,
          "color": "#000000"
        },
        "locations/medsea/haifa/haifa_frame"
      ],
      "label": "The Galantha, Roaming [away]",
      "description": "A tourist out of time, a conqueress surveying her lands, a wolf-amongst-sheep",
      "decayTo": "mariner.locations.medsea.haifa.galantha",
      "aspects": {
        "mariner.locations.medsea.haifa.destination": 1
      }
    },
    {
      "id": "mariner.locations.medsea.haifa.galantha.hostile",
      "$derives": [
        "mariner.composables.npc",
        "mariner.composables.npc.hostile"
      ],
      "xexts": {
        "$background": "locations/medsea/haifa/galantha",
        "$frame": "locations/medsea/haifa/haifa_frame"
      },
      "label": "The Galantha, Roaming [hard to meet]",
      "description": "A tourist out of time, a conqueress surveying her lands, a wolf-amongst-sheep",
      "icon": "mariner.locations.medsea.haifa.galantha",
      "decayTo": "mariner.locations.medsea.haifa.galantha.away",
      "xtriggers": {
        "mariner.location.makenothostile": "mariner.locations.medsea.haifa.galantha"
      }
    },
    {
      "id": "mariner.locations.medsea.haifa.ancientmarket",
      "overlays": [
        "locations/medsea/haifa/ancientmarket",
        "locations/medsea/haifa/haifa_frame"
      ],
      "label": "<>",
      "description": "<>",
      "decayTo": "mariner.locations.medsea.haifa.ancientmarket.away",
      "aspects": {
        "modded_explore_allowed": 1,
        "mariner.local": 1,
        "mariner.location.nothostile": 1,
        "mariner.market": 1,
        "mariner.location": 1
      },
      "unique": true,
      "slots": [
        {
          "id": "trapping",
          "label": "Goods",
          "description": "What to sell.",
          "actionId": "explore",
          "required": {}
        },
        {
          "id": "story",
          "label": "Story to trade",
          "description": "The story I'm willing to share in order to get them to share theirs.",
          "actionId": "mariner.navigate",
          "required": {
            "mariner.story": 1
          }
        }
      ],
      "xtriggers": {
        "mariner.location.makehostile": "mariner.locations.medsea.haifa.ancientmarket.hostile"
      }
    },
    {
      "id": "mariner.locations.medsea.haifa.ancientmarket.away",
      "overlays": [
        {
          "image": "locations/medsea/haifa/ancientmarket",
          "grayscale": true,
          "color": "#000000"
        },
        "locations/medsea/haifa/haifa_frame"
      ],
      "label": "<> [away]",
      "description": "<>",
      "decayTo": "mariner.locations.medsea.haifa.ancientmarket",
      "aspects": {
        "mariner.locations.medsea.haifa.destination": 1,
        "mariner.location": 1
      },
      "unique": true
    },
    {
      "id": "mariner.locations.medsea.haifa.ancientmarket.hostile",
      "overlays": [
        "locations/medsea/haifa/ancientmarket",
        "locations/medsea/haifa/haifa_frame"
      ],
      "label": "<> [hostile]",
      "description": "<>",
      "decayTo": "mariner.locations.medsea.haifa.ancientmarket.away",
      "aspects": {
        "modded_explore_allowed": 1,
        "mariner.local": 1,
        "mariner.location.hostile": 1,
        "mariner.location": 1,
        "mariner.market": 1
      },
      "unique": true,
      "slots": [
        {
          "actionId": "explore",
          "id": "explore1",
          "label": "Help",
          "description": "Which implements are available for my approach.",
          "required": {
            "mariner.crew": 1,
            "tool": 1,
            "mariner.inspiration.nature": 1
          },
          "forbidden": {
            "mariner.crew.traits.craven": 1,
            "mariner.crew.exhausted": 1,
            "mariner.tool.broken": 1,
            "mariner.vaults.help": 1,
            "mariner.crew.traits.unsociable": 1
          }
        },
        {
          "actionId": "explore",
          "id": "explore2",
          "label": "Help",
          "description": "Which implements are available for my approach.",
          "required": {
            "mariner.crew": 1,
            "tool": 1,
            "mariner.inspiration.nature": 1
          },
          "forbidden": {
            "mariner.crew.traits.craven": 1,
            "mariner.crew.exhausted": 1,
            "mariner.tool.broken": 1,
            "mariner.vaults.help": 1,
            "mariner.crew.traits.unsociable": 1
          }
        },
        {
          "actionId": "explore",
          "id": "explore3",
          "label": "Help",
          "description": "Which implements are available for my approach.",
          "required": {
            "mariner.crew": 1,
            "tool": 1,
            "mariner.inspiration.nature": 1
          },
          "forbidden": {
            "mariner.crew.traits.craven": 1,
            "mariner.crew.exhausted": 1,
            "mariner.tool.broken": 1,
            "mariner.vaults.help": 1,
            "mariner.crew.traits.unsociable": 1
          }
        }
      ],
      "xtriggers": {
        "mariner.location.makenothostile": "mariner.locations.medsea.haifa.ancientmarket"
      }
    },
    {
      "id": "mariner.locations.medsea.haifa.haifatheater",
      "overlays": [
        "locations/medsea/haifa/haifatheater",
        "locations/medsea/haifa/haifa_frame"
      ],
      "label": "<>",
      "description": "<>",
      "decayTo": "mariner.locations.medsea.haifa.haifatheater.away",
      "aspects": {
        "mariner.local": 1,
        "mariner.location.nothostile": 1,
        "mariner.theater": 1,
        "mariner.sing_allowed": 1,
        "mariner.location": 1
      },
      "unique": true,
      "slots": [
        {
          "id": "verbSong",
          "actionId": "mariner.sing",
          "label": "Song",
          "description": "I should begin my performance, by declaring my intentions, my method, my staging.",
          "required": {
            "mariner.song": 1
          }
        },
        {
          "id": "story",
          "label": "Story to trade",
          "description": "The story I'm willing to share in order to get them to share theirs.",
          "actionId": "mariner.navigate",
          "required": {
            "mariner.story": 1
          }
        },
        {
          "id": "aspect1",
          "actionId": "mariner.sing",
          "label": "Trapping",
          "required": {
            "mariner.trapping": 1
          }
        }
      ],
      "xtriggers": {
        "mariner.location.makehostile": "mariner.locations.medsea.haifa.haifatheater.hostile"
      }
    },
    {
      "id": "mariner.locations.medsea.haifa.haifatheater.away",
      "overlays": [
        {
          "image": "locations/medsea/haifa/haifatheater",
          "grayscale": true,
          "color": "#000000"
        },
        "locations/medsea/haifa/haifa_frame"
      ],
      "label": "<> [away]",
      "description": "<>",
      "decayTo": "mariner.locations.medsea.haifa.haifatheater",
      "aspects": {
        "mariner.locations.medsea.haifa.destination": 1,
        "mariner.location": 1
      },
      "unique": true
    },
    {
      "id": "mariner.locations.medsea.haifa.haifatheater.hostile",
      "overlays": [
        "locations/medsea/haifa/haifatheater",
        "locations/medsea/haifa/haifa_frame"
      ],
      "label": "<> [hostile]",
      "description": "<>",
      "decayTo": "mariner.locations.medsea.haifa.haifatheater.away",
      "aspects": {
        "modded_explore_allowed": 1,
        "mariner.local": 1,
        "mariner.location.hostile": 1,
        "mariner.location": 1,
        "mariner.theater": 1,
        "mariner.sing_allowed": 1
      },
      "unique": true,
      "slots": [
        {
          "actionId": "explore",
          "id": "explore1",
          "label": "Help",
          "description": "Which implements are available for my approach.",
          "required": {
            "mariner.crew": 1,
            "tool": 1,
            "mariner.inspiration.nature": 1
          },
          "forbidden": {
            "mariner.crew.traits.craven": 1,
            "mariner.crew.exhausted": 1,
            "mariner.tool.broken": 1,
            "mariner.vaults.help": 1,
            "mariner.crew.traits.unsociable": 1
          }
        },
        {
          "actionId": "explore",
          "id": "explore2",
          "label": "Help",
          "description": "Which implements are available for my approach.",
          "required": {
            "mariner.crew": 1,
            "tool": 1,
            "mariner.inspiration.nature": 1
          },
          "forbidden": {
            "mariner.crew.traits.craven": 1,
            "mariner.crew.exhausted": 1,
            "mariner.tool.broken": 1,
            "mariner.vaults.help": 1,
            "mariner.crew.traits.unsociable": 1
          }
        },
        {
          "actionId": "explore",
          "id": "explore3",
          "label": "Help",
          "description": "Which implements are available for my approach.",
          "required": {
            "mariner.crew": 1,
            "tool": 1,
            "mariner.inspiration.nature": 1
          },
          "forbidden": {
            "mariner.crew.traits.craven": 1,
            "mariner.crew.exhausted": 1,
            "mariner.tool.broken": 1,
            "mariner.vaults.help": 1,
            "mariner.crew.traits.unsociable": 1
          }
        }
      ],
      "xtriggers": {
        "mariner.location.makenothostile": "mariner.locations.medsea.haifa.haifatheater"
      }
    },
    {
      "id": "mariner.locations.medsea.haifa.toolsmith",
      "overlays": [
        "locations/medsea/haifa/toolsmith",
        "locations/medsea/haifa/haifa_frame"
      ],
      "label": "<Toolsmith>",
      "description": "<>",
      "decayTo": "mariner.locations.medsea.haifa.toolsmith.away",
      "aspects": {
        "modded_explore_allowed": 1,
        "mariner.local": 1,
        "mariner.smiths.toolsmith": 1,
        "mariner.toolsmith": 1,
        "modded_talk_allowed": 1
      },
      "unique": true,
      "slots": [
        {
          "id": "tool",
          "label": "Tool",
          "description": "<Tool to improve>",
          "actionId": "talk",
          "required": {
            "mariner.tool.forge": 1,
            "mariner.tool.knock": 1
          }
        }
      ],
      "xtriggers": {}
    },
    {
      "id": "mariner.locations.medsea.haifa.toolsmith.away",
      "overlays": [
        {
          "image": "locations/medsea/haifa/toolsmith",
          "grayscale": true,
          "color": "#000000"
        },
        "locations/medsea/haifa/haifa_frame"
      ],
      "label": "<Toolsmith> [away]",
      "description": "<>",
      "decayTo": "mariner.locations.medsea.haifa.toolsmith",
      "aspects": {
        "mariner.locations.medsea.haifa.destination": 1,
        "mariner.location": 1
      },
      "unique": true
    },
    {
      "id": "mariner.locations.medsea.haifa.bar",
      "$derives": [
        "mariner.composables.bar",
        "mariner.composables.canbecomehostile"
      ],
      "label": "Mirsa",
      "description": "Different town, same crowd. Different language, same stories.",
      "icon": "locations/bars/mariner.locations.medsea.bar",
      "xtriggers": {
        "mariner.location.makehostile": "mariner.locations.medsea.haifa.bar.hostile",
        "mariner.signal.discoverlocalelement": {
          "morpheffect": "link",
          "id": "mariner.discoverbar.medsea.haifa"
        }
      }
    },
    {
      "id": "mariner.locations.medsea.haifa.bar.hostile",
      "$derives": [
        "mariner.composables.bar.base",
        "mariner.composables.hostile"
      ],
      "label": "Mirsa [hostile]",
      "description": "Different town, same crowd. Different language, same stories.",
      "icon": "locations/bars/mariner.locations.medsea.bar",
      "xtriggers": {
        "mariner.location.makenothostile": "mariner.locations.medsea.haifa.bar"
      },
      "slots": [
        {
          "actionId": "talk",
          "id": "talk1",
          "label": "Help",
          "description": "Which implements are available for my approach.",
          "required": {
            "mariner.crew": 1,
            "mariner.song": 1,
            "mariner.tune": 1,
            "mariner.story": 1,
            "mariner.lackheart": 1,
            "mariner.halfheart": 1
          },
          "forbidden": {
            "mariner.crew.traits.mute": 1,
            "mariner.crew.exhausted": 1,
            "mariner.vaults.help": 1,
            "mariner.crew.traits.unsociable": 1
          }
        },
        {
          "actionId": "talk",
          "id": "talk2",
          "label": "Help",
          "description": "Which implements are available for my approach.",
          "required": {
            "mariner.crew": 1,
            "mariner.song": 1,
            "mariner.tune": 1,
            "mariner.story": 1,
            "mariner.lackheart": 1,
            "mariner.halfheart": 1
          },
          "forbidden": {
            "mariner.crew.traits.mute": 1,
            "mariner.crew.exhausted": 1,
            "mariner.vaults.help": 1,
            "mariner.crew.traits.unsociable": 1
          }
        },
        {
          "actionId": "talk",
          "id": "talk3",
          "label": "Help",
          "description": "Which implements are available for my approach.",
          "required": {
            "mariner.crew": 1,
            "mariner.song": 1,
            "mariner.tune": 1,
            "mariner.story": 1,
            "mariner.lackheart": 1,
            "mariner.halfheart": 1
          },
          "forbidden": {
            "mariner.crew.traits.mute": 1,
            "mariner.crew.exhausted": 1,
            "mariner.vaults.help": 1,
            "mariner.crew.traits.unsociable": 1
          }
        }
      ]
    },
    {
      "id": "mariner.locations.medsea.haifa.wharf",
      "$derives": [
        "mariner.composables.wharf.available",
        "mariner.composables.canbecomehostile"
      ],
      "icon": "locations/wharves/mariner.locations.medsea.wharf",
      "aspects": {
        "modded_talk_allowed": 1,
        "mariner.location.nothostile": 1
      },
      "xtriggers": {
        "mariner.location.makehostile": "mariner.locations.medsea.haifa.wharf.hostile",
        "mariner.signal.discoverlocalelement": {
          "morpheffect": "link",
          "id": "mariner.discoverwharf.medsea.haifa"
        }
      }
    },
    {
      "id": "mariner.locations.medsea.haifa.wharf.hostile",
      "$derives": [
        "mariner.composables.wharf",
        "mariner.composables.hostile"
      ],
      "icon": "locations/wharves/mariner.locations.medsea.wharf",
      "aspects": {},
      "xtriggers": {
        "mariner.location.makenothostile": "mariner.locations.medsea.haifa.wharf"
      },
      "label": "Wharf [hostile]"
    }
  ]
}