{
  "recipes": [
    {
      "id": "mariner.discoverbar.medsea.marseille",
      "label": "Discovered The Sailor's Bar.",
      "description": "I have found the bars where sailors meet when the longing for travel pulls at them oncemore.",
      "requirements": {
        "mariner.locations.medsea.marseille.bar": 1
      },
      "effects": {
        "mariner.locations.medsea.marseille.bar": -1
      },
      "furthermore": [
        {
          "target": "~/exterior",
          "mutations": {
            "mariner.nobarhere": {
              "mariner.discoveredbars.medsea.marseille": 1
            }
          }
        },
        {
          "target": "~/exterior",
          "decays": [
            "mariner.nobarhere"
          ]
        },
        {
          "target": "~/exterior",
          "aspects": {
            "mariner.displaylocalbar.medsea.marseille": 1
          }
        }
      ],
      "linked": [
        {
          "id": "mariner.addgroundedness"
        }
      ]
    },
    {
      "id": "mariner.discoverbar.medsea.bizerta",
      "label": "Discovered The Sailor's Bar.",
      "description": "I have found the bars where sailors meet when the longing for travel pulls at them oncemore.",
      "requirements": {
        "mariner.locations.medsea.bizerta.bar": 1
      },
      "effects": {
        "mariner.locations.medsea.bizerta.bar": -1
      },
      "furthermore": [
        {
          "target": "~/exterior",
          "mutations": {
            "mariner.nobarhere": {
              "mariner.discoveredbars.medsea.bizerta": 1
            }
          }
        },
        {
          "target": "~/exterior",
          "decays": [
            "mariner.nobarhere"
          ]
        },
        {
          "target": "~/exterior",
          "aspects": {
            "mariner.displaylocalbar.medsea.bizerta": 1
          }
        }
      ],
      "linked": [
        {
          "id": "mariner.addgroundedness"
        }
      ]
    },
    {
      "id": "mariner.discoverbar.medsea.constantinople",
      "label": "Discovered The Sailor's Bar.",
      "description": "I have found the bars where sailors meet when the longing for travel pulls at them oncemore.",
      "requirements": {
        "mariner.locations.medsea.constantinople.bar": 1
      },
      "effects": {
        "mariner.locations.medsea.constantinople.bar": -1
      },
      "furthermore": [
        {
          "target": "~/exterior",
          "mutations": {
            "mariner.nobarhere": {
              "mariner.discoveredbars.medsea.constantinople": 1
            }
          }
        },
        {
          "target": "~/exterior",
          "decays": [
            "mariner.nobarhere"
          ]
        },
        {
          "target": "~/exterior",
          "aspects": {
            "mariner.displaylocalbar.medsea.constantinople": 1
          }
        }
      ],
      "linked": [
        {
          "id": "mariner.addgroundedness"
        }
      ]
    },
    {
      "id": "mariner.discoverbar.medsea.haifa",
      "label": "Discovered The Sailor's Bar.",
      "description": "I have found the bars where sailors meet when the longing for travel pulls at them oncemore.",
      "requirements": {
        "mariner.locations.medsea.haifa.bar": 1
      },
      "effects": {
        "mariner.locations.medsea.haifa.bar": -1
      },
      "furthermore": [
        {
          "target": "~/exterior",
          "mutations": {
            "mariner.nobarhere": {
              "mariner.discoveredbars.medsea.haifa": 1
            }
          }
        },
        {
          "target": "~/exterior",
          "decays": [
            "mariner.nobarhere"
          ]
        },
        {
          "target": "~/exterior",
          "aspects": {
            "mariner.displaylocalbar.medsea.haifa": 1
          }
        }
      ],
      "linked": [
        {
          "id": "mariner.addgroundedness"
        }
      ]
    }
  ]
}