{
  "elements": [
    {
      "id": "mariner.verbicon.tide",
      "verbicon": "mariner.tide",
      "isHidden": true
    },
    {
      "id": "mariner.seasons.wanderlust",
      "label": "Season of Wanderings",
      "description": "Where will my footsteps take me? When the weather turns like this, I always get the urge to explore.",
      "icon": "dayplaces",
      "aspects": {
        "season": 1
      },
      "lifetime": 1
    },
    {
      "id": "mariner.seasons.heartache",
      "label": "Season of Heartache",
      "description": "That old wound begins to ache.",
      "aspects": {
        "season": 1
      },
      "lifetime": 1
    },
    {
      "id": "mariner.seasons.wounds",
      "label": "Season of Reckoning",
      "description": "When the past comes take stock of me.",
      "icon": "seasonsilence",
      "aspects": {
        "season": 1
      },
      "lifetime": 1
    },
    {
      "id": "mariner.wanderlust",
      "label": "Wanderlust",
      "description": "Without new experiences, something inside me gnaws. Without travel I will fade until I feel like I am dreaming in my waking hours, and dead when I'm asleep.",
      "aspects": {
        "moth": 2,
        "winter": 2,
        "influence": 1,
        "illhealth": 1,
        "invokesheartache": 1,
        "mariner.topic": 1
      }
    },
    {
      "icon": "notoriety",
      "id": "mariner.notoriety",
      "label": "Notoriety",
      "description": "People saw things. They might talk to authorities...",
      "aspects": {
        "mariner.local": 1
      },
      "lifetime": 240
    },
    {
      "id": "mariner.lastingnotoriety",
      "label": "Lasting Notoriety",
      "description": "My reputation follows me wherever I go. It seems some people made sure everyone knows I'm a troublemaker.",
      "aspects": {
        "mariner.notoriety": 1
      },
      "lifetime": 3600
    },
    {
      "id": "mariner.thrill",
      "label": "Thrill",
      "icon": "seasonserenities",
      "description": "\"I travel not to go anywhere, but to go. I travel for travel's sake.\"<br> Robert Louis Stevenson",
      "aspects": {
        "influence": 1,
        "edge": 2,
        "heart": 2,
        "memory": 2
      }
    },
    {
      "id": "mariner.atsea",
      "isHidden": true,
      "lifetime": 1
    },
    {
      "id": "mariner.scrapofinformation",
      "label": "A Scrap of Information",
      "description": "A hint of something deeper. A promise of something more. A new location or opportunity to discover. Could it be the next step in my travels?",
      "aspects": {
        "mariner.navigate_allowed": 1
      },
      "slots": [
        {
          "id": "rumour",
          "label": "Rumour",
          "actionId": "mariner.navigate",
          "required": {
            "mariner.rumour": 1
          }
        }
      ],
      "icon": "fragmentsecrethistoriesb"
    },
    {
      "id": "mariner.oddcorners",
      "label": "Odd Corners",
      "description": "Each city has its corners where the peculiar crosses paths the illicit.",
      "icon": "locationstreetsstrange",
      "lifetime": 60,
      "aspects": {
        "modded_explore_allowed": 1,
        "mariner.local": 1
      }
    },
    {
      "id": "mariner.curses.lifetimecounter",
      "lifetime": 1,
      "isHidden": true
    },
    {
      "id": "mariner.marinettedoll",
      "label": "Cherished Idol",
      "description": "What could at first pass for a pile of tiny bones wrapped in red satin cloth is actually some kind of strange doll. Each minuscule bleached bone is tied to another by a blackened waxed rope, through needle sized holes. The actual shape of it is hard to define, except maybe for its vaguely canine skull."
    },
    {
      "id": "mariner.localelement.unavailable",
      "label": "Unavailable",
      "description": "<>"
    }
  ]
}