{
  "recipes": [
    {
      "id": "mariner.talkto.northsea.amsterdam.veiledlady.deliverletter",
      "actionId": "talk",
      "craftable": true,
      "maxexecutions": 1,
      "requirements": {
        "mariner.locations.northsea.amsterdam.veiledlady": 1,
        "mariner.letter.veiledlady": 1
      },
      "label": "An Audience With The Veiled Lady",
      "startdescription": "Through clubs, through drawn curtains, through cigarette smoke, I pass. Then I finally spot her. \"Enchantée\" she says, although her accent is not french.",
      "warmup": 30,
      "description": "\"A letter from miss Morland.?\" She opens it and scans the words. Her eyes flick back up to my face, once. \"Yes, I think this has been quite helpful.\"",
      "effects": {
        "mariner.letter.veiledlady": -1
      },
      "linked": [
        {
          "id": "mariner.talkto.northsea.amsterdam.veiledlady.giverequest"
        }
      ]
    },
    {
      "id": "mariner.talkto.northsea.amsterdam.veiledlady.giverequest",
      "label": "A Demand Wrapped In Honey",
      "actionId": "talk",
      "startdescription": "\"While you are here... I need something back that I have lost. A trinket from a former life has be been pilfered by some sewer rats. You seem like a person of action. Retrieve it for me, please?\"",
      "warmup": 30,
      "furthermore": [
        {
          "effects": {
            "mariner.quests.amsterdamsewers": 1,
            "mariner.locations.northsea.ekstersnest.away": 1
          }
        },
        {
          "target": "~/visible",
          "aspects": {
            "mariner.questsignal.amsterdamsewers.applyupdate.started": 1
          }
        }
      ]
    },
    {
      "id": "mariner.talkto.northsea.amsterdam.veiledlady.completerequest",
      "actionId": "talk",
      "craftable": true,
      "maxexecutions": 1,
      "requirements": {
        "mariner.locations.northsea.amsterdam.veiledlady": 1,
        "mariner.quests.amsterdamsewers": 1,
        "mariner.vaults.ekstersnest.ring": 1
      },
      "label": "A Ring Returned",
      "startdescription": "\"Thank you. I appreciate this favor.\" The ring disappears into a jewelry box, locked and stowed. \"Lets get to know eachother a little closer now...\"",
      "warmup": 30,
      "description": "<i>She turns her head slightly.</i><br>\"Ask, and I will dance. Just for you.\" [speak to a Muse about your Temptation or Dedication to use them as a dedication.",
      "furthermore": [
        {
          "target": "~/visible",
          "aspects": {
            "mariner.questsignal.asmterdamsewers.applyupdate.completed": 1
          }
        },
        {
          "target": "~/extant",
          "effects": {
            "mariner.quests.amsterdamsewers": -1
          }
        },
        {
          "effects": {
            "mariner.locations.northsea.amsterdam.veiledlady": -1,
            "mariner.locations.northsea.amsterdam.matahari": 1,
            "mariner.vaults.ekstersnest.ring": -1
          }
        }
      ]
    }
  ]
}