{
  "recipes": [
    {
      "id": "mariner.sailing.seaevents.start.yachts",
      "warmup": 20,
      "label": "A Ship Alone",
      "tablereqs": {
        "mariner.weathermeta.sunny": 1
      },
      "startdescription": "We come up to a vessel, nearly as large as the kite, but as white as snow, shining in the sun. No crew is seen on deck, only men and women languishing in the shade or baking in the sun. In the water, in a small sloops, a man drifts equipped with neither paddle nor fear raises. He raises a glass, sparkling diamonds in the sun. \"A toast to the bounty of the seas.\"",
      "linked": [
        {
          "id": "mariner.sailing.seaevents.yachts.outcome.talk.router"
        }
      ]
    },
    {
      "id": "mariner.sailing.seaevents.yachts.outcome.talk.router",
      "warmup": 20,
      "linked": [
        {
          "id": "mariner.sailing.seaevents.yachts.outcome.talk.reward.rumour",
          "chance": 33
        },
        {
          "id": "mariner.sailing.seaevents.yachts.outcome.talk.reward.scrap",
          "chance": 50
        },
        {
          "id": "mariner.sailing.seaevents.yachts.outcome.talk.reward.gifts"
        }
      ]
    },
    {
      "id": "mariner.sailing.seaevents.yachts.outcome.talk.reward.rumour",
      "warmup": 20,
      "effects": {
        "mariner.rumour": 1
      },
      "linked": [
        {
          "id": "mariner.sailing.seaevents.yachts.outcome.wrapup"
        }
      ]
    },
    {
      "id": "mariner.sailing.seaevents.yachts.outcome.talk.reward.scrap",
      "warmup": 20,
      "effects": {
        "mariner.scrapofinformation": 1
      },
      "linked": [
        {
          "id": "mariner.sailing.seaevents.yachts.outcome.wrapup"
        }
      ]
    },
    {
      "id": "mariner.sailing.seaevents.yachts.outcome.talk.reward.gifts",
      "warmup": 20,
      "effects": {
        "mariner.trappings.moth": 1
      },
      "linked": [
        {
          "id": "mariner.sailing.seaevents.yachts.outcome.wrapup"
        }
      ]
    },
    {
      "id": "mariner.sailing.seaevents.yachts.outcome.wrapup",
      "warmup": 20,
      "label": "Passing like Ships in the Day",
      "startdescription": "We do not linger long, nor would we have held their attention for long. But some goods where exchanged. some pleasantries, some smiles.",
      "effects": {
        "mariner.influences.grail": 4
      },
      "linked": [
        {
          "id": "mariner.sailing.postevent"
        }
      ]
    }
  ]
}