{
  "recipes": [
    {
      "id": "mariner.sailing.seaevents.start.channelrats",
      "warmup": 20,
      "label": "Channel Rats",
      "grandReqs": {
        "~/exterior : mariner.weathermeta.stormy": -1
      },
      "startdescription": "A mounting pressure has collected in the vast expanse of sky above the vast expance of western ocean. Only the slender neck of the channel is available as an escape. Thorugh that funnel, fallow winds and middling waves gets whipped up into a stampede, and we, mere mortals upon the sea, have to bear its thunder.",
      "linked": [
        {
          "id": "mariner.sailing.seaevents.channelrats.outcome.success"
        }
      ],
      "furthermore": [
        {
          "target": "~/exterior",
          "aspects": {
            "mariner.signal.channelratssetstorm": 1
          }
        }
      ]
    },
    {
      "id": "mariner.sailing.seaevents.channelrats.outcome.success",
      "warmup": 20,
      "label": "Tides in the Sky",
      "startdescription": "The clouds are the roiling black of crawling vermin. if the wind are their screetches, and the lightning their flickering fangs, in our moments of darkest humor we speculate waht the downpour might be.",
      "linked": [
        {
          "id": "mariner.sailing.postevent"
        }
      ]
    }
  ]
}