{
  "recipes": [
    {
      "actionId": "mariner.sing",
      "id": "mariner.sing.ritual.lantern.hint.missing.trapping",
      "label": "Rush A Ritual for Quick Power",
      "startdescription": "If I bring the right trappings to a place with the right ambiance, I could perform a ritual to give myself great power. The actions I'd take might be...peculiar, and raise the suspicion of the general public.",
      "hintOnly": true,
      "requirements": {
        "mariner.tune": 1,
        "mariner.tune.lantern": 1,
        "mariner.trapping": -1
      }
    },
    {
      "actionId": "mariner.sing",
      "id": "mariner.sing.ritual.lantern.start",
      "label": "Perform a covert Lantern Ritual in a Lofty Space",
      "startdescription": "I have brought my implements, and the atmosphere is charged and ready.",
      "craftable": true,
      "linked": [
        {
          "id": "mariner.sing.ritual.success.lantern"
        }
      ],
      "requirements": {
        "mariner.tune": 1,
        "mariner.tune.lantern": 1,
        "mariner.trappings.lantern": 1
      }
    },
    {
      "id": "mariner.sing.ritual.success.lantern",
      "label": "Perform a covert Lantern Ritual in a Lofty Space",
      "startdescription": "This ritual requires candlelight and mirrors and muttered prayers. I must be careful not to shine the light in anyone's eyes but my own.",
      "description": "Influence blossoms, music brightens. My soul aligns with the sun and stars in a secret constellation. Power arises from my footsteps.",
      "warmup": 30,
      "effects": {
        "mariner.influences.lantern": 5,
        "mariner.notoriety": 1,
        "mariner.tune.lantern": -1,
        "mariner.trappings.lantern": -1
      }
    }
  ]
}