{
  "recipes": [
    {
      "id": "mariner.updatedisplayedreputation.garden",
      "grandReqs": {
        "~/source : mariner.reputation": 1,
        "~/source : mariner.reputation.heat": -1
      },
      "furthermore": [
        {
          "target": "~/source",
          "mutations": [
            {
              "filter": "mariner.port",
              "mutate": "mariner.cosmeticreputation.garden.1",
              "level": 0,
              "additive": false
            },
            {
              "filter": "mariner.port",
              "mutate": "mariner.cosmeticreputation.garden.2",
              "level": 0,
              "additive": false
            },
            {
              "filter": "mariner.port",
              "mutate": "mariner.cosmeticreputation.garden.3",
              "level": 0,
              "additive": false
            },
            {
              "filter": "mariner.port",
              "mutate": "mariner.cosmeticreputation.garden.4",
              "level": 0,
              "additive": false
            }
          ]
        }
      ],
      "linked": [
        {
          "id": "mariner.updatedisplayedreputation.garden.4"
        },
        {
          "id": "mariner.updatedisplayedreputation.garden.3"
        },
        {
          "id": "mariner.updatedisplayedreputation.garden.2"
        },
        {
          "id": "mariner.updatedisplayedreputation.garden.1"
        }
      ]
    },
    {
      "id": "mariner.updatedisplayedreputation.garden.1",
      "grandReqs": {
        "~/source : mariner.reputation": 1
      },
      "furthermore": [
        {
          "target": "~/source",
          "mutations": [
            {
              "filter": "mariner.vault",
              "mutate": "mariner.cosmeticreputation.garden.1",
              "level": 1
            }
          ]
        }
      ]
    },
    {
      "id": "mariner.updatedisplayedreputation.garden.2",
      "grandReqs": {
        "~/source : mariner.reputation": 2
      },
      "furthermore": [
        {
          "target": "~/source",
          "mutations": [
            {
              "filter": "mariner.vault",
              "mutate": "mariner.cosmeticreputation.garden.2",
              "level": 2
            }
          ]
        }
      ]
    },
    {
      "id": "mariner.updatedisplayedreputation.garden.3",
      "grandReqs": {
        "~/source : mariner.reputation": 3
      },
      "furthermore": [
        {
          "target": "~/source",
          "mutations": [
            {
              "filter": "mariner.vault",
              "mutate": "mariner.cosmeticreputation.garden.3",
              "level": 3
            }
          ]
        }
      ]
    },
    {
      "id": "mariner.updatedisplayedreputation.garden.4",
      "grandReqs": {
        "~/source : mariner.reputation": 4
      },
      "furthermore": [
        {
          "target": "~/source",
          "mutations": [
            {
              "filter": "mariner.vault",
              "mutate": "mariner.cosmeticreputation.garden.4",
              "level": 4
            }
          ]
        }
      ]
    }
  ]
}