{
  "recipes": [
    {
      "id": "mariner.tradestory.haifa.zoha",
      "craftable": true,
      "actionId": "mariner.navigate",
      "requirements": {
        "mariner.recipient.medsea.haifa.zoha": 1,
        "mariner.story": 1
      },
      "label": "<>",
      "startdescription": "\"<>\"",
      "warmup": 20,
      "description": "<>\"",
      "furthermore": [
        {
          "aspects": {
            "mariner.signal.exhauststory": 1
          }
        },
        {
          "effects": {
            "mariner.stories.haifa.zoha": 1
          }
        }
      ]
    }
  ]
}