{
  "recipes": [
    {
      "id": "mariner.tradestory.london.morland",
      "craftable": true,
      "actionId": "mariner.navigate",
      "requirements": {
        "mariner.recipient.northsea.london.morland": 1,
        "mariner.story": 1
      },
      "label": "Trade Stories with Morland",
      "startdescription": "\"Trade stories? I was rather hoping you would collect them for me for free...\"",
      "warmup": 20,
      "description": "\"there is an old story that has been a particular favorite of mine. Come, I'll put the cattle on.\"",
      "furthermore": [
        {
          "aspects": {
            "mariner.signal.exhauststory": 1
          }
        },
        {
          "effects": {
            "mariner.stories.london.morland": 1
          }
        }
      ]
    }
  ]
}