{
  "recipes": [
    {
      "id": "mariner.tradestory.london.ecdysisclub",
      "craftable": true,
      "actionId": "mariner.navigate",
      "requirements": {
        "mariner.locations.northsea.london.ecdysisclub": 1,
        "mariner.story": 1
      },
      "label": "Trade Stories at the Ecdysis Club",
      "startdescription": "At the Ecdysis they prefer to portray their stories non-verbally on stage, but the rafters, gossip and secrets are shared in front of mirrors and make up kits.",
      "warmup": 20,
      "description": "On late nights, when the performances have ended and the dancer reapply their mortal guises, the topics drift between tabloid hearsay, midnight fancies and backstage speculation.",
      "furthermore": [
        {
          "aspects": {
            "mariner.signal.exhauststory": 1
          }
        },
        {
          "effects": {
            "mariner.stories.london.ecdysisclub": 1
          }
        }
      ]
    }
  ]
}