{
  "elements": [
    {
      "id": "mariner.cargo.for.northsea.local",
      "label": "Cargo [local, destination: northsea]",
      "aspects": {
        "mariner.cargo": 1,
        "mariner.holduse": 1
      },
      "xtriggers": {
        "mariner.signal.sellcargo": [
          {
            "morpheffect": "break",
            "chance": "100 - ([~/extant : mariner.locations.northsea.sailingthere] * 100)"
          },
          {
            "morpheffect": "transform",
            "id": "funds",
            "level": 2
          }
        ]
      }
    },
    {
      "id": "mariner.cargo.for.northsea.close",
      "label": "Cargo [close, destination: northsea]",
      "aspects": {
        "mariner.cargo": 1,
        "mariner.holduse": 1
      },
      "xtriggers": {
        "mariner.signal.sellcargo": [
          {
            "morpheffect": "break",
            "chance": "100 - ([~/extant : mariner.locations.northsea.sailingthere] * 100)"
          },
          {
            "morpheffect": "transform",
            "id": "funds",
            "level": 3
          }
        ]
      }
    },
    {
      "id": "mariner.cargo.for.northsea.distant",
      "label": "Cargo [long haul, destination: northsea]",
      "aspects": {
        "mariner.cargo": 1,
        "mariner.holduse": 1
      },
      "xtriggers": {
        "mariner.signal.sellcargo": [
          {
            "morpheffect": "break",
            "chance": "100 - ([~/extant : mariner.locations.northsea.sailingthere] * 100)"
          },
          {
            "morpheffect": "transform",
            "id": "funds",
            "level": 4
          }
        ]
      }
    },
    {
      "id": "mariner.cargo.for.medsea.local",
      "label": "Cargo [local, destination: medsea]",
      "aspects": {
        "mariner.cargo": 1,
        "mariner.holduse": 1
      },
      "xtriggers": {
        "mariner.signal.sellcargo": [
          {
            "morpheffect": "break",
            "chance": "100 - ([~/extant : mariner.locations.medsea.sailingthere] * 100)"
          },
          {
            "morpheffect": "transform",
            "id": "funds",
            "level": 2
          }
        ]
      }
    },
    {
      "id": "mariner.cargo.for.medsea.close",
      "label": "Cargo [close, destination: medsea]",
      "aspects": {
        "mariner.cargo": 1,
        "mariner.holduse": 1
      },
      "xtriggers": {
        "mariner.signal.sellcargo": [
          {
            "morpheffect": "break",
            "chance": "100 - ([~/extant : mariner.locations.medsea.sailingthere] * 100)"
          },
          {
            "morpheffect": "transform",
            "id": "funds",
            "level": 3
          }
        ]
      }
    },
    {
      "id": "mariner.cargo.for.medsea.distant",
      "label": "Cargo [long haul, destination: medsea]",
      "aspects": {
        "mariner.cargo": 1,
        "mariner.holduse": 1
      },
      "xtriggers": {
        "mariner.signal.sellcargo": [
          {
            "morpheffect": "break",
            "chance": "100 - ([~/extant : mariner.locations.medsea.sailingthere] * 100)"
          },
          {
            "morpheffect": "transform",
            "id": "funds",
            "level": 4
          }
        ]
      }
    }
  ]
}