{
  "recipes": [
    {
      "id": "mariner.buycargo.from.northsea.london",
      "actionId": "talk",
      "craftable": true,
      "grandReqs": {
        "mariner.locations.northsea.london.wharf": 1,
        "mariner.location.hostile": -1
      },
      "label": "<Chartering Cargo in london>",
      "startdescription": "Here I can establish contracts for goods that need to go elsewhere. Once I have reached that elsewhere, they will be good for some money. Available Wares:<br><br>-[1 <sprite name=funds>] Cargo (North Sea)<br><br>-[1 <sprite name=funds>] Cargo (Med Sea)<br><br>-[1 <sprite name=funds>] Cargo (Med Sea)<i>[Stop making choices to leave the store.]</i>",
      "warmup": 10,
      "linked": [
        {
          "id": "mariner.buycargo.leaving"
        }
      ],
      "slots": [
        {
          "id": "option1",
          "label": "<Cargo [North Sea]>",
          "description": "<Exchange stocks for stock>",
          "required": {
            "mariner.halfheart": 1
          },
          "xtrigger": "mariner.signal.pickoption1"
        },
        {
          "id": "option2",
          "label": "<Cargo [Med Sea]>",
          "description": "<Exchange stocks for stock>",
          "required": {
            "mariner.halfheart": 1
          },
          "xtrigger": "mariner.signal.pickoption2"
        },
        {
          "id": "option3",
          "label": "<Cargo [Med Sea]>",
          "description": "<Exchange stocks for stock>",
          "required": {
            "mariner.halfheart": 1
          },
          "xtrigger": "mariner.signal.pickoption3"
        }
      ],
      "alt": [
        {
          "id": "mariner.buycargo.from.northsea.london.pickoption1.1",
          "label": "<Not Enough Space in the Hold>",
          "startdescription": "<not enough space>",
          "grandReqs": {
            "[~/situation/slots/option1:$count] || [mariner.pickedoption1]": 1,
            "[~/extant:mariner.holduse] + max(0, [~/extant:mariner.instrument]-1)": "[~/extant:mariner.ship.holdsize]"
          },
          "movements": {
            "~/tabletop": [
              "mariner.halfheart"
            ]
          }
        },
        {
          "id": "mariner.buycargo.from.northsea.london.pickoption1.2",
          "label": "<Not Enough Funds To Buy Cargo>",
          "startdescription": "<Commerce occurs on the edge between want and surplus. I can buy low here and sell at a profit where demand is higher>",
          "grandReqs": {
            "[~/situation/slots/option1:$count] || [mariner.pickedoption1]": 1,
            "[~/exterior : funds]": -1
          },
          "movements": {
            "~/tabletop": [
              "mariner.halfheart"
            ]
          }
        },
        {
          "id": "mariner.buycargo.from.northsea.london.pickoption1.3",
          "label": "<Buy Cargo>",
          "startdescription": "<Barrels are rolled and crates are stowed and the ship is crammed with wealth in potentia.>",
          "grandReqs": {
            "[~/situation/slots/option1:$count] || [mariner.pickedoption1]": 1,
            "[~/exterior : funds]": 1
          },
          "effects": {
            "mariner.cargo.for.northsea.local": 1
          },
          "furthermore": [
            {
              "target": "~/exterior",
              "effects": {
                "funds": -1
              }
            }
          ],
          "linked": [
            {
              "id": "mariner.buycargo.from.northsea.london"
            }
          ],
          "movements": {
            "~/tabletop": [
              "mariner.halfheart"
            ]
          }
        },
        {
          "id": "mariner.buycargo.from.northsea.london.pickoption2.1",
          "label": "<Not Enough Space in the Hold>",
          "startdescription": "<not enough space>",
          "grandReqs": {
            "[~/situation/slots/option2:$count] || [mariner.pickedoption2]": 1,
            "[~/extant:mariner.holduse] + max(0, [~/extant:mariner.instrument]-1)": "[~/extant:mariner.ship.holdsize]"
          },
          "movements": {
            "~/tabletop": [
              "mariner.halfheart"
            ]
          }
        },
        {
          "id": "mariner.buycargo.from.northsea.london.pickoption2.2",
          "label": "<Not Enough Funds To Buy Cargo>",
          "startdescription": "<Commerce occurs on the edge between want and surplus. I can buy low here and sell at a profit where demand is higher>",
          "grandReqs": {
            "[~/situation/slots/option2:$count] || [mariner.pickedoption2]": 1,
            "[~/exterior : funds]": -1
          },
          "movements": {
            "~/tabletop": [
              "mariner.halfheart"
            ]
          }
        },
        {
          "id": "mariner.buycargo.from.northsea.london.pickoption2.3",
          "label": "<Buy Cargo>",
          "startdescription": "<Barrels are rolled and crates are stowed and the ship is crammed with wealth in potentia.>",
          "grandReqs": {
            "[~/situation/slots/option2:$count] || [mariner.pickedoption2]": 1,
            "[~/exterior : funds]": 1
          },
          "effects": {
            "mariner.cargo.for.medsea.close": 1
          },
          "furthermore": [
            {
              "target": "~/exterior",
              "effects": {
                "funds": -1
              }
            }
          ],
          "linked": [
            {
              "id": "mariner.buycargo.from.northsea.london"
            }
          ],
          "movements": {
            "~/tabletop": [
              "mariner.halfheart"
            ]
          }
        },
        {
          "id": "mariner.buycargo.from.northsea.london.pickoption3.1",
          "label": "<Not Enough Space in the Hold>",
          "startdescription": "<not enough space>",
          "grandReqs": {
            "[~/situation/slots/option3:$count] || [mariner.pickedoption3]": 1,
            "[~/extant:mariner.holduse] + max(0, [~/extant:mariner.instrument]-1)": "[~/extant:mariner.ship.holdsize]"
          },
          "movements": {
            "~/tabletop": [
              "mariner.halfheart"
            ]
          }
        },
        {
          "id": "mariner.buycargo.from.northsea.london.pickoption3.2",
          "label": "<Not Enough Funds To Buy Cargo>",
          "startdescription": "<Commerce occurs on the edge between want and surplus. I can buy low here and sell at a profit where demand is higher>",
          "grandReqs": {
            "[~/situation/slots/option3:$count] || [mariner.pickedoption3]": 1,
            "[~/exterior : funds]": -1
          },
          "movements": {
            "~/tabletop": [
              "mariner.halfheart"
            ]
          }
        },
        {
          "id": "mariner.buycargo.from.northsea.london.pickoption3.3",
          "label": "<Buy Cargo>",
          "startdescription": "<Barrels are rolled and crates are stowed and the ship is crammed with wealth in potentia.>",
          "grandReqs": {
            "[~/situation/slots/option3:$count] || [mariner.pickedoption3]": 1,
            "[~/exterior : funds]": 1
          },
          "effects": {
            "mariner.cargo.for.medsea.close": 1
          },
          "furthermore": [
            {
              "target": "~/exterior",
              "effects": {
                "funds": -1
              }
            }
          ],
          "linked": [
            {
              "id": "mariner.buycargo.from.northsea.london"
            }
          ],
          "movements": {
            "~/tabletop": [
              "mariner.halfheart"
            ]
          }
        }
      ]
    },
    {
      "id": "mariner.buycargo.from.northsea.amsterdam",
      "actionId": "talk",
      "craftable": true,
      "grandReqs": {
        "mariner.locations.northsea.amsterdam.wharf": 1,
        "mariner.location.hostile": -1
      },
      "label": "<Chartering Cargo in amsterdam>",
      "startdescription": "Here I can establish contracts for goods that need to go elsewhere. Once I have reached that elsewhere, they will be good for some money. Available Wares:<br><br>-[1 <sprite name=funds>] Cargo (North Sea)<br><br>-[1 <sprite name=funds>] Cargo (Med Sea)<br><br>-[1 <sprite name=funds>] Cargo (Med Sea)<i>[Stop making choices to leave the store.]</i>",
      "warmup": 10,
      "linked": [
        {
          "id": "mariner.buycargo.leaving"
        }
      ],
      "slots": [
        {
          "id": "option1",
          "label": "<Cargo [North Sea]>",
          "description": "<Exchange stocks for stock>",
          "required": {
            "mariner.halfheart": 1
          },
          "xtrigger": "mariner.signal.pickoption1"
        },
        {
          "id": "option2",
          "label": "<Cargo [Med Sea]>",
          "description": "<Exchange stocks for stock>",
          "required": {
            "mariner.halfheart": 1
          },
          "xtrigger": "mariner.signal.pickoption2"
        },
        {
          "id": "option3",
          "label": "<Cargo [Med Sea]>",
          "description": "<Exchange stocks for stock>",
          "required": {
            "mariner.halfheart": 1
          },
          "xtrigger": "mariner.signal.pickoption3"
        }
      ],
      "alt": [
        {
          "id": "mariner.buycargo.from.northsea.amsterdam.pickoption1.1",
          "label": "<Not Enough Space in the Hold>",
          "startdescription": "<not enough space>",
          "grandReqs": {
            "[~/situation/slots/option1:$count] || [mariner.pickedoption1]": 1,
            "[~/extant:mariner.holduse] + max(0, [~/extant:mariner.instrument]-1)": "[~/extant:mariner.ship.holdsize]"
          },
          "movements": {
            "~/tabletop": [
              "mariner.halfheart"
            ]
          }
        },
        {
          "id": "mariner.buycargo.from.northsea.amsterdam.pickoption1.2",
          "label": "<Not Enough Funds To Buy Cargo>",
          "startdescription": "<Commerce occurs on the edge between want and surplus. I can buy low here and sell at a profit where demand is higher>",
          "grandReqs": {
            "[~/situation/slots/option1:$count] || [mariner.pickedoption1]": 1,
            "[~/exterior : funds]": -1
          },
          "movements": {
            "~/tabletop": [
              "mariner.halfheart"
            ]
          }
        },
        {
          "id": "mariner.buycargo.from.northsea.amsterdam.pickoption1.3",
          "label": "<Buy Cargo>",
          "startdescription": "<Barrels are rolled and crates are stowed and the ship is crammed with wealth in potentia.>",
          "grandReqs": {
            "[~/situation/slots/option1:$count] || [mariner.pickedoption1]": 1,
            "[~/exterior : funds]": 1
          },
          "effects": {
            "mariner.cargo.for.northsea.local": 1
          },
          "furthermore": [
            {
              "target": "~/exterior",
              "effects": {
                "funds": -1
              }
            }
          ],
          "linked": [
            {
              "id": "mariner.buycargo.from.northsea.amsterdam"
            }
          ],
          "movements": {
            "~/tabletop": [
              "mariner.halfheart"
            ]
          }
        },
        {
          "id": "mariner.buycargo.from.northsea.amsterdam.pickoption2.1",
          "label": "<Not Enough Space in the Hold>",
          "startdescription": "<not enough space>",
          "grandReqs": {
            "[~/situation/slots/option2:$count] || [mariner.pickedoption2]": 1,
            "[~/extant:mariner.holduse] + max(0, [~/extant:mariner.instrument]-1)": "[~/extant:mariner.ship.holdsize]"
          },
          "movements": {
            "~/tabletop": [
              "mariner.halfheart"
            ]
          }
        },
        {
          "id": "mariner.buycargo.from.northsea.amsterdam.pickoption2.2",
          "label": "<Not Enough Funds To Buy Cargo>",
          "startdescription": "<Commerce occurs on the edge between want and surplus. I can buy low here and sell at a profit where demand is higher>",
          "grandReqs": {
            "[~/situation/slots/option2:$count] || [mariner.pickedoption2]": 1,
            "[~/exterior : funds]": -1
          },
          "movements": {
            "~/tabletop": [
              "mariner.halfheart"
            ]
          }
        },
        {
          "id": "mariner.buycargo.from.northsea.amsterdam.pickoption2.3",
          "label": "<Buy Cargo>",
          "startdescription": "<Barrels are rolled and crates are stowed and the ship is crammed with wealth in potentia.>",
          "grandReqs": {
            "[~/situation/slots/option2:$count] || [mariner.pickedoption2]": 1,
            "[~/exterior : funds]": 1
          },
          "effects": {
            "mariner.cargo.for.medsea.close": 1
          },
          "furthermore": [
            {
              "target": "~/exterior",
              "effects": {
                "funds": -1
              }
            }
          ],
          "linked": [
            {
              "id": "mariner.buycargo.from.northsea.amsterdam"
            }
          ],
          "movements": {
            "~/tabletop": [
              "mariner.halfheart"
            ]
          }
        },
        {
          "id": "mariner.buycargo.from.northsea.amsterdam.pickoption3.1",
          "label": "<Not Enough Space in the Hold>",
          "startdescription": "<not enough space>",
          "grandReqs": {
            "[~/situation/slots/option3:$count] || [mariner.pickedoption3]": 1,
            "[~/extant:mariner.holduse] + max(0, [~/extant:mariner.instrument]-1)": "[~/extant:mariner.ship.holdsize]"
          },
          "movements": {
            "~/tabletop": [
              "mariner.halfheart"
            ]
          }
        },
        {
          "id": "mariner.buycargo.from.northsea.amsterdam.pickoption3.2",
          "label": "<Not Enough Funds To Buy Cargo>",
          "startdescription": "<Commerce occurs on the edge between want and surplus. I can buy low here and sell at a profit where demand is higher>",
          "grandReqs": {
            "[~/situation/slots/option3:$count] || [mariner.pickedoption3]": 1,
            "[~/exterior : funds]": -1
          },
          "movements": {
            "~/tabletop": [
              "mariner.halfheart"
            ]
          }
        },
        {
          "id": "mariner.buycargo.from.northsea.amsterdam.pickoption3.3",
          "label": "<Buy Cargo>",
          "startdescription": "<Barrels are rolled and crates are stowed and the ship is crammed with wealth in potentia.>",
          "grandReqs": {
            "[~/situation/slots/option3:$count] || [mariner.pickedoption3]": 1,
            "[~/exterior : funds]": 1
          },
          "effects": {
            "mariner.cargo.for.medsea.close": 1
          },
          "furthermore": [
            {
              "target": "~/exterior",
              "effects": {
                "funds": -1
              }
            }
          ],
          "linked": [
            {
              "id": "mariner.buycargo.from.northsea.amsterdam"
            }
          ],
          "movements": {
            "~/tabletop": [
              "mariner.halfheart"
            ]
          }
        }
      ]
    },
    {
      "id": "mariner.buycargo.from.northsea.copenhagen",
      "actionId": "talk",
      "craftable": true,
      "grandReqs": {
        "mariner.locations.northsea.copenhagen.wharf": 1,
        "mariner.location.hostile": -1
      },
      "label": "<Chartering Cargo in copenhagen>",
      "startdescription": "Here I can establish contracts for goods that need to go elsewhere. Once I have reached that elsewhere, they will be good for some money. Available Wares:<br><br>-[1 <sprite name=funds>] Cargo (North Sea)<br><br>-[1 <sprite name=funds>] Cargo (Med Sea)<br><br>-[1 <sprite name=funds>] Cargo (Med Sea)<i>[Stop making choices to leave the store.]</i>",
      "warmup": 10,
      "linked": [
        {
          "id": "mariner.buycargo.leaving"
        }
      ],
      "slots": [
        {
          "id": "option1",
          "label": "<Cargo [North Sea]>",
          "description": "<Exchange stocks for stock>",
          "required": {
            "mariner.halfheart": 1
          },
          "xtrigger": "mariner.signal.pickoption1"
        },
        {
          "id": "option2",
          "label": "<Cargo [Med Sea]>",
          "description": "<Exchange stocks for stock>",
          "required": {
            "mariner.halfheart": 1
          },
          "xtrigger": "mariner.signal.pickoption2"
        },
        {
          "id": "option3",
          "label": "<Cargo [Med Sea]>",
          "description": "<Exchange stocks for stock>",
          "required": {
            "mariner.halfheart": 1
          },
          "xtrigger": "mariner.signal.pickoption3"
        }
      ],
      "alt": [
        {
          "id": "mariner.buycargo.from.northsea.copenhagen.pickoption1.1",
          "label": "<Not Enough Space in the Hold>",
          "startdescription": "<not enough space>",
          "grandReqs": {
            "[~/situation/slots/option1:$count] || [mariner.pickedoption1]": 1,
            "[~/extant:mariner.holduse] + max(0, [~/extant:mariner.instrument]-1)": "[~/extant:mariner.ship.holdsize]"
          },
          "movements": {
            "~/tabletop": [
              "mariner.halfheart"
            ]
          }
        },
        {
          "id": "mariner.buycargo.from.northsea.copenhagen.pickoption1.2",
          "label": "<Not Enough Funds To Buy Cargo>",
          "startdescription": "<Commerce occurs on the edge between want and surplus. I can buy low here and sell at a profit where demand is higher>",
          "grandReqs": {
            "[~/situation/slots/option1:$count] || [mariner.pickedoption1]": 1,
            "[~/exterior : funds]": -1
          },
          "movements": {
            "~/tabletop": [
              "mariner.halfheart"
            ]
          }
        },
        {
          "id": "mariner.buycargo.from.northsea.copenhagen.pickoption1.3",
          "label": "<Buy Cargo>",
          "startdescription": "<Barrels are rolled and crates are stowed and the ship is crammed with wealth in potentia.>",
          "grandReqs": {
            "[~/situation/slots/option1:$count] || [mariner.pickedoption1]": 1,
            "[~/exterior : funds]": 1
          },
          "effects": {
            "mariner.cargo.for.northsea.local": 1
          },
          "furthermore": [
            {
              "target": "~/exterior",
              "effects": {
                "funds": -1
              }
            }
          ],
          "linked": [
            {
              "id": "mariner.buycargo.from.northsea.copenhagen"
            }
          ],
          "movements": {
            "~/tabletop": [
              "mariner.halfheart"
            ]
          }
        },
        {
          "id": "mariner.buycargo.from.northsea.copenhagen.pickoption2.1",
          "label": "<Not Enough Space in the Hold>",
          "startdescription": "<not enough space>",
          "grandReqs": {
            "[~/situation/slots/option2:$count] || [mariner.pickedoption2]": 1,
            "[~/extant:mariner.holduse] + max(0, [~/extant:mariner.instrument]-1)": "[~/extant:mariner.ship.holdsize]"
          },
          "movements": {
            "~/tabletop": [
              "mariner.halfheart"
            ]
          }
        },
        {
          "id": "mariner.buycargo.from.northsea.copenhagen.pickoption2.2",
          "label": "<Not Enough Funds To Buy Cargo>",
          "startdescription": "<Commerce occurs on the edge between want and surplus. I can buy low here and sell at a profit where demand is higher>",
          "grandReqs": {
            "[~/situation/slots/option2:$count] || [mariner.pickedoption2]": 1,
            "[~/exterior : funds]": -1
          },
          "movements": {
            "~/tabletop": [
              "mariner.halfheart"
            ]
          }
        },
        {
          "id": "mariner.buycargo.from.northsea.copenhagen.pickoption2.3",
          "label": "<Buy Cargo>",
          "startdescription": "<Barrels are rolled and crates are stowed and the ship is crammed with wealth in potentia.>",
          "grandReqs": {
            "[~/situation/slots/option2:$count] || [mariner.pickedoption2]": 1,
            "[~/exterior : funds]": 1
          },
          "effects": {
            "mariner.cargo.for.medsea.close": 1
          },
          "furthermore": [
            {
              "target": "~/exterior",
              "effects": {
                "funds": -1
              }
            }
          ],
          "linked": [
            {
              "id": "mariner.buycargo.from.northsea.copenhagen"
            }
          ],
          "movements": {
            "~/tabletop": [
              "mariner.halfheart"
            ]
          }
        },
        {
          "id": "mariner.buycargo.from.northsea.copenhagen.pickoption3.1",
          "label": "<Not Enough Space in the Hold>",
          "startdescription": "<not enough space>",
          "grandReqs": {
            "[~/situation/slots/option3:$count] || [mariner.pickedoption3]": 1,
            "[~/extant:mariner.holduse] + max(0, [~/extant:mariner.instrument]-1)": "[~/extant:mariner.ship.holdsize]"
          },
          "movements": {
            "~/tabletop": [
              "mariner.halfheart"
            ]
          }
        },
        {
          "id": "mariner.buycargo.from.northsea.copenhagen.pickoption3.2",
          "label": "<Not Enough Funds To Buy Cargo>",
          "startdescription": "<Commerce occurs on the edge between want and surplus. I can buy low here and sell at a profit where demand is higher>",
          "grandReqs": {
            "[~/situation/slots/option3:$count] || [mariner.pickedoption3]": 1,
            "[~/exterior : funds]": -1
          },
          "movements": {
            "~/tabletop": [
              "mariner.halfheart"
            ]
          }
        },
        {
          "id": "mariner.buycargo.from.northsea.copenhagen.pickoption3.3",
          "label": "<Buy Cargo>",
          "startdescription": "<Barrels are rolled and crates are stowed and the ship is crammed with wealth in potentia.>",
          "grandReqs": {
            "[~/situation/slots/option3:$count] || [mariner.pickedoption3]": 1,
            "[~/exterior : funds]": 1
          },
          "effects": {
            "mariner.cargo.for.medsea.close": 1
          },
          "furthermore": [
            {
              "target": "~/exterior",
              "effects": {
                "funds": -1
              }
            }
          ],
          "linked": [
            {
              "id": "mariner.buycargo.from.northsea.copenhagen"
            }
          ],
          "movements": {
            "~/tabletop": [
              "mariner.halfheart"
            ]
          }
        }
      ]
    },
    {
      "id": "mariner.buycargo.from.medsea.marseille",
      "actionId": "talk",
      "craftable": true,
      "grandReqs": {
        "mariner.locations.medsea.marseille.wharf": 1,
        "mariner.location.hostile": -1
      },
      "label": "<Chartering Cargo in marseille>",
      "startdescription": "Here I can establish contracts for goods that need to go elsewhere. Once I have reached that elsewhere, they will be good for some money. Available Wares:<br><br>-[1 <sprite name=funds>] Cargo (North Sea)<br><br>-[1 <sprite name=funds>] Cargo (Med Sea)<br><br>-[1 <sprite name=funds>] Cargo (Med Sea)<i>[Stop making choices to leave the store.]</i>",
      "warmup": 10,
      "linked": [
        {
          "id": "mariner.buycargo.leaving"
        }
      ],
      "slots": [
        {
          "id": "option1",
          "label": "<Cargo [North Sea]>",
          "description": "<Exchange stocks for stock>",
          "required": {
            "mariner.halfheart": 1
          },
          "xtrigger": "mariner.signal.pickoption1"
        },
        {
          "id": "option2",
          "label": "<Cargo [Med Sea]>",
          "description": "<Exchange stocks for stock>",
          "required": {
            "mariner.halfheart": 1
          },
          "xtrigger": "mariner.signal.pickoption2"
        },
        {
          "id": "option3",
          "label": "<Cargo [Med Sea]>",
          "description": "<Exchange stocks for stock>",
          "required": {
            "mariner.halfheart": 1
          },
          "xtrigger": "mariner.signal.pickoption3"
        }
      ],
      "alt": [
        {
          "id": "mariner.buycargo.from.medsea.marseille.pickoption1.1",
          "label": "<Not Enough Space in the Hold>",
          "startdescription": "<not enough space>",
          "grandReqs": {
            "[~/situation/slots/option1:$count] || [mariner.pickedoption1]": 1,
            "[~/extant:mariner.holduse] + max(0, [~/extant:mariner.instrument]-1)": "[~/extant:mariner.ship.holdsize]"
          },
          "movements": {
            "~/tabletop": [
              "mariner.halfheart"
            ]
          }
        },
        {
          "id": "mariner.buycargo.from.medsea.marseille.pickoption1.2",
          "label": "<Not Enough Funds To Buy Cargo>",
          "startdescription": "<Commerce occurs on the edge between want and surplus. I can buy low here and sell at a profit where demand is higher>",
          "grandReqs": {
            "[~/situation/slots/option1:$count] || [mariner.pickedoption1]": 1,
            "[~/exterior : funds]": -1
          },
          "movements": {
            "~/tabletop": [
              "mariner.halfheart"
            ]
          }
        },
        {
          "id": "mariner.buycargo.from.medsea.marseille.pickoption1.3",
          "label": "<Buy Cargo>",
          "startdescription": "<Barrels are rolled and crates are stowed and the ship is crammed with wealth in potentia.>",
          "grandReqs": {
            "[~/situation/slots/option1:$count] || [mariner.pickedoption1]": 1,
            "[~/exterior : funds]": 1
          },
          "effects": {
            "mariner.cargo.for.northsea.close": 1
          },
          "furthermore": [
            {
              "target": "~/exterior",
              "effects": {
                "funds": -1
              }
            }
          ],
          "linked": [
            {
              "id": "mariner.buycargo.from.medsea.marseille"
            }
          ],
          "movements": {
            "~/tabletop": [
              "mariner.halfheart"
            ]
          }
        },
        {
          "id": "mariner.buycargo.from.medsea.marseille.pickoption2.1",
          "label": "<Not Enough Space in the Hold>",
          "startdescription": "<not enough space>",
          "grandReqs": {
            "[~/situation/slots/option2:$count] || [mariner.pickedoption2]": 1,
            "[~/extant:mariner.holduse] + max(0, [~/extant:mariner.instrument]-1)": "[~/extant:mariner.ship.holdsize]"
          },
          "movements": {
            "~/tabletop": [
              "mariner.halfheart"
            ]
          }
        },
        {
          "id": "mariner.buycargo.from.medsea.marseille.pickoption2.2",
          "label": "<Not Enough Funds To Buy Cargo>",
          "startdescription": "<Commerce occurs on the edge between want and surplus. I can buy low here and sell at a profit where demand is higher>",
          "grandReqs": {
            "[~/situation/slots/option2:$count] || [mariner.pickedoption2]": 1,
            "[~/exterior : funds]": -1
          },
          "movements": {
            "~/tabletop": [
              "mariner.halfheart"
            ]
          }
        },
        {
          "id": "mariner.buycargo.from.medsea.marseille.pickoption2.3",
          "label": "<Buy Cargo>",
          "startdescription": "<Barrels are rolled and crates are stowed and the ship is crammed with wealth in potentia.>",
          "grandReqs": {
            "[~/situation/slots/option2:$count] || [mariner.pickedoption2]": 1,
            "[~/exterior : funds]": 1
          },
          "effects": {
            "mariner.cargo.for.medsea.local": 1
          },
          "furthermore": [
            {
              "target": "~/exterior",
              "effects": {
                "funds": -1
              }
            }
          ],
          "linked": [
            {
              "id": "mariner.buycargo.from.medsea.marseille"
            }
          ],
          "movements": {
            "~/tabletop": [
              "mariner.halfheart"
            ]
          }
        },
        {
          "id": "mariner.buycargo.from.medsea.marseille.pickoption3.1",
          "label": "<Not Enough Space in the Hold>",
          "startdescription": "<not enough space>",
          "grandReqs": {
            "[~/situation/slots/option3:$count] || [mariner.pickedoption3]": 1,
            "[~/extant:mariner.holduse] + max(0, [~/extant:mariner.instrument]-1)": "[~/extant:mariner.ship.holdsize]"
          },
          "movements": {
            "~/tabletop": [
              "mariner.halfheart"
            ]
          }
        },
        {
          "id": "mariner.buycargo.from.medsea.marseille.pickoption3.2",
          "label": "<Not Enough Funds To Buy Cargo>",
          "startdescription": "<Commerce occurs on the edge between want and surplus. I can buy low here and sell at a profit where demand is higher>",
          "grandReqs": {
            "[~/situation/slots/option3:$count] || [mariner.pickedoption3]": 1,
            "[~/exterior : funds]": -1
          },
          "movements": {
            "~/tabletop": [
              "mariner.halfheart"
            ]
          }
        },
        {
          "id": "mariner.buycargo.from.medsea.marseille.pickoption3.3",
          "label": "<Buy Cargo>",
          "startdescription": "<Barrels are rolled and crates are stowed and the ship is crammed with wealth in potentia.>",
          "grandReqs": {
            "[~/situation/slots/option3:$count] || [mariner.pickedoption3]": 1,
            "[~/exterior : funds]": 1
          },
          "effects": {
            "mariner.cargo.for.medsea.local": 1
          },
          "furthermore": [
            {
              "target": "~/exterior",
              "effects": {
                "funds": -1
              }
            }
          ],
          "linked": [
            {
              "id": "mariner.buycargo.from.medsea.marseille"
            }
          ],
          "movements": {
            "~/tabletop": [
              "mariner.halfheart"
            ]
          }
        }
      ]
    },
    {
      "id": "mariner.buycargo.from.medsea.bizerta",
      "actionId": "talk",
      "craftable": true,
      "grandReqs": {
        "mariner.locations.medsea.bizerta.wharf": 1,
        "mariner.location.hostile": -1
      },
      "label": "<Chartering Cargo in bizerta>",
      "startdescription": "Here I can establish contracts for goods that need to go elsewhere. Once I have reached that elsewhere, they will be good for some money. Available Wares:<br><br>-[1 <sprite name=funds>] Cargo (North Sea)<br><br>-[1 <sprite name=funds>] Cargo (Med Sea)<br><br>-[1 <sprite name=funds>] Cargo (Med Sea)<i>[Stop making choices to leave the store.]</i>",
      "warmup": 10,
      "linked": [
        {
          "id": "mariner.buycargo.leaving"
        }
      ],
      "slots": [
        {
          "id": "option1",
          "label": "<Cargo [North Sea]>",
          "description": "<Exchange stocks for stock>",
          "required": {
            "mariner.halfheart": 1
          },
          "xtrigger": "mariner.signal.pickoption1"
        },
        {
          "id": "option2",
          "label": "<Cargo [Med Sea]>",
          "description": "<Exchange stocks for stock>",
          "required": {
            "mariner.halfheart": 1
          },
          "xtrigger": "mariner.signal.pickoption2"
        },
        {
          "id": "option3",
          "label": "<Cargo [Med Sea]>",
          "description": "<Exchange stocks for stock>",
          "required": {
            "mariner.halfheart": 1
          },
          "xtrigger": "mariner.signal.pickoption3"
        }
      ],
      "alt": [
        {
          "id": "mariner.buycargo.from.medsea.bizerta.pickoption1.1",
          "label": "<Not Enough Space in the Hold>",
          "startdescription": "<not enough space>",
          "grandReqs": {
            "[~/situation/slots/option1:$count] || [mariner.pickedoption1]": 1,
            "[~/extant:mariner.holduse] + max(0, [~/extant:mariner.instrument]-1)": "[~/extant:mariner.ship.holdsize]"
          },
          "movements": {
            "~/tabletop": [
              "mariner.halfheart"
            ]
          }
        },
        {
          "id": "mariner.buycargo.from.medsea.bizerta.pickoption1.2",
          "label": "<Not Enough Funds To Buy Cargo>",
          "startdescription": "<Commerce occurs on the edge between want and surplus. I can buy low here and sell at a profit where demand is higher>",
          "grandReqs": {
            "[~/situation/slots/option1:$count] || [mariner.pickedoption1]": 1,
            "[~/exterior : funds]": -1
          },
          "movements": {
            "~/tabletop": [
              "mariner.halfheart"
            ]
          }
        },
        {
          "id": "mariner.buycargo.from.medsea.bizerta.pickoption1.3",
          "label": "<Buy Cargo>",
          "startdescription": "<Barrels are rolled and crates are stowed and the ship is crammed with wealth in potentia.>",
          "grandReqs": {
            "[~/situation/slots/option1:$count] || [mariner.pickedoption1]": 1,
            "[~/exterior : funds]": 1
          },
          "effects": {
            "mariner.cargo.for.northsea.close": 1
          },
          "furthermore": [
            {
              "target": "~/exterior",
              "effects": {
                "funds": -1
              }
            }
          ],
          "linked": [
            {
              "id": "mariner.buycargo.from.medsea.bizerta"
            }
          ],
          "movements": {
            "~/tabletop": [
              "mariner.halfheart"
            ]
          }
        },
        {
          "id": "mariner.buycargo.from.medsea.bizerta.pickoption2.1",
          "label": "<Not Enough Space in the Hold>",
          "startdescription": "<not enough space>",
          "grandReqs": {
            "[~/situation/slots/option2:$count] || [mariner.pickedoption2]": 1,
            "[~/extant:mariner.holduse] + max(0, [~/extant:mariner.instrument]-1)": "[~/extant:mariner.ship.holdsize]"
          },
          "movements": {
            "~/tabletop": [
              "mariner.halfheart"
            ]
          }
        },
        {
          "id": "mariner.buycargo.from.medsea.bizerta.pickoption2.2",
          "label": "<Not Enough Funds To Buy Cargo>",
          "startdescription": "<Commerce occurs on the edge between want and surplus. I can buy low here and sell at a profit where demand is higher>",
          "grandReqs": {
            "[~/situation/slots/option2:$count] || [mariner.pickedoption2]": 1,
            "[~/exterior : funds]": -1
          },
          "movements": {
            "~/tabletop": [
              "mariner.halfheart"
            ]
          }
        },
        {
          "id": "mariner.buycargo.from.medsea.bizerta.pickoption2.3",
          "label": "<Buy Cargo>",
          "startdescription": "<Barrels are rolled and crates are stowed and the ship is crammed with wealth in potentia.>",
          "grandReqs": {
            "[~/situation/slots/option2:$count] || [mariner.pickedoption2]": 1,
            "[~/exterior : funds]": 1
          },
          "effects": {
            "mariner.cargo.for.medsea.local": 1
          },
          "furthermore": [
            {
              "target": "~/exterior",
              "effects": {
                "funds": -1
              }
            }
          ],
          "linked": [
            {
              "id": "mariner.buycargo.from.medsea.bizerta"
            }
          ],
          "movements": {
            "~/tabletop": [
              "mariner.halfheart"
            ]
          }
        },
        {
          "id": "mariner.buycargo.from.medsea.bizerta.pickoption3.1",
          "label": "<Not Enough Space in the Hold>",
          "startdescription": "<not enough space>",
          "grandReqs": {
            "[~/situation/slots/option3:$count] || [mariner.pickedoption3]": 1,
            "[~/extant:mariner.holduse] + max(0, [~/extant:mariner.instrument]-1)": "[~/extant:mariner.ship.holdsize]"
          },
          "movements": {
            "~/tabletop": [
              "mariner.halfheart"
            ]
          }
        },
        {
          "id": "mariner.buycargo.from.medsea.bizerta.pickoption3.2",
          "label": "<Not Enough Funds To Buy Cargo>",
          "startdescription": "<Commerce occurs on the edge between want and surplus. I can buy low here and sell at a profit where demand is higher>",
          "grandReqs": {
            "[~/situation/slots/option3:$count] || [mariner.pickedoption3]": 1,
            "[~/exterior : funds]": -1
          },
          "movements": {
            "~/tabletop": [
              "mariner.halfheart"
            ]
          }
        },
        {
          "id": "mariner.buycargo.from.medsea.bizerta.pickoption3.3",
          "label": "<Buy Cargo>",
          "startdescription": "<Barrels are rolled and crates are stowed and the ship is crammed with wealth in potentia.>",
          "grandReqs": {
            "[~/situation/slots/option3:$count] || [mariner.pickedoption3]": 1,
            "[~/exterior : funds]": 1
          },
          "effects": {
            "mariner.cargo.for.medsea.local": 1
          },
          "furthermore": [
            {
              "target": "~/exterior",
              "effects": {
                "funds": -1
              }
            }
          ],
          "linked": [
            {
              "id": "mariner.buycargo.from.medsea.bizerta"
            }
          ],
          "movements": {
            "~/tabletop": [
              "mariner.halfheart"
            ]
          }
        }
      ]
    },
    {
      "id": "mariner.buycargo.from.medsea.constantinople",
      "actionId": "talk",
      "craftable": true,
      "grandReqs": {
        "mariner.locations.medsea.constantinople.wharf": 1,
        "mariner.location.hostile": -1
      },
      "label": "<Chartering Cargo in constantinople>",
      "startdescription": "Here I can establish contracts for goods that need to go elsewhere. Once I have reached that elsewhere, they will be good for some money. Available Wares:<br><br>-[1 <sprite name=funds>] Cargo (North Sea)<br><br>-[1 <sprite name=funds>] Cargo (Med Sea)<br><br>-[1 <sprite name=funds>] Cargo (Med Sea)<i>[Stop making choices to leave the store.]</i>",
      "warmup": 10,
      "linked": [
        {
          "id": "mariner.buycargo.leaving"
        }
      ],
      "slots": [
        {
          "id": "option1",
          "label": "<Cargo [North Sea]>",
          "description": "<Exchange stocks for stock>",
          "required": {
            "mariner.halfheart": 1
          },
          "xtrigger": "mariner.signal.pickoption1"
        },
        {
          "id": "option2",
          "label": "<Cargo [Med Sea]>",
          "description": "<Exchange stocks for stock>",
          "required": {
            "mariner.halfheart": 1
          },
          "xtrigger": "mariner.signal.pickoption2"
        },
        {
          "id": "option3",
          "label": "<Cargo [Med Sea]>",
          "description": "<Exchange stocks for stock>",
          "required": {
            "mariner.halfheart": 1
          },
          "xtrigger": "mariner.signal.pickoption3"
        }
      ],
      "alt": [
        {
          "id": "mariner.buycargo.from.medsea.constantinople.pickoption1.1",
          "label": "<Not Enough Space in the Hold>",
          "startdescription": "<not enough space>",
          "grandReqs": {
            "[~/situation/slots/option1:$count] || [mariner.pickedoption1]": 1,
            "[~/extant:mariner.holduse] + max(0, [~/extant:mariner.instrument]-1)": "[~/extant:mariner.ship.holdsize]"
          },
          "movements": {
            "~/tabletop": [
              "mariner.halfheart"
            ]
          }
        },
        {
          "id": "mariner.buycargo.from.medsea.constantinople.pickoption1.2",
          "label": "<Not Enough Funds To Buy Cargo>",
          "startdescription": "<Commerce occurs on the edge between want and surplus. I can buy low here and sell at a profit where demand is higher>",
          "grandReqs": {
            "[~/situation/slots/option1:$count] || [mariner.pickedoption1]": 1,
            "[~/exterior : funds]": -1
          },
          "movements": {
            "~/tabletop": [
              "mariner.halfheart"
            ]
          }
        },
        {
          "id": "mariner.buycargo.from.medsea.constantinople.pickoption1.3",
          "label": "<Buy Cargo>",
          "startdescription": "<Barrels are rolled and crates are stowed and the ship is crammed with wealth in potentia.>",
          "grandReqs": {
            "[~/situation/slots/option1:$count] || [mariner.pickedoption1]": 1,
            "[~/exterior : funds]": 1
          },
          "effects": {
            "mariner.cargo.for.northsea.close": 1
          },
          "furthermore": [
            {
              "target": "~/exterior",
              "effects": {
                "funds": -1
              }
            }
          ],
          "linked": [
            {
              "id": "mariner.buycargo.from.medsea.constantinople"
            }
          ],
          "movements": {
            "~/tabletop": [
              "mariner.halfheart"
            ]
          }
        },
        {
          "id": "mariner.buycargo.from.medsea.constantinople.pickoption2.1",
          "label": "<Not Enough Space in the Hold>",
          "startdescription": "<not enough space>",
          "grandReqs": {
            "[~/situation/slots/option2:$count] || [mariner.pickedoption2]": 1,
            "[~/extant:mariner.holduse] + max(0, [~/extant:mariner.instrument]-1)": "[~/extant:mariner.ship.holdsize]"
          },
          "movements": {
            "~/tabletop": [
              "mariner.halfheart"
            ]
          }
        },
        {
          "id": "mariner.buycargo.from.medsea.constantinople.pickoption2.2",
          "label": "<Not Enough Funds To Buy Cargo>",
          "startdescription": "<Commerce occurs on the edge between want and surplus. I can buy low here and sell at a profit where demand is higher>",
          "grandReqs": {
            "[~/situation/slots/option2:$count] || [mariner.pickedoption2]": 1,
            "[~/exterior : funds]": -1
          },
          "movements": {
            "~/tabletop": [
              "mariner.halfheart"
            ]
          }
        },
        {
          "id": "mariner.buycargo.from.medsea.constantinople.pickoption2.3",
          "label": "<Buy Cargo>",
          "startdescription": "<Barrels are rolled and crates are stowed and the ship is crammed with wealth in potentia.>",
          "grandReqs": {
            "[~/situation/slots/option2:$count] || [mariner.pickedoption2]": 1,
            "[~/exterior : funds]": 1
          },
          "effects": {
            "mariner.cargo.for.medsea.local": 1
          },
          "furthermore": [
            {
              "target": "~/exterior",
              "effects": {
                "funds": -1
              }
            }
          ],
          "linked": [
            {
              "id": "mariner.buycargo.from.medsea.constantinople"
            }
          ],
          "movements": {
            "~/tabletop": [
              "mariner.halfheart"
            ]
          }
        },
        {
          "id": "mariner.buycargo.from.medsea.constantinople.pickoption3.1",
          "label": "<Not Enough Space in the Hold>",
          "startdescription": "<not enough space>",
          "grandReqs": {
            "[~/situation/slots/option3:$count] || [mariner.pickedoption3]": 1,
            "[~/extant:mariner.holduse] + max(0, [~/extant:mariner.instrument]-1)": "[~/extant:mariner.ship.holdsize]"
          },
          "movements": {
            "~/tabletop": [
              "mariner.halfheart"
            ]
          }
        },
        {
          "id": "mariner.buycargo.from.medsea.constantinople.pickoption3.2",
          "label": "<Not Enough Funds To Buy Cargo>",
          "startdescription": "<Commerce occurs on the edge between want and surplus. I can buy low here and sell at a profit where demand is higher>",
          "grandReqs": {
            "[~/situation/slots/option3:$count] || [mariner.pickedoption3]": 1,
            "[~/exterior : funds]": -1
          },
          "movements": {
            "~/tabletop": [
              "mariner.halfheart"
            ]
          }
        },
        {
          "id": "mariner.buycargo.from.medsea.constantinople.pickoption3.3",
          "label": "<Buy Cargo>",
          "startdescription": "<Barrels are rolled and crates are stowed and the ship is crammed with wealth in potentia.>",
          "grandReqs": {
            "[~/situation/slots/option3:$count] || [mariner.pickedoption3]": 1,
            "[~/exterior : funds]": 1
          },
          "effects": {
            "mariner.cargo.for.medsea.local": 1
          },
          "furthermore": [
            {
              "target": "~/exterior",
              "effects": {
                "funds": -1
              }
            }
          ],
          "linked": [
            {
              "id": "mariner.buycargo.from.medsea.constantinople"
            }
          ],
          "movements": {
            "~/tabletop": [
              "mariner.halfheart"
            ]
          }
        }
      ]
    },
    {
      "id": "mariner.buycargo.from.medsea.haifa",
      "actionId": "talk",
      "craftable": true,
      "grandReqs": {
        "mariner.locations.medsea.haifa.wharf": 1,
        "mariner.location.hostile": -1
      },
      "label": "<Chartering Cargo in haifa>",
      "startdescription": "Here I can establish contracts for goods that need to go elsewhere. Once I have reached that elsewhere, they will be good for some money. Available Wares:<br><br>-[1 <sprite name=funds>] Cargo (North Sea)<br><br>-[1 <sprite name=funds>] Cargo (Med Sea)<br><br>-[1 <sprite name=funds>] Cargo (Med Sea)<i>[Stop making choices to leave the store.]</i>",
      "warmup": 10,
      "linked": [
        {
          "id": "mariner.buycargo.leaving"
        }
      ],
      "slots": [
        {
          "id": "option1",
          "label": "<Cargo [North Sea]>",
          "description": "<Exchange stocks for stock>",
          "required": {
            "mariner.halfheart": 1
          },
          "xtrigger": "mariner.signal.pickoption1"
        },
        {
          "id": "option2",
          "label": "<Cargo [Med Sea]>",
          "description": "<Exchange stocks for stock>",
          "required": {
            "mariner.halfheart": 1
          },
          "xtrigger": "mariner.signal.pickoption2"
        },
        {
          "id": "option3",
          "label": "<Cargo [Med Sea]>",
          "description": "<Exchange stocks for stock>",
          "required": {
            "mariner.halfheart": 1
          },
          "xtrigger": "mariner.signal.pickoption3"
        }
      ],
      "alt": [
        {
          "id": "mariner.buycargo.from.medsea.haifa.pickoption1.1",
          "label": "<Not Enough Space in the Hold>",
          "startdescription": "<not enough space>",
          "grandReqs": {
            "[~/situation/slots/option1:$count] || [mariner.pickedoption1]": 1,
            "[~/extant:mariner.holduse] + max(0, [~/extant:mariner.instrument]-1)": "[~/extant:mariner.ship.holdsize]"
          },
          "movements": {
            "~/tabletop": [
              "mariner.halfheart"
            ]
          }
        },
        {
          "id": "mariner.buycargo.from.medsea.haifa.pickoption1.2",
          "label": "<Not Enough Funds To Buy Cargo>",
          "startdescription": "<Commerce occurs on the edge between want and surplus. I can buy low here and sell at a profit where demand is higher>",
          "grandReqs": {
            "[~/situation/slots/option1:$count] || [mariner.pickedoption1]": 1,
            "[~/exterior : funds]": -1
          },
          "movements": {
            "~/tabletop": [
              "mariner.halfheart"
            ]
          }
        },
        {
          "id": "mariner.buycargo.from.medsea.haifa.pickoption1.3",
          "label": "<Buy Cargo>",
          "startdescription": "<Barrels are rolled and crates are stowed and the ship is crammed with wealth in potentia.>",
          "grandReqs": {
            "[~/situation/slots/option1:$count] || [mariner.pickedoption1]": 1,
            "[~/exterior : funds]": 1
          },
          "effects": {
            "mariner.cargo.for.northsea.close": 1
          },
          "furthermore": [
            {
              "target": "~/exterior",
              "effects": {
                "funds": -1
              }
            }
          ],
          "linked": [
            {
              "id": "mariner.buycargo.from.medsea.haifa"
            }
          ],
          "movements": {
            "~/tabletop": [
              "mariner.halfheart"
            ]
          }
        },
        {
          "id": "mariner.buycargo.from.medsea.haifa.pickoption2.1",
          "label": "<Not Enough Space in the Hold>",
          "startdescription": "<not enough space>",
          "grandReqs": {
            "[~/situation/slots/option2:$count] || [mariner.pickedoption2]": 1,
            "[~/extant:mariner.holduse] + max(0, [~/extant:mariner.instrument]-1)": "[~/extant:mariner.ship.holdsize]"
          },
          "movements": {
            "~/tabletop": [
              "mariner.halfheart"
            ]
          }
        },
        {
          "id": "mariner.buycargo.from.medsea.haifa.pickoption2.2",
          "label": "<Not Enough Funds To Buy Cargo>",
          "startdescription": "<Commerce occurs on the edge between want and surplus. I can buy low here and sell at a profit where demand is higher>",
          "grandReqs": {
            "[~/situation/slots/option2:$count] || [mariner.pickedoption2]": 1,
            "[~/exterior : funds]": -1
          },
          "movements": {
            "~/tabletop": [
              "mariner.halfheart"
            ]
          }
        },
        {
          "id": "mariner.buycargo.from.medsea.haifa.pickoption2.3",
          "label": "<Buy Cargo>",
          "startdescription": "<Barrels are rolled and crates are stowed and the ship is crammed with wealth in potentia.>",
          "grandReqs": {
            "[~/situation/slots/option2:$count] || [mariner.pickedoption2]": 1,
            "[~/exterior : funds]": 1
          },
          "effects": {
            "mariner.cargo.for.medsea.local": 1
          },
          "furthermore": [
            {
              "target": "~/exterior",
              "effects": {
                "funds": -1
              }
            }
          ],
          "linked": [
            {
              "id": "mariner.buycargo.from.medsea.haifa"
            }
          ],
          "movements": {
            "~/tabletop": [
              "mariner.halfheart"
            ]
          }
        },
        {
          "id": "mariner.buycargo.from.medsea.haifa.pickoption3.1",
          "label": "<Not Enough Space in the Hold>",
          "startdescription": "<not enough space>",
          "grandReqs": {
            "[~/situation/slots/option3:$count] || [mariner.pickedoption3]": 1,
            "[~/extant:mariner.holduse] + max(0, [~/extant:mariner.instrument]-1)": "[~/extant:mariner.ship.holdsize]"
          },
          "movements": {
            "~/tabletop": [
              "mariner.halfheart"
            ]
          }
        },
        {
          "id": "mariner.buycargo.from.medsea.haifa.pickoption3.2",
          "label": "<Not Enough Funds To Buy Cargo>",
          "startdescription": "<Commerce occurs on the edge between want and surplus. I can buy low here and sell at a profit where demand is higher>",
          "grandReqs": {
            "[~/situation/slots/option3:$count] || [mariner.pickedoption3]": 1,
            "[~/exterior : funds]": -1
          },
          "movements": {
            "~/tabletop": [
              "mariner.halfheart"
            ]
          }
        },
        {
          "id": "mariner.buycargo.from.medsea.haifa.pickoption3.3",
          "label": "<Buy Cargo>",
          "startdescription": "<Barrels are rolled and crates are stowed and the ship is crammed with wealth in potentia.>",
          "grandReqs": {
            "[~/situation/slots/option3:$count] || [mariner.pickedoption3]": 1,
            "[~/exterior : funds]": 1
          },
          "effects": {
            "mariner.cargo.for.medsea.local": 1
          },
          "furthermore": [
            {
              "target": "~/exterior",
              "effects": {
                "funds": -1
              }
            }
          ],
          "linked": [
            {
              "id": "mariner.buycargo.from.medsea.haifa"
            }
          ],
          "movements": {
            "~/tabletop": [
              "mariner.halfheart"
            ]
          }
        }
      ]
    },
    {
      "id": "mariner.buycargo.leaving",
      "startdescription": "<Alright then.>",
      "linked": [
        {
          "id": "mariner.addgroundedness"
        }
      ]
    }
  ]
}