{
    "elements": [
      {
        "id": "mariner.inspirations.melody.winter",
        "label": "Stillborn Serenade",
        "description": "This haunting piece of classical music abruptly ends mid-movement. The silence that follows is more heartbreaking then any conclusion that could have been written.",
        "aspects": {
          "winter": 4,
          "mariner.inspiration": 1,
          "mariner.inspiration.melody": 1,
          "mariner.inspiration.winter": 1
        }
      }
    ]
}