{
  "decks": [
    {
      "id": "mariner.decks.specialists.opportunities.manual",
      "spec": [
        "mariner.crew.specialist.canoneer.opportunity",
        "mariner.crew.specialist.privateer.opportunity",
        "mariner.crew.specialist.carpenter.opportunity",
        "mariner.crew.specialist.cook.opportunity",
        "mariner.crew.specialist.mate.opportunity"
      ],
      "resetonexhaustion": true,
      "shuffleAfterDraw": true
    },
    {
      "id": "mariner.decks.specialists.opportunities.intellectual",
      "spec": [
        "mariner.crew.specialist.navigator.opportunity",
        "mariner.crew.specialist.diver.opportunity",
        "mariner.crew.specialist.officer.opportunity",
        "mariner.crew.specialist.conman.opportunity"
      ],
      "resetonexhaustion": true,
      "shuffleAfterDraw": true
    },
    {
      "id": "mariner.decks.specialists.opportunities.manual.free",
      "spec": [
        "mariner.crew.specialist.canoneer.opportunity.free",
        "mariner.crew.specialist.privateer.opportunity.free",
        "mariner.crew.specialist.carpenter.opportunity.free",
        "mariner.crew.specialist.cook.opportunity.free",
        "mariner.crew.specialist.mate.opportunity.free"
      ],
      "resetonexhaustion": true,
      "shuffleAfterDraw": true
    },
    {
      "id": "mariner.decks.specialists.opportunities.intellectual.free",
      "spec": [
        "mariner.crew.specialist.navigator.opportunity.free",
        "mariner.crew.specialist.diver.opportunity.free",
        "mariner.crew.specialist.officer.opportunity.free",
        "mariner.crew.specialist.conman.opportunity.free"
      ],
      "resetonexhaustion": true,
      "shuffleAfterDraw": true
    }
  ]
}