{
  "elements": [
    {
      "id": "mariner.crew.summon.caligine",
      "label": "Caligine",
      "description": "The misbegotten spawn of the Forge, sublimating from the baser operations of the Malleary. \"They say all creations of The Forge-of-Days are sublime, with no refuse or regret. How then, does one explain the Caligine? --Xenodice\"",
      "aspects": {
        "mariner.summon": 1,
        "mariner.crew": 1,
        "forge": 6,
        "moth": 4,
        "winter": 2,
        "mariner.crew.traits.incorporeal": 1,
        "mariner.crew.traits.fingerless": 1,
        "mariner.crew.traits.canrebel": 1,
        "mariner.crew.traits.freak": 1
      },
      "icon": "mariner.summons.caligine",
      "useBigPicture": true,
      "useAlternativeTextStyle": true
    },
    {
      "id": "mariner.crew.summon.maidinthemirror",
      "label": "Maid In the Mirror",
      "description": "Those that ascend in the house of the I may never enter, enter into the the service of that cold and distant Sun. \"To summon one, you must know their name, but never speak it. You must be steeled as a cold and hard master, but never let their cruelty stain your intentions. They never forget their life, but they do not remember it kindly.\"-- Alexia ",
      "aspects": {
        "mariner.summon": 1,
        "mariner.crew": 1,
        "edge": 6,
        "lantern": 4,
        "winter": 2,
        "mariner.crew.traits.invulnerable": 1,
        "mariner.crew.traits.incorporeal": 1,
        "mariner.crew.traits.unsociable": 1,
        "mariner.crew.traits.fingerless": 1,
        "mariner.crew.traits.canrebel": 1,
        "mariner.crew.traits.freak": 1
      },
      "icon": "mariner.summons.maidinthemirror",
      "useBigPicture": true,
      "useAlternativeTextStyle": true
    },
    {
      "id": "mariner.crew.summon.strixling",
      "label": "Strixling",
      "description": "The Strix serve either the Lionsmith or the Colonel, or both. It has been said they served a different mistress before them, and now this one serves me. \"Both vegeance and victory come winged and clawed\"--Kitty Marazine",
      "aspects": {
        "mariner.summon": 1,
        "mariner.crew": 1,
        "edge": 5,
        "knock": 5,
        "mariner.crew.traits.invulnerable": 1,
        "mariner.crew.traits.incorporeal": 1,
        "mariner.crew.traits.unsociable": 1,
        "mariner.crew.traits.fingerless": 1,
        "mariner.crew.traits.canrebel": 1
      },
      "icon": "mariner.summons.strixling",
      "useBigPicture": true,
      "useAlternativeTextStyle": true
    },
    {
      "id": "mariner.crew.summon.didumos",
      "label": "Didumos",
      "description": "There is an undeniable kinship. It too, feels misplaced, untethered, lost in a world so flat and grey and wrong. And the stars too, sing. \"In our dreams our Twin-selves pursue what we cannot express, or are pursued by it. But Half-Hearts cannot dream, and Didumos are only dream. \"--Agdistis",
      "aspects": {
        "mariner.summon": 1,
        "mariner.crew": 1,
        "lantern": 6,
        "knock": 4,
        "heart": 2,
        "mariner.crew.traits.incorporeal": 1,
        "mariner.crew.traits.unsociable": 1,
        "mariner.crew.traits.fingerless": 1,
        "mariner.crew.traits.canrebel": 1
      },
      "icon": "mariner.summons.didumos",
      "useBigPicture": true,
      "useAlternativeTextStyle": true
    },
    {
      "id": "mariner.crew.summon.burgeoningrisen",
      "label": "Burgeoning Risen",
      "description": "A walking treshold, with the fecundity of the Woods spilling forth into gut and limb and orifice. The parts make the whole, and the whole is happy, for a while. \"A seed planted in winter will bud in spring, a seed planted in spring will rise in summer. But what about a seed planted in mercy, or despair?\" --Harald Blomkwist",
      "aspects": {
        "mariner.summon": 1,
        "mariner.crew": 1,
        "moth": 6,
        "winter": 4,
        "grail": 2,
        "mariner.crew.traits.nonliving": 1,
        "mariner.crew.traits.unsociable": 1,
        "mariner.crew.traits.candecay": 1,
        "mariner.crew.traits.freak": 1
      },
      "icon": "mariner.summons.burgeoningrisen",
      "useBigPicture": true,
      "useAlternativeTextStyle": true
    },
    {
      "id": "mariner.crew.summon.shatteredrisen",
      "label": "Shattered Risen",
      "description": "A corpse risen under the auspicise of the raised knife. The powers that animate a Shattered Risen do not preserve it well: Each step splinters, each turn rips, each lunge shatters. \"Sweet succor it may be, to die supplicant to the Sun. But if in Death a knife was raised, service has just begun.\" --Aunt Mopsies book of proverbs",
      "aspects": {
        "mariner.summon": 1,
        "mariner.crew": 1,
        "edge": 6,
        "winter": 4,
        "forge": 2,
        "mariner.crew.traits.nonliving": 1,
        "mariner.crew.traits.unsociable": 1,
        "mariner.crew.traits.candecay": 1,
        "mariner.crew.traits.freak": 1
      },
      "icon": "mariner.summons.shatteredrisen",
      "useBigPicture": true,
      "useAlternativeTextStyle": true
    },
    {
      "id": "mariner.crew.summon.voicelessrisen",
      "label": "Voiceless Risen",
      "description": "Not all corpses are eligable to rise as a Voiceless Risen. But when one rises they are a servant that ceaseless, cunning and utterly quiet. \"Those Dead that pass the White Door leave their speech behind, like a sword surrendered to a host\" -Christopher Illopolli.",
      "aspects": {
        "mariner.summon": 1,
        "mariner.crew": 1,
        "heart": 6,
        "winter": 4,
        "lantern": 2,
        "mariner.crew.traits.nonliving": 1,
        "mariner.crew.traits.unsociable": 1,
        "mariner.crew.traits.candecay": 1,
        "mariner.crew.traits.freak": 1
      },
      "icon": "mariner.summons.voicelessrisen",
      "useBigPicture": true,
      "useAlternativeTextStyle": true
    },
    {
      "id": "mariner.crew.summon.poppet",
      "label": "Poppet",
      "description": "<>",
      "aspects": {
        "mariner.summon": 1,
        "mariner.crew": 1,
        "heart": 4,
        "forge": 4,
        "mariner.crew.traits.nonliving": 1,
        "mariner.crew.traits.candecay": 1,
        "mariner.crew.traits.freak": 1
      },
      "icon": "mariner.summons.poppet",
      "useBigPicture": true,
      "useAlternativeTextStyle": true
    },
    {
      "id": "mariner.crew.summon.iarella",
      "label": "Iarella",
      "description": "pearl-born, witch-panther, hunter-sister, abyss-eye. It twins behind ships, shedding its skin to walk drowning in air upon the shoreline. \"Behind the waves there is a city, below it lies its twin. Only when the water is still the two are one\"--Ferishun",
      "aspects": {
        "mariner.summon": 1,
        "mariner.crew": 1,
        "moth": 2,
        "grail": 6,
        "edge": 4,
        "mariner.crew.traits.fingerless": 1,
        "mariner.crew.traits.canrebel": 1,
        "mariner.crew.traits.unsociable": 1
      },
      "icon": "mariner.summons.iarella",
      "useBigPicture": true,
      "useAlternativeTextStyle": true
    },
    {
      "id": "mariner.crew.summon.cousinscousin",
      "label": "Cousin's Cousin",
      "description": "In low light, with enough layers, a careless observer might mistake this for a human. They themselves will ensure you they are kin to mankind, by our Other Grandmother, twice removed. They carry themselves with the triplicate cunning of the outcast. \"More remants remain in the forgotten corners of our world. How you feel about that will determine if this is a matter of Preservation or of Hushery\" -- an upcoming npc",
      "aspects": {
        "mariner.summon": 1,
        "mariner.crew": 1,
        "grail": 4,
        "moth": 6,
        "knock": 2,
        "mariner.crew.traits.canrebel": 1
      },
      "icon": "mariner.summons.cousinscousin",
      "useBigPicture": true,
      "useAlternativeTextStyle": true
    },
    {
      "id": "mariner.crew.summon.skaptodon",
      "label": "Skaptodon",
      "description": "Part mole, part myth, not unlike a siege-weapon and all to much like a vendetta. A breaker of boundaries bound to my service. \"How does one feel in service to a god of betrayal? Is that strength still a gift when it heralds you as a challengef or all those who wis to prove their privado\" -- an upcomming npc",
      "aspects": {
        "mariner.summon": 1,
        "mariner.crew": 1,
        "heart": 4,
        "edge": 6,
        "forge": 4,
        "mariner.crew.traits.invulnerable": 1,
        "mariner.crew.traits.unsociable": 1,
        "mariner.crew.traits.individualistic": 1,
        "mariner.crew.traits.fingerless": 1,
        "mariner.crew.traits.holdkept": 1,
        "mariner.crew.traits.canrebel": 1
      },
      "icon": "mariner.summons.skaptodon",
      "useBigPicture": true,
      "useAlternativeTextStyle": true
    },
    {
      "id": "mariner.crew.summon.invited",
      "label": "Invited",
      "description": "Older then humanity, colder then the ocean, harder then scale, kinder then sunlight. \"Do you hear a call from the ocean, when the Changeling moon rises? Go on, why won't you wade in. Let's see what you discover below the surface\" --Fraser Strathcoyne.",
      "aspects": {
        "mariner.summon": 1,
        "mariner.crew": 1,
        "knock": 6,
        "winter": 4,
        "grail": 4,
        "mariner.crew.traits.unsociable": 1,
        "mariner.crew.traits.individualistic": 1,
        "mariner.crew.traits.canrebel": 1
      },
      "icon": "mariner.summons.invited",
      "useBigPicture": true,
      "useAlternativeTextStyle": true
    }
  ]
}