{
  "recipes": [
    {
      "id": "mariner.performances.cleartrauma",
      "label": "<Erase Trauma>",
      "startdescription": "<I will weave the tattered parts of the mind of this person, leaving less of who they were, but what will remain will be sane.>",
      "warmup": 20,
      "slots": [
        {
          "id": "crew",
          "label": "<Hurt crew>",
          "description": "<>",
          "required": {
            "mariner.crew.trauma.superstitious": 1,
            "mariner.crew.trauma.shaken": 1
          }
        }
      ],
      "linked": [
        "mariner.performances.cleartrauma.eraseleft.only",
        "mariner.performances.cleartrauma.eraseright.only",
        {
          "id": "mariner.performances.cleartrauma.eraseleft",
          "chance": 50
        },
        "mariner.performances.cleartrauma.eraseright"
      ],
      "achievements": [
        "mariner.achievements.firstsuccessfulperformance"
      ]
    },
    {
      "id": "mariner.performances.cleartrauma.turnintolunatic",
      "requirements": {
        "mariner.crew.traits.erasedright": 1,
        "mariner.crew.traits.erasedleft": 1
      },
      "aspects": {
        "mariner.signal.turnintolunatic": 1
      }
    },
    {
      "id": "mariner.performances.cleartrauma.eraseleft.only",
      "requirements": {
        "mariner.crew.traits.erasedright": 1,
        "mariner.crew.traits.erasedleft": -1
      },
      "linked": "mariner.performances.cleartrauma.eraseleft"
    },
    {
      "id": "mariner.performances.cleartrauma.eraseright.only",
      "requirements": {
        "mariner.crew.traits.erasedright": -1,
        "mariner.crew.traits.erasedleft": 1
      },
      "linked": "mariner.performances.cleartrauma.eraseright"
    },
    {
      "id": "mariner.performances.cleartrauma.eraseleft",
      "requirements": {
        "mariner.crew.traits.erasedleft": -1
      },
      "aspects": {
        "mariner.signal.forgetleftoperand": 1
      }
    },
    {
      "id": "mariner.performances.cleartrauma.eraseright",
      "requirements": {
        "mariner.crew.traits.erasedright": -1
      },
      "aspects": {
        "mariner.signal.forgetleftoperand": 1
      }
    }
  ]
}