{
  "recipes": [
    {
      "id": "mariner.sailing.seaevents.start.ShipOfLantern",
      "warmup": 20,
      "grandReqs": {
        "[~/exterior : { [mariner.crew] } : lantern] + [ ~/local: { [mariner.ship.kite] } : lantern]": 10
      },
      "label": "<The Ship of Light>",
      "startdescription": "Like lights bounding and rebounding in a room of polished mirrors...",
      "linked": [
        {
          "id": "mariner.sailing.seaevents.ShipOfLantern.outcome.end"
        }
      ]
    },
    {
      "id": "mariner.sailing.seaevents.ShipOfLantern.outcome.end",
      "warmup": 20,
      "label": "The Ship of Light: Each Hour its' Color",
      "startdescription": "<Like lights bounding and rebounding in a room of polished mirrors so too does my crew refract and amplify my briliance. They might each be candles flame, but together we sail as a constellation. They might be prismes and one light is refrected into all of the colours of the Higher House. They migth be mirrors, and in our collection we amplify. [My Edge, Lantern, Winter and Forge Songs will be refreshed.]>",
      "linked": [
        {
          "id": "mariner.sailing.postevent"
        }
      ]
    }
  ]
}