{
  "recipes": [
    {
      "id": "mariner.challenge.forked_tongue",
      "warmup": 15,
      "label": "The Forked Tongue",
      "startdescription": "They say the pen is mightier than the sword, and my tongue is pen of a million, million words. We will affront or attack or lead astray. We can approach this task with the dominance of Grail or the venom of Knock.",
      "description": "They say the pen is mightier than the sword, and my tongue is pen of a million, million words. We will affront or attack or lead astray. We can approach this task with the dominance of Grail or the venom of Knock.",
      "alt": [
        {
          "id": "mariner.challenge.forked_tongue.grail.high"
        },
        {
          "id": "mariner.challenge.forked_tongue.knock.high"
        },
        {
          "id": "mariner.challenge.forked_tongue.grail.med"
        },
        {
          "id": "mariner.challenge.forked_tongue.knock.med"
        },
        {
          "id": "mariner.challenge.forked_tongue.grail.low"
        },
        {
          "id": "mariner.challenge.forked_tongue.knock.low"
        }
      ],
      "linked": [
        {
          "useCallback": "FAIL_CHALLENGE"
        }
      ],
      "slots": [
        {
          "actionId": "explore",
          "id": "explore1",
          "label": "Help",
          "description": "Which implements are available for my approach.",
          "required": {
            "funds": 1,
            "mariner.crew": 1,
            "tool": 1,
            "mariner.inspiration.nature": 1,
            "mariner.vaults.help": 1
          },
          "forbidden": {
            "mariner.crew.traits.craven": 1,
            "mariner.crew.exhausted": 1,
            "mariner.tool.broken": 1
          }
        },
        {
          "actionId": "talk",
          "id": "talk1",
          "label": "Help",
          "description": "Which implements are available for my approach.",
          "required": {
            "funds": 1,
            "mariner.crew": 1,
            "mariner.song": 1,
            "mariner.tune": 1,
            "mariner.story": 1,
            "mariner.lackheart": 1,
            "mariner.halfheart": 1,
            "mariner.vaults.help": 1
          },
          "forbidden": {
            "mariner.crew.traits.mute": 1,
            "mariner.crew.exhausted": 1
          }
        },
        {
          "actionId": "mariner.navigate",
          "id": "mariner.navigate1",
          "label": "Help",
          "description": "Which implements are available for my approach.",
          "required": {
            "funds": 1,
            "mariner.crew": 1,
            "mariner.song": 1,
            "mariner.story": 1,
            "mariner.inspiration.melody": 1,
            "mariner.tune": 1,
            "mariner.lackheart": 1,
            "mariner.halfheart": 1,
            "mariner.vaults.help": 1
          },
          "forbidden": {
            "mariner.crew.traits.singleminded": 1,
            "mariner.crew.exhausted": 1,
            "mariner.tool.broken": 1
          }
        },
        {
          "actionId": "mariner.sail",
          "id": "mariner.sail1",
          "label": "Help",
          "description": "Which implements are available for my approach.",
          "required": {
            "funds": 1,
            "mariner.crew": 1,
            "tool": 1,
            "mariner.inspiration.nature": 1,
            "mariner.lackheart": 1,
            "mariner.halfheart": 1,
            "mariner.vaults.help": 1
          },
          "forbidden": {
            "mariner.crew.traits.landlubber": 1,
            "mariner.crew.exhausted": 1,
            "mariner.tool.broken": 1
          }
        },
        {
          "actionId": "mariner.sing",
          "id": "mariner.sing1",
          "label": "Help",
          "description": "Which implements are available for my approach.",
          "required": {
            "funds": 1,
            "mariner.crew": 1,
            "mariner.song": 1,
            "mariner.instrument": 1,
            "mariner.inspiration.melody": 1,
            "mariner.tune": 1,
            "mariner.vaults.help": 1
          },
          "forbidden": {
            "mariner.crew.traits.rhythmless": 1,
            "mariner.crew.exhausted": 1
          }
        }
      ]
    },
    {
      "id": "mariner.challenge.forked_tongue.grail.high",
      "label": "Lead Them to a Pitfall",
      "startdescription": "The trick is to make them act unwittingly selfless. It is better to please you than vex you, after all. We will probably succeed.",
      "requirements": {
        "grail": 10
      },
      "linked": [
        {
          "chance": 90,
          "useCallback": "SUCCEED_CHALLENGE"
        },
        {
          "useCallback": "FAIL_CHALLENGE"
        }
      ]
    },
    {
      "id": "mariner.challenge.forked_tongue.grail.med",
      "label": "Lead Them Down the Wrong Path",
      "startdescription": "The trick is for them not to be aware that you are pointing them in the wrong direction. We will likely succeed.",
      "requirements": {
        "grail": 5
      },
      "linked": [
        {
          "chance": 70,
          "useCallback": "SUCCEED_CHALLENGE"
        },
        {
          "useCallback": "FAIL_CHALLENGE"
        }
      ]
    },
    {
      "id": "mariner.challenge.forked_tongue.grail.low",
      "label": "Lead Them Astray",
      "startdescription": "The trick is for them not to notice when you plant the seeds for their demise. We may yet succeed.",
      "requirements": {
        "grail": 2
      },
      "linked": [
        {
          "chance": 30,
          "useCallback": "SUCCEED_CHALLENGE"
        },
        {
          "useCallback": "FAIL_CHALLENGE"
        }
      ]
    },
    {
      "id": "mariner.challenge.forked_tongue.knock.high",
      "label": "Venomous Speech",
      "startdescription": "Our conversation is dripping with malefaction and bile. As if they were a shepherd's flock, they will fear our scorn and act as we desire. We will probably succeed.",
      "requirements": {
        "knock": 10
      },
      "linked": [
        {
          "chance": 90,
          "useCallback": "SUCCEED_CHALLENGE"
        },
        {
          "useCallback": "FAIL_CHALLENGE"
        }
      ]
    },
    {
      "id": "mariner.challenge.forked_tongue.knock.med",
      "label": "Venomous Phrases",
      "startdescription": "Our conversation is coated with malevolence and bitterness. Our tone may etch stone, and it will shock and stagger those we speak to. We will likely succeed.",
      "requirements": {
        "knock": 5
      },
      "linked": [
        {
          "chance": 70,
          "useCallback": "SUCCEED_CHALLENGE"
        },
        {
          "useCallback": "FAIL_CHALLENGE"
        }
      ]
    },
    {
      "id": "mariner.challenge.forked_tongue.knock.low",
      "label": "Venomous Words",
      "startdescription": "Our conversation is laced with malice and ill intention. They may not hear, and they may walk the path we set out. We may yet succeed.",
      "requirements": {
        "knock": 2
      },
      "linked": [
        {
          "chance": 30,
          "useCallback": "SUCCEED_CHALLENGE"
        },
        {
          "useCallback": "FAIL_CHALLENGE"
        }
      ]
    }
  ]
}