{
  "recipes": [
    {
      "id": "mariner.challenge.avoid",
      "warmup": 15,
      "label": "Avoid Opposion",
      "startdescription": "Something seeks us, chases us or challenges us. We could outsmart it with the cunning of Edge or sneak past it with the blessings of the Moth.",
      "description": "Something seeks us, chases us or challenges us. We could outsmart it with the cunning of Edge or sneak past it with the blessings of the Moth.",
      "alt": [
        {
          "id": "mariner.challenge.avoid.edge.high"
        },
        {
          "id": "mariner.challenge.avoid.moth.high"
        },
        {
          "id": "mariner.challenge.avoid.edge.med"
        },
        {
          "id": "mariner.challenge.avoid.moth.med"
        },
        {
          "id": "mariner.challenge.avoid.edge.low"
        },
        {
          "id": "mariner.challenge.avoid.moth.low"
        }
      ],
      "linked": [
        {
          "useCallback": "FAIL_CHALLENGE"
        }
      ],
      "slots": [
        {
          "actionId": "explore",
          "id": "explore1",
          "label": "Help",
          "description": "Which implements are available for my approach.",
          "required": {
            "funds": 1,
            "mariner.crew": 1,
            "tool": 1,
            "mariner.inspiration.nature": 1,
            "mariner.vaults.help": 1
          },
          "forbidden": {
            "mariner.crew.traits.craven": 1,
            "mariner.crew.exhausted": 1,
            "mariner.tool.broken": 1
          }
        },
        {
          "actionId": "talk",
          "id": "talk1",
          "label": "Help",
          "description": "Which implements are available for my approach.",
          "required": {
            "funds": 1,
            "mariner.crew": 1,
            "mariner.song": 1,
            "mariner.tune": 1,
            "mariner.story": 1,
            "mariner.lackheart": 1,
            "mariner.halfheart": 1,
            "mariner.vaults.help": 1
          },
          "forbidden": {
            "mariner.crew.traits.mute": 1,
            "mariner.crew.exhausted": 1
          }
        },
        {
          "actionId": "mariner.navigate",
          "id": "mariner.navigate1",
          "label": "Help",
          "description": "Which implements are available for my approach.",
          "required": {
            "funds": 1,
            "mariner.crew": 1,
            "mariner.song": 1,
            "mariner.story": 1,
            "mariner.inspiration.melody": 1,
            "mariner.tune": 1,
            "mariner.lackheart": 1,
            "mariner.halfheart": 1,
            "mariner.vaults.help": 1
          },
          "forbidden": {
            "mariner.crew.traits.singleminded": 1,
            "mariner.crew.exhausted": 1,
            "mariner.tool.broken": 1
          }
        },
        {
          "actionId": "mariner.sail",
          "id": "mariner.sail1",
          "label": "Help",
          "description": "Which implements are available for my approach.",
          "required": {
            "funds": 1,
            "mariner.crew": 1,
            "tool": 1,
            "mariner.inspiration.nature": 1,
            "mariner.lackheart": 1,
            "mariner.halfheart": 1,
            "mariner.vaults.help": 1
          },
          "forbidden": {
            "mariner.crew.traits.landlubber": 1,
            "mariner.crew.exhausted": 1,
            "mariner.tool.broken": 1
          }
        },
        {
          "actionId": "mariner.sing",
          "id": "mariner.sing1",
          "label": "Help",
          "description": "Which implements are available for my approach.",
          "required": {
            "funds": 1,
            "mariner.crew": 1,
            "mariner.song": 1,
            "mariner.instrument": 1,
            "mariner.inspiration.melody": 1,
            "mariner.tune": 1,
            "mariner.vaults.help": 1
          },
          "forbidden": {
            "mariner.crew.traits.rhythmless": 1,
            "mariner.crew.exhausted": 1
          }
        }
      ]
    },
    {
      "id": "mariner.challenge.avoid.edge.high",
      "label": "Devious Tactics",
      "startdescription": "With skullduggery and stirring action, We can outsmart our opposition. We will almost certainly succeed.",
      "requirements": {
        "edge": 10
      },
      "linked": [
        {
          "chance": 90,
          "useCallback": "SUCCEED_CHALLENGE"
        },
        {
          "useCallback": "FAIL_CHALLENGE"
        }
      ]
    },
    {
      "id": "mariner.challenge.avoid.edge.med",
      "label": "Sly Tactics",
      "startdescription": "With foul play and decisive action, we can outsmart our opposition. We may yet succed.",
      "requirements": {
        "edge": 5
      },
      "linked": [
        {
          "chance": 70,
          "useCallback": "SUCCEED_CHALLENGE"
        },
        {
          "useCallback": "FAIL_CHALLENGE"
        }
      ]
    },
    {
      "id": "mariner.challenge.avoid.edge.low",
      "label": "Tricky Tactics",
      "startdescription": "With dirty tricks and quick action, we can outsmart our opposition. We may yet succeed.",
      "requirements": {
        "edge": 2
      },
      "linked": [
        {
          "chance": 30,
          "useCallback": "SUCCEED_CHALLENGE"
        },
        {
          "useCallback": "FAIL_CHALLENGE"
        }
      ]
    },
    {
      "id": "mariner.challenge.avoid.moth.high",
      "label": "Steps No More",
      "startdescription": "If we move with care and meld with the shadows, we can avoid their attention. We will almost certainly succeed.",
      "requirements": {
        "moth": 10
      },
      "linked": [
        {
          "chance": 90,
          "useCallback": "SUCCEED_CHALLENGE"
        },
        {
          "useCallback": "FAIL_CHALLENGE"
        }
      ]
    },
    {
      "id": "mariner.challenge.avoid.moth.med",
      "label": "Shadowed Steps",
      "startdescription": "If we move with care and cling to the shadows, we can avoid their gaze. We are likely to succeed.",
      "requirements": {
        "moth": 5
      },
      "linked": [
        {
          "chance": 70,
          "useCallback": "SUCCEED_CHALLENGE"
        },
        {
          "useCallback": "FAIL_CHALLENGE"
        }
      ]
    },
    {
      "id": "mariner.challenge.avoid.moth.low",
      "label": "Silken Footsteps",
      "startdescription": "If we move with care and stick to the shadows, we can avoid their grasp. We may yet succeed.",
      "requirements": {
        "moth": 2
      },
      "linked": [
        {
          "chance": 30,
          "useCallback": "SUCCEED_CHALLENGE"
        },
        {
          "useCallback": "FAIL_CHALLENGE"
        }
      ]
    }
  ]
}