{
    "elements": [
        {
            "id": "mariner.mysteries.sisterhood.medsea",
            "overlays": [
                "locations/medsea/constantinople/nun",
                "mystery_overlay"
            ],
            "label": "Sisterhood: first",
            "description": "<>",
            "aspects": {
                "mariner.mystery": 1
            },
            "slots": [
                {
                    "id": "missing.story",
                    "label": "Missing Story",
                    "description": "this mystery requires a story",
                    "required": {
                        "mariner.story": 1
                    }
                },
                {
                    "id": "missing.waypoint",
                    "label": "Missing Song",
                    "description": "this mystery requires a song",
                    "required": {
                        "mariner.waypoint.east": 1
                    }
                },
                {
                    "id": ",issing.item",
                    "label": "Missing Object",
                    "description": "this mystery requires an object"
                }
            ]
        },
        {
            "id": "mariner.mysteries.sisterhood.northsea",
            "overlays": [
                "locations/medsea/constantinople/nun",
                "mystery_overlay"
            ],
            "label": "Sisterhood: second",
            "description": "<>",
            "aspects": {
                "mariner.mystery": 1
            },
            "slots": [
                {
                    "id": "missing.story",
                    "label": "Missing Story",
                    "description": "this mystery requires a story",
                    "required": {
                        "mariner.story": 1
                    }
                },
                {
                    "id": "Missing.song",
                    "label": "Missing Song",
                    "description": "this mystery requires a song",
                    "required": {
                        "mariner.song": 1
                    }
                },
                {
                    "id": "Missing.item",
                    "label": "Missing Object",
                    "description": "this mystery requires an object"
                }
            ]
        },
        {
            "id": "mariner.mysteries.sisterhood.atlantic",
            "overlays": [
                "locations/medsea/constantinople/nun",
                "mystery_overlay"
            ],
            "label": "Sisterhood: third",
            "description": "<>",
            "aspects": {
                "mariner.mystery": 1
            },
            "slots": [
                {
                    "id": "missing.story",
                    "label": "Missing Story",
                    "description": "this mystery requires a story",
                    "required": {
                        "mariner.story": 1
                    }
                },
                {
                    "id": "Missing.song",
                    "label": "Missing Song",
                    "description": "this mystery requires a song",
                    "required": {
                        "mariner.song": 1
                    }
                },
                {
                    "id": "Missing.item",
                    "label": "Missing Object",
                    "description": "this mystery requires an object"
                }
            ]
        },
        {
            "id": "mariner.mysteries.sisterhood.indian",
            "overlays": [
                "locations/medsea/constantinople/nun",
                "mystery_overlay"
            ],
            "label": "Sisterhood: fourth",
            "description": "<>",
            "aspects": {
                "mariner.mystery": 1
            },
            "slots": [
                {
                    "id": "missing.story",
                    "label": "Missing Story",
                    "description": "this mystery requires a story",
                    "required": {
                        "mariner.story": 1
                    }
                },
                {
                    "id": "Missing.song",
                    "label": "Missing Song",
                    "description": "this mystery requires a song",
                    "required": {
                        "mariner.song": 1
                    }
                },
                {
                    "id": "Missing.item",
                    "label": "Missing Object",
                    "description": "this mystery requires an object"
                }
            ]
        },
        {
            "id": "mariner.mysteries.sisterhood.npac",
            "overlays": [
                "locations/medsea/constantinople/nun",
                "mystery_overlay"
            ],
            "label": "Sisterhood: fifth",
            "description": "<>",
            "aspects": {
                "mariner.mystery": 1
            },
            "slots": [
                {
                    "id": "missing.story",
                    "label": "Missing Story",
                    "description": "this mystery requires a story",
                    "required": {
                        "mariner.story": 1
                    }
                },
                {
                    "id": "Missing.song",
                    "label": "Missing Song",
                    "description": "this mystery requires a song",
                    "required": {
                        "mariner.song": 1
                    }
                },
                {
                    "id": "Missing.item",
                    "label": "Missing Object",
                    "description": "this mystery requires an object"
                }
            ]
        },
        {
            "id": "mariner.mysteries.sisterhood.spac",
            "overlays": [
                "locations/medsea/constantinople/nun",
                "mystery_overlay"
            ],
            "label": "Sisterhood: sixth",
            "description": "<>",
            "aspects": {
                "mariner.mystery": 1
            },
            "slots": [
                {
                    "id": "missing.story",
                    "label": "Missing Story",
                    "description": "this mystery requires a story",
                    "required": {
                        "mariner.story": 1
                    }
                },
                {
                    "id": "Missing.song",
                    "label": "Missing Song",
                    "description": "this mystery requires a song",
                    "required": {
                        "mariner.song": 1
                    }
                },
                {
                    "id": "Missing.item",
                    "label": "Missing Object",
                    "description": "this mystery requires an object"
                }
            ]
        },
        {
            "id": "mariner.mysteries.sisterhood.carrib",
            "overlays": [
                "locations/medsea/constantinople/nun",
                "mystery_overlay"
            ],
            "label": "Sisterhood: seventh",
            "description": "<>",
            "aspects": {
                "mariner.mystery": 1
            },
            "slots": [
                {
                    "id": "missing.story",
                    "label": "Missing Story",
                    "description": "this mystery requires a story",
                    "required": {
                        "mariner.story": 1
                    }
                },
                {
                    "id": "Missing.song",
                    "label": "Missing Song",
                    "description": "this mystery requires a song",
                    "required": {
                        "mariner.song": 1
                    }
                },
                {
                    "id": "Missing.item",
                    "label": "Missing Object",
                    "description": "this mystery requires an object"
                }
            ]
        }
    ]
}