{
  "elements": [
    {
      "isAspect": true,
      "id": "mariner.discoveredbars.northsea.london",
      "noArtNeeded": true,
      "isHidden": true
    },
    {
      "isAspect": true,
      "id": "mariner.discoveredbars.northsea.amsterdam",
      "noArtNeeded": true,
      "isHidden": true
    },
    {
      "isAspect": true,
      "id": "mariner.discoveredbars.northsea.copenhagen",
      "noArtNeeded": true,
      "isHidden": true
    }
  ]
}