{
  "elements": [
    {
      "id": "mariner.locations.northsea.london.morland",
      "$derives": [
        "mariner.composables.recipientnpc",
        "mariner.composables.canbecomehostile"
      ],
      "xexts": {
        "$background": "locations/northsea/london/morland",
        "$frame": "locations/northsea/london/london_frame"
      },
      "label": "Miss Morland",
      "description": "A merchant in rare and valuable books.",
      "decayTo": "mariner.locations.northsea.london.morland.away",
      "aspects": {
        "mariner.recipient.northsea.london.morland": 1
      },
      "xtriggers": {
        "mariner.location.makehostile": "mariner.locations.northsea.london.morland.hostile"
      }
    },
    {
      "id": "mariner.locations.northsea.london.morland.away",
      "overlays": [
        {
          "image": "locations/northsea/london/morland",
          "grayscale": true,
          "color": "#000000"
        },
        "locations/northsea/london/london_frame"
      ],
      "label": "Miss Morland [away]",
      "description": "A merchant in rare and valuable books.",
      "decayTo": "mariner.locations.northsea.london.morland",
      "aspects": {
        "mariner.locations.northsea.london.destination": 1
      }
    },
    {
      "id": "mariner.locations.northsea.london.morland.hostile",
      "$derives": [
        "mariner.composables.recipientnpc",
        "mariner.composables.npc.hostile"
      ],
      "xexts": {
        "$background": "locations/northsea/london/morland",
        "$frame": "locations/northsea/london/london_frame"
      },
      "label": "Miss Morland [hard to meet]",
      "description": "A merchant in rare and valuable books.",
      "icon": "mariner.locations.northsea.london.morland",
      "decayTo": "mariner.locations.northsea.london.morland.away",
      "xtriggers": {
        "mariner.location.makenothostile": "mariner.locations.northsea.london.morland"
      }
    },
    {
      "id": "mariner.locations.northsea.london.agdistis",
      "$derives": [
        "mariner.composables.recipientnpc",
        "mariner.composables.canbecomehostile"
      ],
      "xexts": {
        "$background": "locations/northsea/london/agdistis",
        "$frame": "locations/northsea/london/london_frame"
      },
      "label": "Mr. Agdistis",
      "description": "The tall and tragic stage director of the Ecdysis Club.",
      "decayTo": "mariner.locations.northsea.london.agdistis.away",
      "aspects": {
        "mariner.recipient.northsea.london.agdistis": 1
      },
      "xtriggers": {
        "mariner.location.makehostile": "mariner.locations.northsea.london.agdistis.hostile"
      }
    },
    {
      "id": "mariner.locations.northsea.london.agdistis.away",
      "overlays": [
        {
          "image": "locations/northsea/london/agdistis",
          "grayscale": true,
          "color": "#000000"
        },
        "locations/northsea/london/london_frame"
      ],
      "label": "Mr. Agdistis [away]",
      "description": "The tall and tragic stage director of the Ecdysis Club.",
      "decayTo": "mariner.locations.northsea.london.agdistis",
      "aspects": {
        "mariner.locations.northsea.london.destination": 1
      }
    },
    {
      "id": "mariner.locations.northsea.london.agdistis.hostile",
      "$derives": [
        "mariner.composables.recipientnpc",
        "mariner.composables.npc.hostile"
      ],
      "xexts": {
        "$background": "locations/northsea/london/agdistis",
        "$frame": "locations/northsea/london/london_frame"
      },
      "label": "Mr. Agdistis [hard to meet]",
      "description": "The tall and tragic stage director of the Ecdysis Club.",
      "icon": "mariner.locations.northsea.london.agdistis",
      "decayTo": "mariner.locations.northsea.london.agdistis.away",
      "xtriggers": {
        "mariner.location.makenothostile": "mariner.locations.northsea.london.agdistis"
      }
    },
    {
      "id": "mariner.locations.northsea.london.unmarkedgrave",
      "overlays": [
        "locations/northsea/london/unmarkedgrave",
        "locations/northsea/london/london_frame"
      ],
      "label": "An Unmarked Grave",
      "description": "What remains of the dancer slowly sinks down into the soggy soil.",
      "decayTo": "mariner.locations.northsea.london.unmarkedgrave.away",
      "aspects": {
        "modded_explore_allowed": 1,
        "mariner.local": 1,
        "mariner.location": 1
      },
      "unique": true,
      "slots": [
        {
          "id": "intent",
          "label": "Reason to Visit",
          "actionId": "explore",
          "required": {
            "mariner.trapping": 1,
            "mariner.lackheart": 1,
            "mariner.locations.northsea.london.agdistis": 1
          }
        }
      ],
      "xtriggers": {}
    },
    {
      "id": "mariner.locations.northsea.london.unmarkedgrave.away",
      "overlays": [
        {
          "image": "locations/northsea/london/unmarkedgrave",
          "grayscale": true,
          "color": "#000000"
        },
        "locations/northsea/london/london_frame"
      ],
      "label": "An Unmarked Grave [away]",
      "description": "What remains of the dancer slowly sinks down into the soggy soil.",
      "decayTo": "mariner.locations.northsea.london.unmarkedgrave",
      "aspects": {
        "mariner.locations.northsea.london.destination": 1,
        "mariner.location": 1
      },
      "unique": true
    },
    {
      "id": "mariner.locations.northsea.london.ecdysisfake",
      "overlays": [
        "locations/northsea/london/ecdysisfake",
        "locations/northsea/london/london_frame"
      ],
      "label": "The Ecdysis Club",
      "description": "A cabaret with an occult reputation. The club has several layers of stages, each with more exclusive than the previous, and each one more intimate. I can enter on Agdistis' invitation, but I am not permitted true access until I have proven myself in an audition.",
      "decayTo": "mariner.locations.northsea.london.ecdysisfake.away",
      "aspects": {
        "mariner.local": 1,
        "mariner.sing_allowed": 1,
        "mariner.location": 1
      },
      "unique": true,
      "slots": [
        {
          "id": "verbSong",
          "actionId": "mariner.sing",
          "label": "Song",
          "description": "I should begin my performance, by declaring my intentions, my method, my staging.",
          "required": {
            "mariner.song": 1
          }
        },
        {
          "id": "story",
          "label": "Story to trade",
          "description": "The story I'm willing to share in order to get them to share theirs.",
          "actionId": "mariner.navigate",
          "required": {
            "mariner.story": 1
          }
        },
        {
          "id": "aspect1",
          "actionId": "mariner.sing",
          "label": "Instrument",
          "required": {
            "mariner.instrument": 1
          }
        }
      ],
      "xtriggers": {}
    },
    {
      "id": "mariner.locations.northsea.london.ecdysisfake.away",
      "overlays": [
        {
          "image": "locations/northsea/london/ecdysisfake",
          "grayscale": true,
          "color": "#000000"
        },
        "locations/northsea/london/london_frame"
      ],
      "label": "The Ecdysis Club [away]",
      "description": "A cabaret with an occult reputation. The club has several layers of stages, each with more exclusive than the previous, and each one more intimate. I can enter on Agdistis' invitation, but I am not permitted true access until I have proven myself in an audition.",
      "decayTo": "mariner.locations.northsea.london.ecdysisfake",
      "aspects": {
        "mariner.locations.northsea.london.destination": 1,
        "mariner.location": 1
      },
      "unique": true
    },
    {
      "id": "mariner.locations.northsea.london.ecdysisclub",
      "overlays": [
        "locations/northsea/london/ecdysisclub",
        "locations/northsea/london/london_frame"
      ],
      "label": "The Ecdysis Club",
      "description": "A cabaret with an occult reputation. The club has several layers of stages, each with more exclusive than the previous, and each one more intimate.",
      "decayTo": "mariner.locations.northsea.london.ecdysisclub.away",
      "aspects": {
        "mariner.local": 1,
        "mariner.location.nothostile": 1,
        "mariner.theater": 1,
        "mariner.sing_allowed": 1,
        "mariner.location": 1
      },
      "unique": true,
      "slots": [
        {
          "id": "verbSong",
          "actionId": "mariner.sing",
          "label": "Song",
          "description": "I should begin my performance, by declaring my intentions, my method, my staging.",
          "required": {
            "mariner.song": 1
          }
        },
        {
          "id": "story",
          "label": "Story to trade",
          "description": "The story I'm willing to share in order to get them to share theirs.",
          "actionId": "mariner.navigate",
          "required": {
            "mariner.story": 1
          }
        },
        {
          "id": "aspect1",
          "actionId": "mariner.sing",
          "label": "Instrument",
          "required": {
            "mariner.instrument": 1
          }
        },
        {
          "id": "aspect2",
          "actionId": "mariner.sing",
          "label": "Trapping",
          "required": {
            "mariner.trapping": 1
          }
        }
      ],
      "xtriggers": {
        "mariner.location.makehostile": "mariner.locations.northsea.london.ecdysisclub.hostile"
      }
    },
    {
      "id": "mariner.locations.northsea.london.ecdysisclub.away",
      "overlays": [
        {
          "image": "locations/northsea/london/ecdysisclub",
          "grayscale": true,
          "color": "#000000"
        },
        "locations/northsea/london/london_frame"
      ],
      "label": "The Ecdysis Club [away]",
      "description": "A cabaret with an occult reputation. The club has several layers of stages, each with more exclusive than the previous, and each one more intimate.",
      "decayTo": "mariner.locations.northsea.london.ecdysisclub",
      "aspects": {
        "mariner.locations.northsea.london.destination": 1,
        "mariner.location": 1
      },
      "unique": true
    },
    {
      "id": "mariner.locations.northsea.london.ecdysisclub.hostile",
      "overlays": [
        "locations/northsea/london/ecdysisclub",
        "locations/northsea/london/london_frame"
      ],
      "label": "The Ecdysis Club [hostile]",
      "description": "A cabaret with an occult reputation. The club has several layers of stages, each with more exclusive than the previous, and each one more intimate.",
      "decayTo": "mariner.locations.northsea.london.ecdysisclub.away",
      "aspects": {
        "modded_explore_allowed": 1,
        "mariner.local": 1,
        "mariner.location.hostile": 1,
        "mariner.location": 1,
        "mariner.theater": 1,
        "mariner.sing_allowed": 1
      },
      "unique": true,
      "slots": [
        {
          "actionId": "explore",
          "id": "explore1",
          "label": "Help",
          "description": "Which implements are available for my approach.",
          "required": {
            "mariner.crew": 1,
            "tool": 1,
            "mariner.inspiration.nature": 1
          },
          "forbidden": {
            "mariner.crew.traits.craven": 1,
            "mariner.crew.exhausted": 1,
            "mariner.tool.broken": 1,
            "mariner.vaults.help": 1,
            "mariner.crew.traits.unsociable": 1
          }
        },
        {
          "actionId": "explore",
          "id": "explore2",
          "label": "Help",
          "description": "Which implements are available for my approach.",
          "required": {
            "mariner.crew": 1,
            "tool": 1,
            "mariner.inspiration.nature": 1
          },
          "forbidden": {
            "mariner.crew.traits.craven": 1,
            "mariner.crew.exhausted": 1,
            "mariner.tool.broken": 1,
            "mariner.vaults.help": 1,
            "mariner.crew.traits.unsociable": 1
          }
        },
        {
          "actionId": "explore",
          "id": "explore3",
          "label": "Help",
          "description": "Which implements are available for my approach.",
          "required": {
            "mariner.crew": 1,
            "tool": 1,
            "mariner.inspiration.nature": 1
          },
          "forbidden": {
            "mariner.crew.traits.craven": 1,
            "mariner.crew.exhausted": 1,
            "mariner.tool.broken": 1,
            "mariner.vaults.help": 1,
            "mariner.crew.traits.unsociable": 1
          }
        }
      ],
      "xtriggers": {
        "mariner.location.makenothostile": "mariner.locations.northsea.london.ecdysisclub"
      }
    },
    {
      "id": "mariner.locations.northsea.london.bar",
      "$derives": [
        "mariner.composables.bar",
        "mariner.composables.canbecomehostile"
      ],
      "label": "The Anchor",
      "description": "Different town, same crowd. Different language, same stories.",
      "icon": "locations/bars/mariner.locations.northsea.bar",
      "xtriggers": {
        "mariner.location.makehostile": "mariner.locations.northsea.london.bar.hostile",
        "mariner.signal.discoverlocalelement": {
          "morpheffect": "link",
          "id": "mariner.discoverbar.northsea.london"
        }
      }
    },
    {
      "id": "mariner.locations.northsea.london.bar.hostile",
      "$derives": [
        "mariner.composables.bar.base",
        "mariner.composables.hostile"
      ],
      "label": "The Anchor [hostile]",
      "description": "Different town, same crowd. Different language, same stories.",
      "icon": "locations/bars/mariner.locations.northsea.bar",
      "xtriggers": {
        "mariner.location.makenothostile": "mariner.locations.northsea.london.bar"
      },
      "slots": [
        {
          "actionId": "talk",
          "id": "talk1",
          "label": "Help",
          "description": "Which implements are available for my approach.",
          "required": {
            "mariner.crew": 1,
            "mariner.song": 1,
            "mariner.tune": 1,
            "mariner.story": 1,
            "mariner.lackheart": 1,
            "mariner.halfheart": 1
          },
          "forbidden": {
            "mariner.crew.traits.mute": 1,
            "mariner.crew.exhausted": 1,
            "mariner.vaults.help": 1,
            "mariner.crew.traits.unsociable": 1
          }
        },
        {
          "actionId": "talk",
          "id": "talk2",
          "label": "Help",
          "description": "Which implements are available for my approach.",
          "required": {
            "mariner.crew": 1,
            "mariner.song": 1,
            "mariner.tune": 1,
            "mariner.story": 1,
            "mariner.lackheart": 1,
            "mariner.halfheart": 1
          },
          "forbidden": {
            "mariner.crew.traits.mute": 1,
            "mariner.crew.exhausted": 1,
            "mariner.vaults.help": 1,
            "mariner.crew.traits.unsociable": 1
          }
        },
        {
          "actionId": "talk",
          "id": "talk3",
          "label": "Help",
          "description": "Which implements are available for my approach.",
          "required": {
            "mariner.crew": 1,
            "mariner.song": 1,
            "mariner.tune": 1,
            "mariner.story": 1,
            "mariner.lackheart": 1,
            "mariner.halfheart": 1
          },
          "forbidden": {
            "mariner.crew.traits.mute": 1,
            "mariner.crew.exhausted": 1,
            "mariner.vaults.help": 1,
            "mariner.crew.traits.unsociable": 1
          }
        }
      ]
    },
    {
      "id": "mariner.locations.northsea.london.store",
      "$derives": [
        "mariner.composables.store",
        "mariner.composables.canbecomehostile"
      ],
      "label": "<Some Supply Store>",
      "description": "<General Store>",
      "icon": "locations/stores/mariner.locations.northsea.store",
      "xtriggers": {
        "mariner.location.makehostile": "mariner.locations.northsea.london.store.hostile",
        "mariner.signal.discoverlocalelement": {
          "morpheffect": "link",
          "id": "mariner.discoverstore.northsea.london"
        }
      }
    },
    {
      "id": "mariner.locations.northsea.london.store.hostile",
      "$derives": [
        "mariner.composables.store.base",
        "mariner.composables.hostile"
      ],
      "label": "<Some Supply Store> [hostile]",
      "description": "<General Store>",
      "icon": "locations/stores/mariner.locations.northsea.store",
      "xtriggers": {
        "mariner.location.makenothostile": "mariner.locations.northsea.london.store"
      },
      "slots": [
        {
          "actionId": "talk",
          "id": "talk1",
          "label": "Help",
          "description": "Which implements are available for my approach.",
          "required": {
            "mariner.crew": 1,
            "mariner.song": 1,
            "mariner.tune": 1,
            "mariner.story": 1,
            "mariner.lackheart": 1,
            "mariner.halfheart": 1
          },
          "forbidden": {
            "mariner.crew.traits.mute": 1,
            "mariner.crew.exhausted": 1,
            "mariner.vaults.help": 1,
            "mariner.crew.traits.unsociable": 1
          }
        },
        {
          "actionId": "talk",
          "id": "talk2",
          "label": "Help",
          "description": "Which implements are available for my approach.",
          "required": {
            "mariner.crew": 1,
            "mariner.song": 1,
            "mariner.tune": 1,
            "mariner.story": 1,
            "mariner.lackheart": 1,
            "mariner.halfheart": 1
          },
          "forbidden": {
            "mariner.crew.traits.mute": 1,
            "mariner.crew.exhausted": 1,
            "mariner.vaults.help": 1,
            "mariner.crew.traits.unsociable": 1
          }
        },
        {
          "actionId": "talk",
          "id": "talk3",
          "label": "Help",
          "description": "Which implements are available for my approach.",
          "required": {
            "mariner.crew": 1,
            "mariner.song": 1,
            "mariner.tune": 1,
            "mariner.story": 1,
            "mariner.lackheart": 1,
            "mariner.halfheart": 1
          },
          "forbidden": {
            "mariner.crew.traits.mute": 1,
            "mariner.crew.exhausted": 1,
            "mariner.vaults.help": 1,
            "mariner.crew.traits.unsociable": 1
          }
        }
      ]
    },
    {
      "id": "mariner.locations.northsea.london.wharf",
      "$derives": [
        "mariner.composables.wharf.available",
        "mariner.composables.canbecomehostile"
      ],
      "icon": "locations/wharves/mariner.locations.northsea.wharf",
      "aspects": {
        "modded_talk_allowed": 1,
        "mariner.location.nothostile": 1
      },
      "xtriggers": {
        "mariner.location.makehostile": "mariner.locations.northsea.london.wharf.hostile",
        "mariner.signal.discoverlocalelement": {
          "morpheffect": "link",
          "id": "mariner.discoverwharf.northsea.london"
        }
      }
    },
    {
      "id": "mariner.locations.northsea.london.wharf.hostile",
      "$derives": [
        "mariner.composables.wharf",
        "mariner.composables.hostile"
      ],
      "icon": "locations/wharves/mariner.locations.northsea.wharf",
      "aspects": {},
      "xtriggers": {
        "mariner.location.makenothostile": "mariner.locations.northsea.london.wharf"
      },
      "label": "Wharf [hostile]"
    }
  ]
}