{
  "recipes": [
    {
      "id": "mariner.sailing.seaevents.start.operation_silver",
      "warmup": 20,
      "grandReqs": {
        "root/mariner.flag.operation.silver.set": -1,
        "root/mariner.flag.operation.lead.set": 1,
        "~/exterior : mariner.weathermeta.rainy": 1
      },
      "label": "The Operations of the Sky: That Silver Gale",
      "startdescription": "Homer called the heavens copper, but tonight she is formed of a paler metal. Rain comes down, not as a whisper, nor a torrent, but with the intent of knives. None of the crew relishes their jobs on deck today, but I can feel that the sky once again holds that power in potentia. With a trapping of Moth and a significant power of Lantern or Forge I could brighten her, and elevate the next time I encounter the Operations of the Sky.",
      "linked": [
        {
          "id": "mariner.sailing.seaevents.operation_silver.outcome.success",
          "chance": "([lantern]/7)*100"
        },
        {
          "id": "mariner.sailing.seaevents.operation_silver.outcome.success",
          "chance": "([forge]/7)*100"
        },
        {
          "id": "mariner.sailing.seaevents.operation_silver.outcome.failure"
        }
      ],
      "slots": [
        {
          "actionId": "mariner.sail",
          "id": "mariner.sail1",
          "label": "Help",
          "description": "Which implements are available for my approach.",
          "required": {
            "funds": 1,
            "mariner.crew": 1,
            "tool": 1,
            "mariner.inspiration.nature": 1,
            "mariner.lackheart": 1,
            "mariner.halfheart": 1
          },
          "forbidden": {
            "mariner.crew.traits.landlubber": 1,
            "mariner.crew.exhausted": 1,
            "mariner.tool.broken": 1,
            "mariner.vaults.help": 1
          }
        },
        {
          "actionId": "mariner.sail",
          "id": "mariner.sail2",
          "label": "Help",
          "description": "Which implements are available for my approach.",
          "required": {
            "funds": 1,
            "mariner.crew": 1,
            "tool": 1,
            "mariner.inspiration.nature": 1,
            "mariner.lackheart": 1,
            "mariner.halfheart": 1
          },
          "forbidden": {
            "mariner.crew.traits.landlubber": 1,
            "mariner.crew.exhausted": 1,
            "mariner.tool.broken": 1,
            "mariner.vaults.help": 1
          }
        },
        {
          "actionId": "mariner.sail",
          "id": "mariner.sail3",
          "label": "Help",
          "description": "Which implements are available for my approach.",
          "required": {
            "funds": 1,
            "mariner.crew": 1,
            "tool": 1,
            "mariner.inspiration.nature": 1,
            "mariner.lackheart": 1,
            "mariner.halfheart": 1
          },
          "forbidden": {
            "mariner.crew.traits.landlubber": 1,
            "mariner.crew.exhausted": 1,
            "mariner.tool.broken": 1,
            "mariner.vaults.help": 1
          }
        }
      ]
    },
    {
      "id": "mariner.sailing.seaevents.operation_silver.outcome.success",
      "warmup": 20,
      "label": "The Elevation of Potential",
      "startdescription": "Silver yields to gold, as past always yields to future and worth is only refined in greed or in strife.",
      "furthermore": [
        {
          "rootAdd": {
            "mariner.flag.operation.silver.set": 1
          }
        }
      ],
      "linked": [
        {
          "id": "mariner.sailing.postevent"
        }
      ]
    },
    {
      "id": "mariner.sailing.seaevents.operation_silver.outcome.failure",
      "warmup": 20,
      "label": "Baser Weathers",
      "startdescription": "We could not meet the demands to wield the airs of potential. The pressure shifts, the moment fades, and we drift back into less leaden weather patterns.",
      "linked": [
        {
          "id": "mariner.sailing.postevent"
        }
      ]
    }
  ]
}