{
  "decks": [
    {
      "id": "mariner.decks.vaults.thebes.explore.riverbanks.tasks",
      "label": "Potential Possibilities",
      "description": "Places, things and people to be explored or exploited.",
      "spec": [
        "mariner.vaults.thebes.reeds",
        "mariner.vaults.thebes.bend",
        "mariner.vaults.thebes.city"
      ],
      "defaultcard": "mariner.emptydeck"
    },
    {
      "id": "mariner.decks.vaults.thebes.explore.riverbanks.events",
      "label": "Exploration Deck",
      "spec": [
        "mariner.events.vaults.thebes.events.others",
        "mariner.events.vaults.thebes.events.scales",
        "mariner.events.vaults.thebes.events.colossus"
      ],
      "resetonexhaustion": true
    }
  ]
}