{
  "elements": [
    {
      "id": "mariner.composables.tool",
      "xtriggers": {
        "mariner.signal.usetool": {
          "morpheffect": "recipe",
          "id": "mariner.usetool"
        },
        "mariner.signal.misusetool": [
          {
            "morpheffect": "recipe",
            "id": "mariner.usetool"
          },
          {
            "morpheffect": "break",
            "chance": 80
          },
          {
            "morpheffect": "recipe",
            "id": "mariner.breaktool"
          }
        ]
      }
    }
  ]
}