{
  "elements": [
    {
      "id": "mariner.composables.crew.mortal",
      "aspects": {
        "mariner.crew": 1,
        "mariner.cabinuse": 1,
        "modded_talk_allowed": 1
      },
      "slots": [
        {
          "id": "severancepackage",
          "label": "Severance",
          "actionId": "talk",
          "required": {
            "funds": 1
          },
          "ifAspectsPresent": {
            "mariner.crew.wantstoleave": -1
          }
        },
        {
          "id": "bargain_1",
          "label": "An Incentive",
          "description": "The scales of any decision can be amended with the right prosaic weight.",
          "actionId": "talk",
          "required": {
            "funds": 1
          },
          "ifAspectsPresent": {
            "mariner.crew.wantstoleave": 1
          }
        },
        {
          "id": "bargain_2",
          "label": "An Incentive",
          "description": "The scales of any decision can be amended with the right prosaic weight.",
          "actionId": "talk",
          "required": {
            "funds": 1
          },
          "ifAspectsPresent": {
            "mariner.crew.wantstoleave": 1
          }
        },
        {
          "id": "bargain_3",
          "label": "An Incentive",
          "description": "The scales of any decision can be amended with the right prosaic weight.",
          "actionId": "talk",
          "required": {
            "funds": 1
          },
          "ifAspectsPresent": {
            "mariner.crew.wantstoleave": 1
          }
        },
        {
          "id": "bargain_4",
          "label": "An Incentive",
          "description": "The scales of any decision can be amended with the right prosaic weight.",
          "actionId": "talk",
          "required": {
            "funds": 1
          },
          "ifAspectsPresent": {
            "mariner.crew.wantstoleave": 1
          }
        },
        {
          "id": "bargain_5",
          "label": "An Incentive",
          "description": "The scales of any decision can be amended with the right prosaic weight.",
          "actionId": "talk",
          "required": {
            "funds": 1
          },
          "ifAspectsPresent": {
            "mariner.crew.wantstoleave": 1
          }
        }
      ],
      "xtriggers": {
        "mariner.signal.witnesscannibalism": {
          "morpheffect": "recipe",
          "id": "mariner.crew.witnesscannibalism"
        },
        "mariner.signal.triggerphysicalattackresult": {
          "morpheffect": "link",
          "id": "mariner.genericevents.injurecrewmember.injuremortal"
        },
        "mariner.signal.triggeunravelattackresult": {
          "morpheffect": "link",
          "id": "mariner.genericevents.unravelcrewmember.kill"
        },
        "mariner.signal.witnesshorrortrauma": {
          "morpheffect": "link",
          "id": "mariner.genericevents.traumatizecrewmember.horror.injuremortal"
        },
        "mariner.signal.witnesssupernaturaltrauma": {
          "morpheffect": "link",
          "id": "mariner.genericevents.traumatizecrewmember.supernatural.injuremortal"
        },
        "mariner.signal.turnintolunatic": "lunatic",
        "mariner.signal.freakout": [
          {
            "morpheffect": "mutate",
            "id": "mariner.crew.exhausted",
            "level": 1
          },
          {
            "morpheffect": "mutate",
            "id": "mariner.crew.longing",
            "level": 1
          }
        ]
      }
    },
    {
      "id": "mariner.composables.recruitmentopportunity",
      "aspects": {
        "mariner.local": 1,
        "modded_talk_allowed": 1,
        "mariner.recruitmentopportunity": 1
      }
    }
  ]
}