{
  "recipes": [
    {
      "id": "mariner.wanderingevents.start.northsea.randomevent.statue",
      "label": "An Encounter with a Statue",
      "grandReqs": {
        "root/mariner.cycle": "Abs([root/mariner.globaltimers.northsea.randomevent.statue]) + 25"
      },
      "rootAdd": {
        "mariner.globaltimers.northsea.randomevent.statue": "[root/mariner.cycle] - [root/mariner.globaltimers.northsea.randomevent.statue]"
      },
      "startdescription": "Last night I encountered a young woman, staring out diligently over the Oresund. It is dedicated to one storyteller, but it was only commissioned after a certain Opera hit the stage...",
      "effects": {
        "contentment": 1
      },
      "tablereqs": {
        "mariner.stories.mermaid": 1
      }
    }
  ]
}