{
  "recipes": [
    {
      "id": "mariner.assigntraitstocrew.rightoperand.gameplay.assign.bright",
      "mutations": [
        {
          "filter": "mariner.crew",
          "mutate": "mariner.crew.traits.bright",
          "level": 1
        }
      ],
      "linked": [
        {
          "id": "mariner.assigntraitstocrew.end"
        }
      ]
    },
    {
      "id": "mariner.assigntraitstocrew.rightoperand.gameplay.assign.handy",
      "mutations": [
        {
          "filter": "mariner.crew",
          "mutate": "mariner.crew.traits.handy",
          "level": 1
        }
      ],
      "linked": [
        {
          "id": "mariner.assigntraitstocrew.end"
        }
      ]
    },
    {
      "id": "mariner.assigntraitstocrew.rightoperand.gameplay.assign.whistling",
      "mutations": [
        {
          "filter": "mariner.crew",
          "mutate": "mariner.crew.traits.whistling",
          "level": 1
        }
      ],
      "linked": [
        {
          "id": "mariner.assigntraitstocrew.end"
        }
      ]
    },
    {
      "id": "mariner.assigntraitstocrew.rightoperand.gameplay.assign.dense",
      "mutations": [
        {
          "filter": "mariner.crew",
          "mutate": "mariner.crew.traits.dense",
          "level": 1
        }
      ],
      "linked": [
        {
          "id": "mariner.assigntraitstocrew.end"
        }
      ]
    },
    {
      "id": "mariner.assigntraitstocrew.rightoperand.gameplay.assign.noisy",
      "mutations": [
        {
          "filter": "mariner.crew",
          "mutate": "mariner.crew.traits.noisy",
          "level": 1
        }
      ],
      "linked": [
        {
          "id": "mariner.assigntraitstocrew.end"
        }
      ]
    },
    {
      "id": "mariner.assigntraitstocrew.rightoperand.gameplay.assign.mute",
      "mutations": [
        {
          "filter": "mariner.crew",
          "mutate": "mariner.crew.traits.mute",
          "level": 1
        }
      ],
      "linked": [
        {
          "id": "mariner.assigntraitstocrew.end"
        }
      ]
    },
    {
      "id": "mariner.assigntraitstocrew.rightoperand.gameplay.assign.landlubber",
      "mutations": [
        {
          "filter": "mariner.crew",
          "mutate": "mariner.crew.traits.landlubber",
          "level": 1
        }
      ],
      "linked": [
        {
          "id": "mariner.assigntraitstocrew.end"
        }
      ]
    },
    {
      "id": "mariner.assigntraitstocrew.rightoperand.gameplay.assign.singleminded",
      "mutations": [
        {
          "filter": "mariner.crew",
          "mutate": "mariner.crew.traits.singleminded",
          "level": 1
        }
      ],
      "linked": [
        {
          "id": "mariner.assigntraitstocrew.end"
        }
      ]
    },
    {
      "id": "mariner.assigntraitstocrew.rightoperand.gameplay.assign.rhythmless",
      "mutations": [
        {
          "filter": "mariner.crew",
          "mutate": "mariner.crew.traits.rhythmless",
          "level": 1
        }
      ],
      "linked": [
        {
          "id": "mariner.assigntraitstocrew.end"
        }
      ]
    },
    {
      "id": "mariner.assigntraitstocrew.rightoperand.gameplay.assign.envowed",
      "mutations": [
        {
          "filter": "mariner.crew",
          "mutate": "mariner.crew.traits.envowed",
          "level": 1
        },
        {
          "filter": "mariner.crew",
          "mutate": "grail",
          "level": 2,
          "additive": true
        }
      ],
      "linked": [
        {
          "id": "mariner.assigntraitstocrew.end"
        }
      ]
    },
    {
      "id": "mariner.assigntraitstocrew.rightoperand.gameplay.assign.initiated",
      "mutations": [
        {
          "filter": "mariner.crew",
          "mutate": "mariner.crew.traits.initiated",
          "level": 1
        },
        {
          "filter": "mariner.crew",
          "mutate": "moth",
          "level": 2,
          "additive": true
        }
      ],
      "linked": [
        {
          "id": "mariner.assigntraitstocrew.end"
        }
      ]
    },
    {
      "id": "mariner.assigntraitstocrew.rightoperand.gameplay.assign.inspired",
      "mutations": [
        {
          "filter": "mariner.crew",
          "mutate": "mariner.crew.traits.inspired",
          "level": 1
        },
        {
          "filter": "mariner.crew",
          "mutate": "lantern",
          "level": 2,
          "additive": true
        }
      ],
      "linked": [
        {
          "id": "mariner.assigntraitstocrew.end"
        }
      ]
    },
    {
      "id": "mariner.assigntraitstocrew.rightoperand.gameplay.assign.inducted",
      "mutations": [
        {
          "filter": "mariner.crew",
          "mutate": "mariner.crew.traits.inducted",
          "level": 1
        },
        {
          "filter": "mariner.crew",
          "mutate": "forge",
          "level": 2,
          "additive": true
        }
      ],
      "linked": [
        {
          "id": "mariner.assigntraitstocrew.end"
        }
      ]
    },
    {
      "id": "mariner.assigntraitstocrew.rightoperand.gameplay.assign.conscripted",
      "mutations": [
        {
          "filter": "mariner.crew",
          "mutate": "mariner.crew.traits.conscripted",
          "level": 1
        },
        {
          "filter": "mariner.crew",
          "mutate": "edge",
          "level": 2,
          "additive": true
        }
      ],
      "linked": [
        {
          "id": "mariner.assigntraitstocrew.end"
        }
      ]
    },
    {
      "id": "mariner.assigntraitstocrew.rightoperand.gameplay.assign.consecrated",
      "mutations": [
        {
          "filter": "mariner.crew",
          "mutate": "mariner.crew.traits.consecrated",
          "level": 1
        },
        {
          "filter": "mariner.crew",
          "mutate": "winter",
          "level": 2,
          "additive": true
        }
      ],
      "linked": [
        {
          "id": "mariner.assigntraitstocrew.end"
        }
      ]
    },
    {
      "id": "mariner.assigntraitstocrew.rightoperand.gameplay.assign.oathbound",
      "mutations": [
        {
          "filter": "mariner.crew",
          "mutate": "mariner.crew.traits.oathbound",
          "level": 1
        },
        {
          "filter": "mariner.crew",
          "mutate": "heart",
          "level": 2,
          "additive": true
        }
      ],
      "linked": [
        {
          "id": "mariner.assigntraitstocrew.end"
        }
      ]
    },
    {
      "id": "mariner.assigntraitstocrew.rightoperand.gameplay.assign.sanctified",
      "mutations": [
        {
          "filter": "mariner.crew",
          "mutate": "mariner.crew.traits.sanctified",
          "level": 1
        },
        {
          "filter": "mariner.crew",
          "mutate": "knock",
          "level": 2,
          "additive": true
        }
      ],
      "linked": [
        {
          "id": "mariner.assigntraitstocrew.end"
        }
      ]
    },
    {
      "id": "mariner.assigntraitstocrew.rightoperand.gameplay.assign.boisterous",
      "mutations": [
        {
          "filter": "mariner.crew",
          "mutate": "mariner.crew.traits.boisterous",
          "level": 1
        }
      ],
      "linked": [
        {
          "id": "mariner.assigntraitstocrew.end"
        }
      ]
    },
    {
      "id": "mariner.assigntraitstocrew.rightoperand.gameplay.assign.cannibal",
      "mutations": [
        {
          "filter": "mariner.crew",
          "mutate": "mariner.crew.traits.cannibal",
          "level": 1
        }
      ],
      "linked": [
        {
          "id": "mariner.assigntraitstocrew.end"
        }
      ]
    },
    {
      "id": "mariner.assigntraitstocrew.rightoperand.gameplay.assign.rival",
      "mutations": [
        {
          "filter": "mariner.crew",
          "mutate": "mariner.crew.traits.rival",
          "level": 1
        },
        {
          "filter": "mariner.crew",
          "mutate": "edge",
          "level": 2,
          "additive": true
        }
      ],
      "linked": [
        {
          "id": "mariner.assigntraitstocrew.end"
        }
      ]
    },
    {
      "id": "mariner.assigntraitstocrew.rightoperand.cosmetic.assign.bald",
      "mutations": [
        {
          "filter": "mariner.crew",
          "mutate": "mariner.crew.traits.bald",
          "level": 1
        }
      ],
      "linked": [
        {
          "id": "mariner.assigntraitstocrew.end"
        }
      ]
    },
    {
      "id": "mariner.assigntraitstocrew.rightoperand.cosmetic.assign.bellowing",
      "mutations": [
        {
          "filter": "mariner.crew",
          "mutate": "mariner.crew.traits.bellowing",
          "level": 1
        }
      ],
      "linked": [
        {
          "id": "mariner.assigntraitstocrew.end"
        }
      ]
    },
    {
      "id": "mariner.assigntraitstocrew.rightoperand.cosmetic.assign.boisterous",
      "mutations": [
        {
          "filter": "mariner.crew",
          "mutate": "mariner.crew.traits.boisterous",
          "level": 1
        }
      ],
      "linked": [
        {
          "id": "mariner.assigntraitstocrew.end"
        }
      ]
    },
    {
      "id": "mariner.assigntraitstocrew.rightoperand.cosmetic.assign.bright-eyed",
      "mutations": [
        {
          "filter": "mariner.crew",
          "mutate": "mariner.crew.traits.bright-eyed",
          "level": 1
        }
      ],
      "linked": [
        {
          "id": "mariner.assigntraitstocrew.end"
        }
      ]
    },
    {
      "id": "mariner.assigntraitstocrew.rightoperand.cosmetic.assign.crosseyed",
      "mutations": [
        {
          "filter": "mariner.crew",
          "mutate": "mariner.crew.traits.crosseyed",
          "level": 1
        }
      ],
      "linked": [
        {
          "id": "mariner.assigntraitstocrew.end"
        }
      ]
    },
    {
      "id": "mariner.assigntraitstocrew.rightoperand.cosmetic.assign.dense",
      "mutations": [
        {
          "filter": "mariner.crew",
          "mutate": "mariner.crew.traits.dense",
          "level": 1
        }
      ],
      "linked": [
        {
          "id": "mariner.assigntraitstocrew.end"
        }
      ]
    },
    {
      "id": "mariner.assigntraitstocrew.rightoperand.cosmetic.assign.elegant",
      "mutations": [
        {
          "filter": "mariner.crew",
          "mutate": "mariner.crew.traits.elegant",
          "level": 1
        }
      ],
      "linked": [
        {
          "id": "mariner.assigntraitstocrew.end"
        }
      ]
    },
    {
      "id": "mariner.assigntraitstocrew.rightoperand.cosmetic.assign.large",
      "mutations": [
        {
          "filter": "mariner.crew",
          "mutate": "mariner.crew.traits.large",
          "level": 1
        }
      ],
      "linked": [
        {
          "id": "mariner.assigntraitstocrew.end"
        }
      ]
    },
    {
      "id": "mariner.assigntraitstocrew.rightoperand.cosmetic.assign.gaunt",
      "mutations": [
        {
          "filter": "mariner.crew",
          "mutate": "mariner.crew.traits.gaunt",
          "level": 1
        }
      ],
      "linked": [
        {
          "id": "mariner.assigntraitstocrew.end"
        }
      ]
    },
    {
      "id": "mariner.assigntraitstocrew.rightoperand.cosmetic.assign.handsome",
      "mutations": [
        {
          "filter": "mariner.crew",
          "mutate": "mariner.crew.traits.handsome",
          "level": 1
        }
      ],
      "linked": [
        {
          "id": "mariner.assigntraitstocrew.end"
        }
      ]
    },
    {
      "id": "mariner.assigntraitstocrew.rightoperand.cosmetic.assign.heavyset",
      "mutations": [
        {
          "filter": "mariner.crew",
          "mutate": "mariner.crew.traits.heavyset",
          "level": 1
        }
      ],
      "linked": [
        {
          "id": "mariner.assigntraitstocrew.end"
        }
      ]
    },
    {
      "id": "mariner.assigntraitstocrew.rightoperand.cosmetic.assign.hulking",
      "mutations": [
        {
          "filter": "mariner.crew",
          "mutate": "mariner.crew.traits.hulking",
          "level": 1
        }
      ],
      "linked": [
        {
          "id": "mariner.assigntraitstocrew.end"
        }
      ]
    },
    {
      "id": "mariner.assigntraitstocrew.rightoperand.cosmetic.assign.keeneyed",
      "mutations": [
        {
          "filter": "mariner.crew",
          "mutate": "mariner.crew.traits.keeneyed",
          "level": 1
        }
      ],
      "linked": [
        {
          "id": "mariner.assigntraitstocrew.end"
        }
      ]
    },
    {
      "id": "mariner.assigntraitstocrew.rightoperand.cosmetic.assign.lanky",
      "mutations": [
        {
          "filter": "mariner.crew",
          "mutate": "mariner.crew.traits.lanky",
          "level": 1
        }
      ],
      "linked": [
        {
          "id": "mariner.assigntraitstocrew.end"
        }
      ]
    },
    {
      "id": "mariner.assigntraitstocrew.rightoperand.cosmetic.assign.petite",
      "mutations": [
        {
          "filter": "mariner.crew",
          "mutate": "mariner.crew.traits.petite",
          "level": 1
        }
      ],
      "linked": [
        {
          "id": "mariner.assigntraitstocrew.end"
        }
      ]
    },
    {
      "id": "mariner.assigntraitstocrew.rightoperand.cosmetic.assign.portly",
      "mutations": [
        {
          "filter": "mariner.crew",
          "mutate": "mariner.crew.traits.portly",
          "level": 1
        }
      ],
      "linked": [
        {
          "id": "mariner.assigntraitstocrew.end"
        }
      ]
    },
    {
      "id": "mariner.assigntraitstocrew.rightoperand.cosmetic.assign.sallowfaced",
      "mutations": [
        {
          "filter": "mariner.crew",
          "mutate": "mariner.crew.traits.sallowfaced",
          "level": 1
        }
      ],
      "linked": [
        {
          "id": "mariner.assigntraitstocrew.end"
        }
      ]
    },
    {
      "id": "mariner.assigntraitstocrew.rightoperand.cosmetic.assign.short",
      "mutations": [
        {
          "filter": "mariner.crew",
          "mutate": "mariner.crew.traits.short",
          "level": 1
        }
      ],
      "linked": [
        {
          "id": "mariner.assigntraitstocrew.end"
        }
      ]
    },
    {
      "id": "mariner.assigntraitstocrew.rightoperand.cosmetic.assign.silverhaired",
      "mutations": [
        {
          "filter": "mariner.crew",
          "mutate": "mariner.crew.traits.silverhaired",
          "level": 1
        }
      ],
      "linked": [
        {
          "id": "mariner.assigntraitstocrew.end"
        }
      ]
    },
    {
      "id": "mariner.assigntraitstocrew.rightoperand.cosmetic.assign.small",
      "mutations": [
        {
          "filter": "mariner.crew",
          "mutate": "mariner.crew.traits.small",
          "level": 1
        }
      ],
      "linked": [
        {
          "id": "mariner.assigntraitstocrew.end"
        }
      ]
    },
    {
      "id": "mariner.assigntraitstocrew.rightoperand.cosmetic.assign.stout",
      "mutations": [
        {
          "filter": "mariner.crew",
          "mutate": "mariner.crew.traits.stout",
          "level": 1
        }
      ],
      "linked": [
        {
          "id": "mariner.assigntraitstocrew.end"
        }
      ]
    },
    {
      "id": "mariner.assigntraitstocrew.rightoperand.cosmetic.assign.stocky",
      "mutations": [
        {
          "filter": "mariner.crew",
          "mutate": "mariner.crew.traits.stocky",
          "level": 1
        }
      ],
      "linked": [
        {
          "id": "mariner.assigntraitstocrew.end"
        }
      ]
    },
    {
      "id": "mariner.assigntraitstocrew.rightoperand.cosmetic.assign.sunkissed",
      "mutations": [
        {
          "filter": "mariner.crew",
          "mutate": "mariner.crew.traits.sunkissed",
          "level": 1
        }
      ],
      "linked": [
        {
          "id": "mariner.assigntraitstocrew.end"
        }
      ]
    },
    {
      "id": "mariner.assigntraitstocrew.rightoperand.cosmetic.assign.tall",
      "mutations": [
        {
          "filter": "mariner.crew",
          "mutate": "mariner.crew.traits.tall",
          "level": 1
        }
      ],
      "linked": [
        {
          "id": "mariner.assigntraitstocrew.end"
        }
      ]
    },
    {
      "id": "mariner.assigntraitstocrew.rightoperand.cosmetic.assign.tanned",
      "mutations": [
        {
          "filter": "mariner.crew",
          "mutate": "mariner.crew.traits.tanned",
          "level": 1
        }
      ],
      "linked": [
        {
          "id": "mariner.assigntraitstocrew.end"
        }
      ]
    },
    {
      "id": "mariner.assigntraitstocrew.rightoperand.cosmetic.assign.thick",
      "mutations": [
        {
          "filter": "mariner.crew",
          "mutate": "mariner.crew.traits.thick",
          "level": 1
        }
      ],
      "linked": [
        {
          "id": "mariner.assigntraitstocrew.end"
        }
      ]
    },
    {
      "id": "mariner.assigntraitstocrew.rightoperand.cosmetic.assign.toothless",
      "mutations": [
        {
          "filter": "mariner.crew",
          "mutate": "mariner.crew.traits.toothless",
          "level": 1
        }
      ],
      "linked": [
        {
          "id": "mariner.assigntraitstocrew.end"
        }
      ]
    },
    {
      "id": "mariner.assigntraitstocrew.rightoperand.cosmetic.assign.veteran",
      "mutations": [
        {
          "filter": "mariner.crew",
          "mutate": "mariner.crew.traits.veteran",
          "level": 1
        }
      ],
      "linked": [
        {
          "id": "mariner.assigntraitstocrew.end"
        }
      ]
    },
    {
      "id": "mariner.assigntraitstocrew.rightoperand.cosmetic.assign.wellgroomed",
      "mutations": [
        {
          "filter": "mariner.crew",
          "mutate": "mariner.crew.traits.wellgroomed",
          "level": 1
        }
      ],
      "linked": [
        {
          "id": "mariner.assigntraitstocrew.end"
        }
      ]
    },
    {
      "id": "mariner.assigntraitstocrew.rightoperand.cosmetic.assign.wildeyed",
      "mutations": [
        {
          "filter": "mariner.crew",
          "mutate": "mariner.crew.traits.wildeyed",
          "level": 1
        }
      ],
      "linked": [
        {
          "id": "mariner.assigntraitstocrew.end"
        }
      ]
    },
    {
      "id": "mariner.assigntraitstocrew.rightoperand.cosmetic.assign.young",
      "mutations": [
        {
          "filter": "mariner.crew",
          "mutate": "mariner.crew.traits.young",
          "level": 1
        }
      ],
      "linked": [
        {
          "id": "mariner.assigntraitstocrew.end"
        }
      ]
    },
    {
      "id": "mariner.assigntraitstocrew.rightoperand.cosmetic.assign.youthful",
      "mutations": [
        {
          "filter": "mariner.crew",
          "mutate": "mariner.crew.traits.youthful",
          "level": 1
        }
      ],
      "linked": [
        {
          "id": "mariner.assigntraitstocrew.end"
        }
      ]
    },
    {
      "id": "mariner.assigntraitstocrew.rightoperand.cosmetic.assign.slim",
      "mutations": [
        {
          "filter": "mariner.crew",
          "mutate": "mariner.crew.traits.slim",
          "level": 1
        }
      ],
      "linked": [
        {
          "id": "mariner.assigntraitstocrew.end"
        }
      ]
    },
    {
      "id": "mariner.assigntraitstocrew.rightoperand.cosmetic.assign.skinny",
      "mutations": [
        {
          "filter": "mariner.crew",
          "mutate": "mariner.crew.traits.skinny",
          "level": 1
        }
      ],
      "linked": [
        {
          "id": "mariner.assigntraitstocrew.end"
        }
      ]
    },
    {
      "id": "mariner.assigntraitstocrew.rightoperand.cosmetic.assign.pimpled",
      "mutations": [
        {
          "filter": "mariner.crew",
          "mutate": "mariner.crew.traits.pimpled",
          "level": 1
        }
      ],
      "linked": [
        {
          "id": "mariner.assigntraitstocrew.end"
        }
      ]
    },
    {
      "id": "mariner.assigntraitstocrew.rightoperand.cosmetic.assign.pockmarked",
      "mutations": [
        {
          "filter": "mariner.crew",
          "mutate": "mariner.crew.traits.pockmarked",
          "level": 1
        }
      ],
      "linked": [
        {
          "id": "mariner.assigntraitstocrew.end"
        }
      ]
    },
    {
      "id": "mariner.assigntraitstocrew.rightoperand.cosmetic.assign.scarred",
      "mutations": [
        {
          "filter": "mariner.crew",
          "mutate": "mariner.crew.traits.scarred",
          "level": 1
        }
      ],
      "linked": [
        {
          "id": "mariner.assigntraitstocrew.end"
        }
      ]
    },
    {
      "id": "mariner.assigntraitstocrew.rightoperand.cosmetic.assign.wellbuilt",
      "mutations": [
        {
          "filter": "mariner.crew",
          "mutate": "mariner.crew.traits.wellbuilt",
          "level": 1
        }
      ],
      "linked": [
        {
          "id": "mariner.assigntraitstocrew.end"
        }
      ]
    },
    {
      "id": "mariner.assigntraitstocrew.rightoperand.cosmetic.assign.frail",
      "mutations": [
        {
          "filter": "mariner.crew",
          "mutate": "mariner.crew.traits.frail",
          "level": 1
        }
      ],
      "linked": [
        {
          "id": "mariner.assigntraitstocrew.end"
        }
      ]
    },
    {
      "id": "mariner.assigntraitstocrew.rightoperand.cosmetic.assign.pudgy",
      "mutations": [
        {
          "filter": "mariner.crew",
          "mutate": "mariner.crew.traits.pudgy",
          "level": 1
        }
      ],
      "linked": [
        {
          "id": "mariner.assigntraitstocrew.end"
        }
      ]
    },
    {
      "id": "mariner.assigntraitstocrew.rightoperand.cosmetic.assign.skeletal",
      "mutations": [
        {
          "filter": "mariner.crew",
          "mutate": "mariner.crew.traits.skeletal",
          "level": 1
        }
      ],
      "linked": [
        {
          "id": "mariner.assigntraitstocrew.end"
        }
      ]
    },
    {
      "id": "mariner.assigntraitstocrew.rightoperand.cosmetic.assign.towering",
      "mutations": [
        {
          "filter": "mariner.crew",
          "mutate": "mariner.crew.traits.towering",
          "level": 1
        }
      ],
      "linked": [
        {
          "id": "mariner.assigntraitstocrew.end"
        }
      ]
    },
    {
      "id": "mariner.assigntraitstocrew.rightoperand.cosmetic.assign.tiny",
      "mutations": [
        {
          "filter": "mariner.crew",
          "mutate": "mariner.crew.traits.tiny",
          "level": 1
        }
      ],
      "linked": [
        {
          "id": "mariner.assigntraitstocrew.end"
        }
      ]
    },
    {
      "id": "mariner.assigntraitstocrew.rightoperand.cosmetic.assign.jaundiced",
      "mutations": [
        {
          "filter": "mariner.crew",
          "mutate": "mariner.crew.traits.jaundiced",
          "level": 1
        }
      ],
      "linked": [
        {
          "id": "mariner.assigntraitstocrew.end"
        }
      ]
    },
    {
      "id": "mariner.assigntraitstocrew.rightoperand.cosmetic.assign.wrinkled",
      "mutations": [
        {
          "filter": "mariner.crew",
          "mutate": "mariner.crew.traits.wrinkled",
          "level": 1
        }
      ],
      "linked": [
        {
          "id": "mariner.assigntraitstocrew.end"
        }
      ]
    },
    {
      "id": "mariner.assigntraitstocrew.rightoperand.cosmetic.assign.dewey",
      "mutations": [
        {
          "filter": "mariner.crew",
          "mutate": "mariner.crew.traits.dewey",
          "level": 1
        }
      ],
      "linked": [
        {
          "id": "mariner.assigntraitstocrew.end"
        }
      ]
    },
    {
      "id": "mariner.assigntraitstocrew.rightoperand.cosmetic.assign.oily",
      "mutations": [
        {
          "filter": "mariner.crew",
          "mutate": "mariner.crew.traits.oily",
          "level": 1
        }
      ],
      "linked": [
        {
          "id": "mariner.assigntraitstocrew.end"
        }
      ]
    },
    {
      "id": "mariner.assigntraitstocrew.rightoperand.cosmetic.assign.cracked",
      "mutations": [
        {
          "filter": "mariner.crew",
          "mutate": "mariner.crew.traits.cracked",
          "level": 1
        }
      ],
      "linked": [
        {
          "id": "mariner.assigntraitstocrew.end"
        }
      ]
    },
    {
      "id": "mariner.assigntraitstocrew.rightoperand.cosmetic.assign.dirty",
      "mutations": [
        {
          "filter": "mariner.crew",
          "mutate": "mariner.crew.traits.dirty",
          "level": 1
        }
      ],
      "linked": [
        {
          "id": "mariner.assigntraitstocrew.end"
        }
      ]
    },
    {
      "id": "mariner.assigntraitstocrew.rightoperand.cosmetic.assign.clean",
      "mutations": [
        {
          "filter": "mariner.crew",
          "mutate": "mariner.crew.traits.clean",
          "level": 1
        }
      ],
      "linked": [
        {
          "id": "mariner.assigntraitstocrew.end"
        }
      ]
    },
    {
      "id": "mariner.assigntraitstocrew.rightoperand.cosmetic.assign.rough",
      "mutations": [
        {
          "filter": "mariner.crew",
          "mutate": "mariner.crew.traits.rough",
          "level": 1
        }
      ],
      "linked": [
        {
          "id": "mariner.assigntraitstocrew.end"
        }
      ]
    },
    {
      "id": "mariner.assigntraitstocrew.rightoperand.cosmetic.assign.smooth",
      "mutations": [
        {
          "filter": "mariner.crew",
          "mutate": "mariner.crew.traits.smooth",
          "level": 1
        }
      ],
      "linked": [
        {
          "id": "mariner.assigntraitstocrew.end"
        }
      ]
    },
    {
      "id": "mariner.assigntraitstocrew.rightoperand.cosmetic.assign.bushybrowed",
      "mutations": [
        {
          "filter": "mariner.crew",
          "mutate": "mariner.crew.traits.bushybrowed",
          "level": 1
        }
      ],
      "linked": [
        {
          "id": "mariner.assigntraitstocrew.end"
        }
      ]
    },
    {
      "id": "mariner.assigntraitstocrew.rightoperand.cosmetic.assign.hawknosed",
      "mutations": [
        {
          "filter": "mariner.crew",
          "mutate": "mariner.crew.traits.hawknosed",
          "level": 1
        }
      ],
      "linked": [
        {
          "id": "mariner.assigntraitstocrew.end"
        }
      ]
    },
    {
      "id": "mariner.assigntraitstocrew.rightoperand.cosmetic.assign.brutish",
      "mutations": [
        {
          "filter": "mariner.crew",
          "mutate": "mariner.crew.traits.brutish",
          "level": 1
        }
      ],
      "linked": [
        {
          "id": "mariner.assigntraitstocrew.end"
        }
      ]
    },
    {
      "id": "mariner.assigntraitstocrew.rightoperand.cosmetic.assign.unassuming",
      "mutations": [
        {
          "filter": "mariner.crew",
          "mutate": "mariner.crew.traits.unassuming",
          "level": 1
        }
      ],
      "linked": [
        {
          "id": "mariner.assigntraitstocrew.end"
        }
      ]
    },
    {
      "id": "mariner.assigntraitstocrew.rightoperand.cosmetic.assign.cultured",
      "mutations": [
        {
          "filter": "mariner.crew",
          "mutate": "mariner.crew.traits.cultured",
          "level": 1
        }
      ],
      "linked": [
        {
          "id": "mariner.assigntraitstocrew.end"
        }
      ]
    },
    {
      "id": "mariner.assigntraitstocrew.rightoperand.cosmetic.assign.fashionable",
      "mutations": [
        {
          "filter": "mariner.crew",
          "mutate": "mariner.crew.traits.fashionable",
          "level": 1
        }
      ],
      "linked": [
        {
          "id": "mariner.assigntraitstocrew.end"
        }
      ]
    },
    {
      "id": "mariner.assigntraitstocrew.rightoperand.cosmetic.assign.westislander",
      "mutations": [
        {
          "filter": "mariner.crew",
          "mutate": "mariner.crew.traits.westislander",
          "level": 1
        }
      ],
      "linked": [
        {
          "id": "mariner.assigntraitstocrew.end"
        }
      ]
    },
    {
      "id": "mariner.assigntraitstocrew.rightoperand.cosmetic.assign.channelborn",
      "mutations": [
        {
          "filter": "mariner.crew",
          "mutate": "mariner.crew.traits.channelborn",
          "level": 1
        }
      ],
      "linked": [
        {
          "id": "mariner.assigntraitstocrew.end"
        }
      ]
    },
    {
      "id": "mariner.assigntraitstocrew.rightoperand.cosmetic.assign.mainlander",
      "mutations": [
        {
          "filter": "mariner.crew",
          "mutate": "mariner.crew.traits.mainlander",
          "level": 1
        }
      ],
      "linked": [
        {
          "id": "mariner.assigntraitstocrew.end"
        }
      ]
    },
    {
      "id": "mariner.assigntraitstocrew.rightoperand.cosmetic.assign.northerner",
      "mutations": [
        {
          "filter": "mariner.crew",
          "mutate": "mariner.crew.traits.northerner",
          "level": 1
        }
      ],
      "linked": [
        {
          "id": "mariner.assigntraitstocrew.end"
        }
      ]
    },
    {
      "id": "mariner.assigntraitstocrew.rightoperand.cosmetic.assign.cityslicker",
      "mutations": [
        {
          "filter": "mariner.crew",
          "mutate": "mariner.crew.traits.cityslicker",
          "level": 1
        }
      ],
      "linked": [
        {
          "id": "mariner.assigntraitstocrew.end"
        }
      ]
    },
    {
      "id": "mariner.assigntraitstocrew.rightoperand.cosmetic.assign.freshfaced",
      "mutations": [
        {
          "filter": "mariner.crew",
          "mutate": "mariner.crew.traits.freshfaced",
          "level": 1
        }
      ],
      "linked": [
        {
          "id": "mariner.assigntraitstocrew.end"
        }
      ]
    },
    {
      "id": "mariner.assigntraitstocrew.rightoperand.cosmetic.assign.seasoned",
      "mutations": [
        {
          "filter": "mariner.crew",
          "mutate": "mariner.crew.traits.seasoned",
          "level": 1
        }
      ],
      "linked": [
        {
          "id": "mariner.assigntraitstocrew.end"
        }
      ]
    },
    {
      "id": "mariner.assigntraitstocrew.rightoperand.cosmetic.assign.eastcoast",
      "mutations": [
        {
          "filter": "mariner.crew",
          "mutate": "mariner.crew.traits.eastcoast",
          "level": 1
        }
      ],
      "linked": [
        {
          "id": "mariner.assigntraitstocrew.end"
        }
      ]
    },
    {
      "id": "mariner.assigntraitstocrew.rightoperand.cosmetic.assign.provincial",
      "mutations": [
        {
          "filter": "mariner.crew",
          "mutate": "mariner.crew.traits.provincial",
          "level": 1
        }
      ],
      "linked": [
        {
          "id": "mariner.assigntraitstocrew.end"
        }
      ]
    },
    {
      "id": "mariner.assigntraitstocrew.rightoperand.cosmetic.assign.heavilyaccented",
      "mutations": [
        {
          "filter": "mariner.crew",
          "mutate": "mariner.crew.traits.heavilyaccented",
          "level": 1
        }
      ],
      "linked": [
        {
          "id": "mariner.assigntraitstocrew.end"
        }
      ]
    },
    {
      "id": "mariner.assigntraitstocrew.rightoperand.cosmetic.assign.wellspoken",
      "mutations": [
        {
          "filter": "mariner.crew",
          "mutate": "mariner.crew.traits.wellspoken",
          "level": 1
        }
      ],
      "linked": [
        {
          "id": "mariner.assigntraitstocrew.end"
        }
      ]
    },
    {
      "id": "mariner.assigntraitstocrew.rightoperand.cosmetic.assign.unblinking",
      "mutations": [
        {
          "filter": "mariner.crew",
          "mutate": "mariner.crew.traits.unblinking",
          "level": 1
        }
      ],
      "linked": [
        {
          "id": "mariner.assigntraitstocrew.end"
        }
      ]
    }
  ]
}