{
    "recipes": [
        {
            "id": "mariner.tide.defaulttideatsea",
            "actionId": "time",
            "label": "The Tide Comes In",
            "description": "Time and Tide wait for no man.",
            "warmup": 60,
            "extantreqs": {
                "mariner.atsea": 1
            },
            "linked": [
                {
                    "id": "mariner.tide.postevent"
                }
            ]
        }
    ]
}