{
  "recipes": [
    {
      "id": "mariner.tide.suspicion",
      "label": "The Rising Tides",
      "description": "In all situations, the stakes rise. I may not be welcome here much longer.",
      "actionId": "mariner.haltable.suspicion",
      "linked": [
        {
          "id": "mariner.suspicion.grabnotoriety"
        }
      ]
    }
  ]
}