{
  "recipes": [
    {
      "id": "mariner.wanderingevents.special.start.medsea.quest.bewitch.stormbreak",
      "label": "Storm Breaks",
      "tablereqs": {
        "mariner.weathermeta.windy": 1,
        "mariner.weathermeta.rainy": 1,
        "mariner.locations.medsea.marseille": 1
      },
      "grandReqs": {
        "root/mariner.globalflags.quest.bewitch.ozone": 1,
        "root/mariner.globalflags.quest.bewitch.stormbreaks": -1
      },
      "description": "Arguments break out, neighbors bicker as the mountain thunder fires like artillery, workers riot in the streets. The national guard, pushed back to their holds, threatens much violence and performs more still. And somewhere in all that confusion, no doubt one man is accomplishing all of his dealings. Whatever those might be, I hope he is satisfied.",
      "effects": {
        "mariner.experiences.rattling": 1
      },
      "furthermore": {
        "target": "~/visible",
        "aspects": {
          "mariner.questsignal.bewitch.applyupdate.stormbreaks": 1
        }
      }
    }
  ]
}