{
  "recipes": [
    {
      "id": "mariner.tradestory.constantinople.constantinopletheater",
      "craftable": true,
      "actionId": "mariner.navigate",
      "requirements": {
        "mariner.locations.medsea.constantinople.constantinopletheater": 1,
        "mariner.story": 1
      },
      "label": "Trade Stories in the Café Nocturne",
      "startdescription": "<The Café has been a meeting ground for over half a century, where Armenians, Greeks and Italians have been trading stories, scripts and books with the Kurds and the Turks since the time of the Empire.>",
      "warmup": 20,
      "description": "<In the streets, no turkish citizen is allowed to speak anything but turkish, but here, where the crowd is so rich with foreigners and their foreign tongues, some locals to unlatch their ancestral tongues.>",
      "furthermore": [
        {
          "aspects": {
            "mariner.signal.exhauststory": 1
          }
        },
        {
          "effects": {
            "mariner.stories.constantinople.constantinopletheater": 1
          }
        }
      ]
    }
  ]
}