{
  "recipes": [
    {
      "id": "mariner.performances.heart.hint",
      "label": "Hint: A Sustaining Performance: Not Enough!",
      "startdescription": "There is something here, but I cannot quite reach it. If I could stage a performance with a stronger tie to Heart.",
      "actionid": "mariner.sing",
      "hintOnly": true,
      "requirements": {
        "mariner.theater": 1,
        "mariner.song.heart": 1,
        "heart": -4
      }
    },
    {
      "id": "mariner.performances.heart.start",
      "previewLabel": " Start A Performance of Heart",
      "previewDescription": "This performance will not be complete before the audience joins in. together we can sustain the energy of this show until the stars flicker out again, and we can sustain whatever other things I may desire too ",
      "label": "Perform a Show laced with the Intent of Heart",
      "startdescription": "Halfway through the performance, the first audience member joined in with the chorus. Now, we all sing with one voice, with no edge between one voice and the next.",
      "warmup": 10,
      "actionId": "mariner.sing",
      "craftable": true,
      "requirements": {
        "mariner.theater": 1,
        "mariner.song.heart": 1,
        "heart": 4
      },
      "aspects": {
        "mariner.signal.performing": 1
      },
      "linked": [
        {
          "id": "mariner.performances.heart.addnoun"
        }
      ]
    },
    {
      "id": "mariner.performances.heart.addnoun",
      "warmup": 20,
      "startdescription": "Now comes the time for me to channel this energy into whatever target I desire.",
      "slots": [
        {
          "id": "noun",
          "label": "Direction",
          "description": "Now that my Intent is set, I have to set my Direction. What do I wish to affect?",
          "required": {
            "mariner.song": 1
          }
        }
      ],
      "aspects": {
        "mariner.signal.performing": 1
      },
      "linked": [
        {
          "id": "mariner.performances.heart.lantern"
        },
        {
          "id": "mariner.performances.heart.forge"
        },
        {
          "id": "mariner.performances.heart.edge"
        },
        {
          "id": "mariner.performances.heart.winter"
        },
        {
          "id": "mariner.performances.heart.grail"
        },
        {
          "id": "mariner.performances.heart.moth"
        },
        {
          "id": "mariner.performances.heart.knock"
        },
        {
          "id": "mariner.performances.failure"
        }
      ]
    },
    {
      "id": "mariner.performances.heart.lantern",
      "requirements": {
        "mariner.song.heart": 1,
        "mariner.song.lantern": 1
      },
      "aspects": {
        "mariner.signal.performing": 1
      },
      "linked": [
        {
          "id": "mariner.performances.failure",
          "chance": "45 + ((Min([heart], [lantern]) + Round(Abs([heart]-[lantern])/2)) * 50) / 20"
        },
        {
          "id": "mariner.performances.failure"
        }
      ]
    },
    {
      "id": "mariner.performances.heart.forge",
      "requirements": {
        "mariner.song.heart": 1,
        "mariner.song.forge": 1
      },
      "aspects": {
        "mariner.signal.performing": 1
      },
      "linked": [
        {
          "id": "mariner.performances.failure",
          "chance": "45 + ((Min([heart], [forge]) + Round(Abs([heart]-[forge])/2)) * 50) / 20"
        },
        {
          "id": "mariner.performances.failure"
        }
      ]
    },
    {
      "id": "mariner.performances.heart.edge",
      "requirements": {
        "mariner.song.heart": 1,
        "mariner.song.edge": 1
      },
      "aspects": {
        "mariner.signal.performing": 1
      },
      "linked": [
        {
          "id": "mariner.performances.failure",
          "chance": "45 + ((Min([heart], [edge]) + Round(Abs([heart]-[edge])/2)) * 50) / 20"
        },
        {
          "id": "mariner.performances.failure"
        }
      ]
    },
    {
      "id": "mariner.performances.heart.winter",
      "requirements": {
        "mariner.song.heart": 1,
        "mariner.song.winter": 1
      },
      "aspects": {
        "mariner.signal.performing": 1
      },
      "linked": [
        {
          "id": "mariner.performances.failure",
          "chance": "45 + ((Min([heart], [winter]) + Round(Abs([heart]-[winter])/2)) * 50) / 20"
        },
        {
          "id": "mariner.performances.failure"
        }
      ]
    },
    {
      "id": "mariner.performances.heart.grail",
      "requirements": {
        "mariner.song.heart": 1,
        "mariner.song.grail": 1
      },
      "aspects": {
        "mariner.signal.performing": 1
      },
      "linked": [
        {
          "id": "mariner.performances.failure",
          "chance": "45 + ((Min([heart], [grail]) + Round(Abs([heart]-[grail])/2)) * 50) / 20"
        },
        {
          "id": "mariner.performances.failure"
        }
      ]
    },
    {
      "id": "mariner.performances.heart.moth",
      "requirements": {
        "mariner.song.heart": 1,
        "mariner.song.moth": 1
      },
      "aspects": {
        "mariner.signal.performing": 1
      },
      "linked": [
        {
          "id": "mariner.performances.failure",
          "chance": "45 + ((Min([heart], [moth]) + Round(Abs([heart]-[moth])/2)) * 50) / 20"
        },
        {
          "id": "mariner.performances.failure"
        }
      ]
    },
    {
      "id": "mariner.performances.heart.knock",
      "requirements": {
        "mariner.song.heart": 1,
        "mariner.song.knock": 1
      },
      "aspects": {
        "mariner.signal.performing": 1
      },
      "linked": [
        {
          "id": "mariner.performances.failure",
          "chance": "45 + ((Min([heart], [knock]) + Round(Abs([heart]-[knock])/2)) * 50) / 20"
        },
        {
          "id": "mariner.performances.failure"
        }
      ]
    }
  ]
}