{
  "recipes": [
    {
      "id": "mariner.performances.winter.hint",
      "label": "Hint: A Quieting Performance: Not Enough!",
      "startdescription": "There is something here, but I cannot quite reach it. If I could stage a performance with a stronger tie to Winter.",
      "actionid": "mariner.sing",
      "hintOnly": true,
      "requirements": {
        "mariner.theater": 1,
        "mariner.song.winter": 1,
        "winter": -4
      }
    },
    {
      "id": "mariner.performances.winter.start",
      "previewLabel": " Start A Performance of Winter",
      "previewDescription": "I could plan a performance where the theater goes completely quiet. if the audience shivers or weeps, they dare not do so out loud.  With this performance I can quiet one of the stains upon the canvas of the world.",
      "label": "Perform a Show laced with the Intent of Winter",
      "startdescription": "These performances have two outcomes, I have been told. Some audience members weep silently, but many feel numb, as if their soul is smothered by the white weight of snow.",
      "warmup": 10,
      "actionId": "mariner.sing",
      "craftable": true,
      "requirements": {
        "mariner.theater": 1,
        "mariner.song.winter": 1,
        "winter": 4
      },
      "aspects": {
        "mariner.signal.performing": 1
      },
      "linked": [
        {
          "id": "mariner.performances.winter.addnoun"
        }
      ]
    },
    {
      "id": "mariner.performances.winter.addnoun",
      "warmup": 20,
      "startdescription": "Now comes the time for me to channel this energy into whatever target I desire.",
      "slots": [
        {
          "id": "noun",
          "label": "Direction",
          "description": "Now that my Intent is set, I have to set my Direction. What do I wish to affect?",
          "required": {
            "mariner.song": 1
          }
        }
      ],
      "aspects": {
        "mariner.signal.performing": 1
      },
      "linked": [
        {
          "id": "mariner.performances.winter.lantern"
        },
        {
          "id": "mariner.performances.winter.forge"
        },
        {
          "id": "mariner.performances.winter.edge"
        },
        {
          "id": "mariner.performances.winter.heart"
        },
        {
          "id": "mariner.performances.winter.grail"
        },
        {
          "id": "mariner.performances.winter.moth"
        },
        {
          "id": "mariner.performances.winter.knock"
        },
        {
          "id": "mariner.performances.failure"
        }
      ]
    },
    {
      "id": "mariner.performances.winter.lantern",
      "requirements": {
        "mariner.song.winter": 1,
        "mariner.song.lantern": 1
      },
      "aspects": {
        "mariner.signal.performing": 1
      },
      "linked": [
        {
          "id": "mariner.performances.winter.lantern.success.1",
          "chance": "45 + ((Min([winter], [lantern]) + Round(Abs([winter]-[lantern])/2)) * 50) / 20"
        },
        {
          "id": "mariner.performances.failure"
        }
      ]
    },
    {
      "id": "mariner.performances.winter.lantern.success.1",
      "label": "No magick here!",
      "startdescription": "No magick here!",
      "warmup": 30,
      "aspects": {
        "mariner.signal.performing": 1
      },
      "linked": [
        {
          "id": "mariner.performances.cleartrauma"
        }
      ]
    },
    {
      "id": "mariner.performances.winter.forge",
      "requirements": {
        "mariner.song.winter": 1,
        "mariner.song.forge": 1
      },
      "aspects": {
        "mariner.signal.performing": 1
      },
      "linked": [
        {
          "id": "mariner.performances.failure",
          "chance": "45 + ((Min([winter], [forge]) + Round(Abs([winter]-[forge])/2)) * 50) / 20"
        },
        {
          "id": "mariner.performances.failure"
        }
      ]
    },
    {
      "id": "mariner.performances.winter.edge",
      "requirements": {
        "mariner.song.winter": 1,
        "mariner.song.edge": 1
      },
      "aspects": {
        "mariner.signal.performing": 1
      },
      "linked": [
        {
          "id": "mariner.performances.failure",
          "chance": "45 + ((Min([winter], [edge]) + Round(Abs([winter]-[edge])/2)) * 50) / 20"
        },
        {
          "id": "mariner.performances.failure"
        }
      ]
    },
    {
      "id": "mariner.performances.winter.heart",
      "requirements": {
        "mariner.song.winter": 1,
        "mariner.song.heart": 1
      },
      "aspects": {
        "mariner.signal.performing": 1
      },
      "linked": [
        {
          "id": "mariner.performances.winter.heart.success.1",
          "chance": "45 + ((Min([winter], [heart]) + Round(Abs([winter]-[heart])/2)) * 50) / 20"
        },
        {
          "id": "mariner.performances.failure"
        }
      ]
    },
    {
      "id": "mariner.performances.winter.heart.success.1",
      "label": "Today We Mourn",
      "startdescription": "Quiet the clocks, stops the gallows swinging<br>Shutter the windows, still the bells a-ringing<br>Today we mourn a king<br><br>Freeze the forests, break the waves to mirrors flat<br>Shroud the sky, veil the sun in pale regret<br>Today we mourn the oldest king<br>",
      "warmup": 20,
      "aspects": {
        "mariner.signal.performing": 1
      },
      "linked": [
        {
          "id": "mariner.performances.winter.heart.success.2"
        }
      ]
    },
    {
      "id": "mariner.performances.winter.heart.success.2",
      "label": "Today We Mourn",
      "startdescription": "No more shall the forest rustle, no more shall the mountains quake<br> No more shall he set the reeds a shiver, no more plains shall rumble in his wake<br><br>Quell the usurpers rumble<br>Let not a single fall leave tumble<br>Today we mark a loss the world has had<br>For the thunderking is dead",
      "warmup": 20,
      "aspects": {
        "mariner.signal.performing": 1
      },
      "linked": [
        {
          "id": "mariner.performances.quellweather"
        }
      ]
    },
    {
      "id": "mariner.performances.winter.grail",
      "requirements": {
        "mariner.song.winter": 1,
        "mariner.song.grail": 1
      },
      "aspects": {
        "mariner.signal.performing": 1
      },
      "linked": [
        {
          "id": "mariner.performances.failure",
          "chance": "45 + ((Min([winter], [grail]) + Round(Abs([winter]-[grail])/2)) * 50) / 20"
        },
        {
          "id": "mariner.performances.failure"
        }
      ]
    },
    {
      "id": "mariner.performances.winter.moth",
      "requirements": {
        "mariner.song.winter": 1,
        "mariner.song.moth": 1
      },
      "aspects": {
        "mariner.signal.performing": 1
      },
      "linked": [
        {
          "id": "mariner.performances.winter.moth.success.1",
          "chance": "45 + ((Min([winter], [moth]) + Round(Abs([winter]-[moth])/2)) * 50) / 20"
        },
        {
          "id": "mariner.performances.failure"
        }
      ]
    },
    {
      "id": "mariner.performances.winter.moth.success.1",
      "label": "Yuki to Ame",
      "startdescription": "Snow hides bloodstained earth<br>Or spring showers rinse the soil<br>Both seasons cleanse me",
      "warmup": 30,
      "aspects": {
        "mariner.signal.performing": 1
      },
      "linked": [
        {
          "id": "mariner.performances.stopcurse"
        }
      ]
    },
    {
      "id": "mariner.performances.winter.knock",
      "requirements": {
        "mariner.song.winter": 1,
        "mariner.song.knock": 1
      },
      "aspects": {
        "mariner.signal.performing": 1
      },
      "linked": [
        {
          "id": "mariner.performances.failure",
          "chance": "45 + ((Min([winter], [knock]) + Round(Abs([winter]-[knock])/2)) * 50) / 20"
        },
        {
          "id": "mariner.performances.failure"
        }
      ]
    }
  ]
}