{
    "elements": [
        {
            "id": "mariner.vaults.help",
            "label": "Relevant Help",
            "description": "Sometimes something local may aid in a task. It will not be useful elsewhere.",
            "isAspect": true
        },
        {
            "id": "mariner.vaults.exclusivetask",
            "label": "Undivided Attention Required",
            "description": "Some Tasks require a singular focus. [This task can only be done while not doing anything else, and while doing this task, no other task can be started]",
            "isAspect": true
        },
        {
            "id": "mariner.vaults.event",
            "isAspect": true,
            "isHidden": true
        },
        {
            "id": "mariner.invault",
            "isHidden": true
        },
        {
            "id": "mariner.vault",
            "label": "Adventure",
            "description": "An extraordinary location to explore and plunder.",
            "icon": "vault",
            "isAspect": true
        },
        {
            "id": "mariner.noretreatvault",
            "label": "Fleeting Opportunity",
            "description": "This adventure can not be returned to once I leave.",
            "isAspect": true
        },
        {
            "id": "mariner.destroyonleave",
            "isAspect": true,
            "isHidden": true
        },
        {
            "id": "mariner.shipnameid",
            "isAspect": true,
            "isHidden": true
        },
        {
            "id": "mariner.applyshipname",
            "isAspect": true,
            "isHidden": true
        }
    ]
}