{
  "recipes": [
    {
      "actionId": "explore",
      "craftable": true,
      "id": "mariner.cleanhostile.wharf.pre",
      "label": "Press Gangs",
      "startdescription": "Some harbor press gangs have decided I am no longer welcome to conduct business on their turf. They suggest I leave town, quickly. [Adress this challenge with Forge or Edge.]",
      "warmup": 0,
      "requirements": {
        "mariner.wharf": 1,
        "mariner.location.hostile": 1
      },
      "extantreqs": {},
      "effects": {},
      "linked": [
        {
          "id": "mariner.cleanhostile.wharf"
        }
      ]
    },
    {
      "actionId": "explore",
      "warmup": 0,
      "id": "mariner.cleanhostile.wharf",
      "label": "Press Gangs",
      "startdescription": "Some harbor press gangs have decided I am no longer welcome to conduct business on their turf. They suggest I leave town, quickly. [Adress this challenge with Forge or Edge.]",
      "craftable": false,
      "addCallbacks": {
        "FAIL_CHALLENGE": "mariner.cleanhostile.wharf.failure",
        "SUCCEED_CHALLENGE": "mariner.cleanhostile.wharf.success.expulsewasted"
      },
      "aspects": {
        "mariner.signal.useheart": 1
      },
      "linked": [
        {
          "id": "mariner.challenge.overcome"
        }
      ]
    },
    {
      "id": "mariner.cleanhostile.wharf.success.expulsewasted",
      "actionId": "explore",
      "linked": [
        {
          "id": "mariner.cleanhostile.wharf.success"
        },
        {
          "id": "mariner.cleanhostile.wharf.failure"
        }
      ]
    },
    {
      "id": "mariner.cleanhostile.wharf.success",
      "actionId": "explore",
      "label": "A Show of Strength",
      "description": "I part them like a wave and leave them crawling in my wake.",
      "aspects": {
        "mariner.signal.usetool": 1
      },
      "effects": {}
    },
    {
      "id": "mariner.cleanhostile.wharf.failure",
      "actionId": "explore",
      "label": "Outmuscled",
      "description": "Their wiry, stained overalls form a wall as insurmountable as reinforced concrete. I must retreat, and try again later.",
      "effects": {
        "mariner.notoriety": 1,
        "mariner.signal.useheart": 1
      },
      "aspects": {
        "mariner.signal.misusetool": 1
      }
    }
  ]
}