{
  "recipes": [
    {
      "actionId": "explore",
      "craftable": true,
      "id": "mariner.cleanhostile.theater.pre",
      "label": "Blackened Name",
      "description": "My name is infamous, and staging me might spell more trouble than the theater director thinks is worth. I may be able to convince them that any publicity is good publicity, however.  [Adres this challenge with Grail or Knock.]",
      "warmup": 0,
      "aspects": {
        "mariner.signal.useheart": 1
      },
      "requirements": {
        "mariner.theater": 1,
        "mariner.location.hostile": 1
      },
      "extantreqs": {},
      "effects": {},
      "linked": [
        {
          "id": "mariner.cleanhostile.theater"
        }
      ]
    },
    {
      "actionId": "explore",
      "warmup": 0,
      "id": "mariner.cleanhostile.theater",
      "label": "Blackened Name",
      "description": "My name is infamous, and staging me might spell more trouble than the theater director thinks is worth. I may be able to convince them that any publicity is good publicity, however.  [Adres this challenge with Grail or Knock.]",
      "craftable": false,
      "aspects": {
        "mariner.signal.useheart": 1
      },
      "addCallbacks": {
        "FAIL_CHALLENGE": "mariner.cleanhostile.theater.failure",
        "SUCCEED_CHALLENGE": "mariner.cleanhostile.theater.success.expulsewasted"
      },
      "linked": [
        {
          "id": "mariner.challenge.forked_tongue"
        }
      ]
    },
    {
      "id": "mariner.cleanhostile.theater.success.expulsewasted",
      "actionId": "explore",
      "linked": [
        {
          "id": "mariner.cleanhostile.theater.success"
        },
        {
          "id": "mariner.cleanhostile.theater.failure"
        }
      ]
    },
    {
      "id": "mariner.cleanhostile.theater.success",
      "actionId": "explore",
      "label": "False Witness",
      "description": "we vow to make a show, critiques be damned. the director says they hope they won't regret this. I do not say that I am confident they will",
      "aspects": {
        "mariner.signal.usetool": 1
      },
      "effects": {}
    },
    {
      "id": "mariner.cleanhostile.theater.failure",
      "actionId": "explore",
      "label": "Careful Heads Prefale",
      "description": "\"They regret to inform me\" -Of course, they always regret. \"that they cannot engage me at this moment.\" I am assured that they fully support me, ofcourse, that I simply must return when public opinion has turned.",
      "effects": {
        "mariner.notoriety": 1
      },
      "linked": [
        {
          "id": "mariner.trouble.start"
        }
      ],
      "aspects": {
        "mariner.signal.misusetool": 1
      }
    }
  ]
}