{
  "recipes": [
    {
      "id": "mariner.sing.failure",
      "actionId": "mariner.sing",
      "label": "The Crowd Turns",
      "description": "At first it is slight. People shift on their feet. They eye me, than eachother. They don't know how, but they know they are being duped somehow. Soon the crowd will move against me, and inevitably, the town will follow. They sense the influence I summoned over it.",
      "effects": {
        "mariner.notoriety": 1
      }
    }
  ]
}