{
  "recipes": [
    {
      "id": "mariner.sing.success.grail",
      "actionId": "mariner.sing",
      "label": "A Glamour Woven",
      "startdescription": "When a song is sung right, the world does not stay unchanged. The air has been infused with power, and it clings on me like a perfume."
    },
    {
      "actionId": "mariner.sing",
      "id": "mariner.sing.grail.3.start",
      "craftable": true,
      "requirements": {
        "mariner.crowd": 1,
        "mariner.song.grail": 1,
        "mariner.song.intensity": 3,
        "mariner.location.hostile": -1
      },
      "label": "A Special Song",
      "startdescription": "The second note follows the first, and soon they become more than a sequence of sounds.",
      "warmup": 30,
      "effects": {
        "mariner.influences.grail": "mariner.song.intensity"
      },
      "linked": [
        {
          "id": "mariner.sing.success.grail",
          "chance": 40
        },
        {
          "id": "mariner.sing.failure"
        }
      ]
    },
    {
      "actionId": "mariner.sing",
      "id": "mariner.sing.grail.2.start",
      "craftable": true,
      "requirements": {
        "mariner.crowd": 1,
        "mariner.song.grail": 1,
        "mariner.song.intensity": 2,
        "mariner.location.hostile": -1
      },
      "label": "A Special Song",
      "startdescription": "The second note follows the first, and soon they become more than a sequence of sounds.",
      "warmup": 30,
      "effects": {
        "mariner.influences.grail": "mariner.song.intensity"
      },
      "linked": [
        {
          "id": "mariner.sing.success.grail",
          "chance": 30
        },
        {
          "id": "mariner.sing.failure"
        }
      ]
    },
    {
      "actionId": "mariner.sing",
      "id": "mariner.sing.grail.1.start",
      "craftable": true,
      "requirements": {
        "mariner.crowd": 1,
        "mariner.song.grail": 1,
        "mariner.song.intensity": 1,
        "mariner.location.hostile": -1
      },
      "label": "A Special Song",
      "startdescription": "The second note follows the first, and soon they become more than a sequence of sounds.",
      "warmup": 30,
      "effects": {
        "mariner.influences.grail": "mariner.song.intensity"
      },
      "linked": [
        {
          "id": "mariner.sing.success.grail",
          "chance": 20
        },
        {
          "id": "mariner.sing.failure"
        }
      ]
    }
  ]
}