{
  "elements": [
    {
      "id": "mariner.vaults.bizerta_morgue.threatofdiscovery",
      "label": "Threat of Discovery",
      "description": "We have managed to avoid alerting the local authorities for now, but it is only a matter of time before someone realizes our intent... We better be gone by the time that happens.<br><br>[Any suspicious activity will reduce this countdown.]",
      "lifetime": 1600,
      "aspects": {
        "mariner.local": 1
      },
      "xtriggers": {
        "mariner.vaults.bizerta_morgue.reducetime": {
          "morpheffect": "timespend",
          "useCatalystQuantity": true,
          "level": 60
        }
      },
      "decayTo": "mariner.vaults.bizerta_morgue.alert"
    },
    {
      "id": "mariner.vaults.bizerta_morgue.alert",
      "label": "General Alert",
      "description": "They definitely unmasked us. The dogs are barking and very soon, armed men will rush in and round us up like sheep.",
      "aspects": {
        "mariner.local": 1
      },
      "timers": {
        "spawnauthorities": {
          "frequency": 5000,
          "morpheffects": [
            {
              "morpheffect": "induce",
              "id": "mariner.vaults.bizerta_morgue.roundcrew"
            }
          ]
        }
      }
    },
    {
      "id": "mariner.vaults.bizerta_morgue.corner",
      "icon": "mariner.genericvaulttask",
      "label": "Adjoining Lane",
      "description": "Here, I will pick who comes to infiltrate the location with me, and who doesn't. The larger the crew, the more hands to search the site, but the harder it will be to blend in. They will surely figure us out far quicker if an entire crew barges in, no matter the excuse.",
      "aspects": {
        "mariner.local": 1,
        "mariner.aspects.vaults.bizerta_morgue.layer.street": 1,
        "modded_talk_allowed": 1
      },
      "slots": [
        {
          "id": "crew_1",
          "actionId": "talk",
          "label": "Selected To Infiltrate",
          "description": "This one is participating in infiltration.",
          "required": {
            "mariner.crew": 1
          },
          "forbidden": {
            "mariner.crew.traits.individualistic": 1
          }
        },
        {
          "id": "crew_2",
          "actionId": "talk",
          "label": "Selected To Infiltrate",
          "description": "This one is participating in infiltration.",
          "required": {
            "mariner.crew": 1
          },
          "forbidden": {
            "mariner.crew.traits.individualistic": 1
          }
        },
        {
          "id": "crew_3",
          "actionId": "talk",
          "label": "Selected To Infiltrate",
          "description": "This one is participating in infiltration.",
          "required": {
            "mariner.crew": 1
          },
          "forbidden": {
            "mariner.crew.traits.individualistic": 1
          }
        },
        {
          "id": "crew_4",
          "actionId": "talk",
          "label": "Selected To Infiltrate",
          "description": "This one is participating in infiltration.",
          "required": {
            "mariner.crew": 1
          },
          "forbidden": {
            "mariner.crew.traits.individualistic": 1
          }
        },
        {
          "id": "crew_5",
          "actionId": "talk",
          "label": "Selected To Infiltrate",
          "description": "This one is participating in infiltration.",
          "required": {
            "mariner.crew": 1
          },
          "forbidden": {
            "mariner.crew.traits.individualistic": 1
          }
        },
        {
          "id": "crew_6",
          "actionId": "talk",
          "label": "Selected To Infiltrate",
          "description": "This one is participating in infiltration.",
          "required": {
            "mariner.crew": 1
          },
          "forbidden": {
            "mariner.crew.traits.individualistic": 1
          }
        },
        {
          "id": "crew_7",
          "actionId": "talk",
          "label": "Selected To Infiltrate",
          "description": "This one is participating in infiltration.",
          "required": {
            "mariner.crew": 1
          },
          "forbidden": {
            "mariner.crew.traits.individualistic": 1
          }
        },
        {
          "id": "crew_8",
          "actionId": "talk",
          "label": "Selected To Infiltrate",
          "description": "This one is participating in infiltration.",
          "required": {
            "mariner.crew": 1
          },
          "forbidden": {
            "mariner.crew.traits.individualistic": 1
          }
        },
        {
          "actionId": "talk",
          "id": "talk1",
          "label": "Help",
          "description": "Which implements are available for my approach.",
          "required": {
            "funds": 1,
            "mariner.crew": 1,
            "mariner.song": 1,
            "mariner.tune": 1,
            "mariner.story": 1,
            "mariner.lackheart": 1,
            "mariner.halfheart": 1,
            "mariner.vaults.help": 1
          },
          "forbidden": {
            "mariner.crew.traits.mute": 1,
            "mariner.crew.exhausted": 1
          }
        },
        {
          "actionId": "talk",
          "id": "talk2",
          "label": "Help",
          "description": "Which implements are available for my approach.",
          "required": {
            "funds": 1,
            "mariner.crew": 1,
            "mariner.song": 1,
            "mariner.tune": 1,
            "mariner.story": 1,
            "mariner.lackheart": 1,
            "mariner.halfheart": 1,
            "mariner.vaults.help": 1
          },
          "forbidden": {
            "mariner.crew.traits.mute": 1,
            "mariner.crew.exhausted": 1
          }
        },
        {
          "actionId": "talk",
          "id": "talk3",
          "label": "Help",
          "description": "Which implements are available for my approach.",
          "required": {
            "funds": 1,
            "mariner.crew": 1,
            "mariner.song": 1,
            "mariner.tune": 1,
            "mariner.story": 1,
            "mariner.lackheart": 1,
            "mariner.halfheart": 1,
            "mariner.vaults.help": 1
          },
          "forbidden": {
            "mariner.crew.traits.mute": 1,
            "mariner.crew.exhausted": 1
          }
        }
      ]
    },
    {
      "id": "mariner.vaults.bizerta_morgue.doorman",
      "icon": "mariner.genericvaulttask",
      "label": "Morgue Security Doorman",
      "description": "Standing between us and the building is a sleepy guard. Mid-height, bored to death, and visibly not moving any time soon. Some show of authority could probably make him let us in, at least for a while, until he realises his mistake. Alternatively, we could just dispose of him in a more brutal manner.",
      "aspects": {
        "mariner.local": 1,
        "mariner.aspects.vaults.bizerta_morgue.layer.street": 1,
        "modded_talk_allowed": 1,
        "modded_explore_allowed": 1
      },
      "slots": [
        {
          "actionId": "talk",
          "id": "talk1",
          "label": "Help",
          "description": "Which implements are available for my approach.",
          "required": {
            "funds": 1,
            "mariner.crew": 1,
            "mariner.song": 1,
            "mariner.tune": 1,
            "mariner.story": 1,
            "mariner.lackheart": 1,
            "mariner.halfheart": 1,
            "mariner.vaults.help": 1
          },
          "forbidden": {
            "mariner.crew.traits.mute": 1,
            "mariner.crew.exhausted": 1
          }
        },
        {
          "actionId": "talk",
          "id": "talk2",
          "label": "Help",
          "description": "Which implements are available for my approach.",
          "required": {
            "funds": 1,
            "mariner.crew": 1,
            "mariner.song": 1,
            "mariner.tune": 1,
            "mariner.story": 1,
            "mariner.lackheart": 1,
            "mariner.halfheart": 1,
            "mariner.vaults.help": 1
          },
          "forbidden": {
            "mariner.crew.traits.mute": 1,
            "mariner.crew.exhausted": 1
          }
        },
        {
          "actionId": "talk",
          "id": "talk3",
          "label": "Help",
          "description": "Which implements are available for my approach.",
          "required": {
            "funds": 1,
            "mariner.crew": 1,
            "mariner.song": 1,
            "mariner.tune": 1,
            "mariner.story": 1,
            "mariner.lackheart": 1,
            "mariner.halfheart": 1,
            "mariner.vaults.help": 1
          },
          "forbidden": {
            "mariner.crew.traits.mute": 1,
            "mariner.crew.exhausted": 1
          }
        },
        {
          "actionId": "explore",
          "id": "explore1",
          "label": "Help",
          "description": "Which implements are available for my approach.",
          "required": {
            "funds": 1,
            "mariner.crew": 1,
            "tool": 1,
            "mariner.inspiration.nature": 1,
            "mariner.vaults.help": 1
          },
          "forbidden": {
            "mariner.crew.traits.craven": 1,
            "mariner.crew.exhausted": 1,
            "mariner.tool.broken": 1
          }
        },
        {
          "actionId": "explore",
          "id": "explore2",
          "label": "Help",
          "description": "Which implements are available for my approach.",
          "required": {
            "funds": 1,
            "mariner.crew": 1,
            "tool": 1,
            "mariner.inspiration.nature": 1,
            "mariner.vaults.help": 1
          },
          "forbidden": {
            "mariner.crew.traits.craven": 1,
            "mariner.crew.exhausted": 1,
            "mariner.tool.broken": 1
          }
        },
        {
          "actionId": "explore",
          "id": "explore3",
          "label": "Help",
          "description": "Which implements are available for my approach.",
          "required": {
            "funds": 1,
            "mariner.crew": 1,
            "tool": 1,
            "mariner.inspiration.nature": 1,
            "mariner.vaults.help": 1
          },
          "forbidden": {
            "mariner.crew.traits.craven": 1,
            "mariner.crew.exhausted": 1,
            "mariner.tool.broken": 1
          }
        }
      ]
    },
    {
      "id": "mariner.vaults.bizerta_morgue.body",
      "icon": "mariner.genericvaultitem",
      "label": "Student Exsanguinate: Body",
      "description": "<>",
      "aspects": {}
    },
    {
      "id": "mariner.vaults.bizerta_morgue.casefile",
      "icon": "mariner.genericvaultitem",
      "label": "Student Exsanguinate: Case File",
      "aspects": {}
    },
    {
      "id": "mariner.vaults.bizerta_morgue.authoritytoken",
      "label": "<Authority Token>",
      "aspects": {
        "mariner.local": 1,
        "mariner.vaults.help": 1
      }
    },
    {
      "id": "mariner.vaults.bizerta_morgue.corridors",
      "label": "The Morgue",
      "description": "What looked like a small building on the outside reveals itself as a confusing intrication of small offices, corridors and closets. We will have to blend in, act like we're expected somewhere here, and search each room until we find what we came for.",
      "aspects": {
        "mariner.local": 1,
        "mariner.aspects.vaults.bizerta_morgue.layer.morgue": 1,
        "modded_explore_allowed": 1
      }
    },
    {
      "id": "mariner.vaults.bizerta_morgue.desk1",
      "icon": "mariner.genericvaulttask",
      "label": "Director's Office",
      "description": "Pristine desk, a few notes and files, lots of marine paintings on the wall. The room feels very impersonal, almost unused, despite little plaques on the desk, indicating the director has been managing this morgue for two decades.",
      "aspects": {
        "mariner.local": 1,
        "mariner.aspects.vaults.bizerta_morgue.layer.morgue": 1,
        "modded_explore_allowed": 1
      },
      "slots": [
        {
          "actionId": "explore",
          "id": "explore1",
          "label": "Help",
          "description": "Which implements are available for my approach.",
          "required": {
            "funds": 1,
            "mariner.crew": 1,
            "tool": 1,
            "mariner.inspiration.nature": 1,
            "mariner.vaults.help": 1
          },
          "forbidden": {
            "mariner.crew.traits.craven": 1,
            "mariner.crew.exhausted": 1,
            "mariner.tool.broken": 1
          }
        },
        {
          "actionId": "explore",
          "id": "explore2",
          "label": "Help",
          "description": "Which implements are available for my approach.",
          "required": {
            "funds": 1,
            "mariner.crew": 1,
            "tool": 1,
            "mariner.inspiration.nature": 1,
            "mariner.vaults.help": 1
          },
          "forbidden": {
            "mariner.crew.traits.craven": 1,
            "mariner.crew.exhausted": 1,
            "mariner.tool.broken": 1
          }
        },
        {
          "actionId": "explore",
          "id": "explore3",
          "label": "Help",
          "description": "Which implements are available for my approach.",
          "required": {
            "funds": 1,
            "mariner.crew": 1,
            "tool": 1,
            "mariner.inspiration.nature": 1,
            "mariner.vaults.help": 1
          },
          "forbidden": {
            "mariner.crew.traits.craven": 1,
            "mariner.crew.exhausted": 1,
            "mariner.tool.broken": 1
          }
        }
      ]
    },
    {
      "id": "mariner.vaults.bizerta_morgue.desk2",
      "icon": "mariner.genericvaulttask",
      "label": "Mortician's Office",
      "description": "Freshly painted white walls, devoid of any decoration. And in the air, a discrete fragrance of pinecone. Heavy curtains add to the feeling of entering a solemn shrine.",
      "aspects": {
        "mariner.local": 1,
        "mariner.aspects.vaults.bizerta_morgue.layer.morgue": 1,
        "modded_explore_allowed": 1
      },
      "slots": [
        {
          "actionId": "explore",
          "id": "explore1",
          "label": "Help",
          "description": "Which implements are available for my approach.",
          "required": {
            "funds": 1,
            "mariner.crew": 1,
            "tool": 1,
            "mariner.inspiration.nature": 1,
            "mariner.vaults.help": 1
          },
          "forbidden": {
            "mariner.crew.traits.craven": 1,
            "mariner.crew.exhausted": 1,
            "mariner.tool.broken": 1
          }
        },
        {
          "actionId": "explore",
          "id": "explore2",
          "label": "Help",
          "description": "Which implements are available for my approach.",
          "required": {
            "funds": 1,
            "mariner.crew": 1,
            "tool": 1,
            "mariner.inspiration.nature": 1,
            "mariner.vaults.help": 1
          },
          "forbidden": {
            "mariner.crew.traits.craven": 1,
            "mariner.crew.exhausted": 1,
            "mariner.tool.broken": 1
          }
        },
        {
          "actionId": "explore",
          "id": "explore3",
          "label": "Help",
          "description": "Which implements are available for my approach.",
          "required": {
            "funds": 1,
            "mariner.crew": 1,
            "tool": 1,
            "mariner.inspiration.nature": 1,
            "mariner.vaults.help": 1
          },
          "forbidden": {
            "mariner.crew.traits.craven": 1,
            "mariner.crew.exhausted": 1,
            "mariner.tool.broken": 1
          }
        }
      ]
    },
    {
      "id": "mariner.vaults.bizerta_morgue.desk3",
      "icon": "mariner.genericvaulttask",
      "label": "Clerk's Office",
      "description": "What looks like half the morgue's archive occupies the entire right wall, transforming the already cramped anonymous room into little more than a long closet. Facing it, an old metal desk, extended by cheap plywood side tables. And everywhere, boxes, folders and stamps, contributing to the claustrophobic feeling of the place.",
      "aspects": {
        "mariner.local": 1,
        "mariner.aspects.vaults.bizerta_morgue.layer.morgue": 1,
        "modded_explore_allowed": 1
      },
      "slots": [
        {
          "actionId": "explore",
          "id": "explore1",
          "label": "Help",
          "description": "Which implements are available for my approach.",
          "required": {
            "funds": 1,
            "mariner.crew": 1,
            "tool": 1,
            "mariner.inspiration.nature": 1,
            "mariner.vaults.help": 1
          },
          "forbidden": {
            "mariner.crew.traits.craven": 1,
            "mariner.crew.exhausted": 1,
            "mariner.tool.broken": 1
          }
        },
        {
          "actionId": "explore",
          "id": "explore2",
          "label": "Help",
          "description": "Which implements are available for my approach.",
          "required": {
            "funds": 1,
            "mariner.crew": 1,
            "tool": 1,
            "mariner.inspiration.nature": 1,
            "mariner.vaults.help": 1
          },
          "forbidden": {
            "mariner.crew.traits.craven": 1,
            "mariner.crew.exhausted": 1,
            "mariner.tool.broken": 1
          }
        },
        {
          "actionId": "explore",
          "id": "explore3",
          "label": "Help",
          "description": "Which implements are available for my approach.",
          "required": {
            "funds": 1,
            "mariner.crew": 1,
            "tool": 1,
            "mariner.inspiration.nature": 1,
            "mariner.vaults.help": 1
          },
          "forbidden": {
            "mariner.crew.traits.craven": 1,
            "mariner.crew.exhausted": 1,
            "mariner.tool.broken": 1
          }
        }
      ]
    },
    {
      "id": "mariner.vaults.bizerta_morgue.desk4",
      "icon": "mariner.genericvaulttask",
      "label": "Pathologist' Office",
      "description": "The name on the door is \"Dr. Vasseur\". Inside, a tidy desk takes most of the space. On the wall, reproductions of expensive paintings dress the space. Golden pens, pairs of fancy shoes next to the door, fake classical paintings: the den of a true narcissist.",
      "aspects": {
        "mariner.local": 1,
        "mariner.aspects.vaults.bizerta_morgue.layer.morgue": 1,
        "modded_explore_allowed": 1
      },
      "slots": [
        {
          "actionId": "explore",
          "id": "explore1",
          "label": "Help",
          "description": "Which implements are available for my approach.",
          "required": {
            "funds": 1,
            "mariner.crew": 1,
            "tool": 1,
            "mariner.inspiration.nature": 1,
            "mariner.vaults.help": 1
          },
          "forbidden": {
            "mariner.crew.traits.craven": 1,
            "mariner.crew.exhausted": 1,
            "mariner.tool.broken": 1
          }
        },
        {
          "actionId": "explore",
          "id": "explore2",
          "label": "Help",
          "description": "Which implements are available for my approach.",
          "required": {
            "funds": 1,
            "mariner.crew": 1,
            "tool": 1,
            "mariner.inspiration.nature": 1,
            "mariner.vaults.help": 1
          },
          "forbidden": {
            "mariner.crew.traits.craven": 1,
            "mariner.crew.exhausted": 1,
            "mariner.tool.broken": 1
          }
        },
        {
          "actionId": "explore",
          "id": "explore3",
          "label": "Help",
          "description": "Which implements are available for my approach.",
          "required": {
            "funds": 1,
            "mariner.crew": 1,
            "tool": 1,
            "mariner.inspiration.nature": 1,
            "mariner.vaults.help": 1
          },
          "forbidden": {
            "mariner.crew.traits.craven": 1,
            "mariner.crew.exhausted": 1,
            "mariner.tool.broken": 1
          }
        }
      ]
    },
    {
      "id": "mariner.vaults.bizerta_morgue.desk5",
      "icon": "mariner.genericvaulttask",
      "label": "Pathologist' Office",
      "description": "The name on the door is \"Dr. Mejri\". The place looks like a cramped mess of files, paper stacks, notes. A single desk, barely visible underneath the papers, faces a whiteboard covered in sketches.",
      "aspects": {
        "mariner.local": 1,
        "mariner.aspects.vaults.bizerta_morgue.layer.morgue": 1,
        "modded_explore_allowed": 1
      },
      "slots": [
        {
          "actionId": "explore",
          "id": "explore1",
          "label": "Help",
          "description": "Which implements are available for my approach.",
          "required": {
            "funds": 1,
            "mariner.crew": 1,
            "tool": 1,
            "mariner.inspiration.nature": 1,
            "mariner.vaults.help": 1
          },
          "forbidden": {
            "mariner.crew.traits.craven": 1,
            "mariner.crew.exhausted": 1,
            "mariner.tool.broken": 1
          }
        },
        {
          "actionId": "explore",
          "id": "explore2",
          "label": "Help",
          "description": "Which implements are available for my approach.",
          "required": {
            "funds": 1,
            "mariner.crew": 1,
            "tool": 1,
            "mariner.inspiration.nature": 1,
            "mariner.vaults.help": 1
          },
          "forbidden": {
            "mariner.crew.traits.craven": 1,
            "mariner.crew.exhausted": 1,
            "mariner.tool.broken": 1
          }
        },
        {
          "actionId": "explore",
          "id": "explore3",
          "label": "Help",
          "description": "Which implements are available for my approach.",
          "required": {
            "funds": 1,
            "mariner.crew": 1,
            "tool": 1,
            "mariner.inspiration.nature": 1,
            "mariner.vaults.help": 1
          },
          "forbidden": {
            "mariner.crew.traits.craven": 1,
            "mariner.crew.exhausted": 1,
            "mariner.tool.broken": 1
          }
        }
      ]
    },
    {
      "id": "mariner.vaults.bizerta_morgue.morticianassistant",
      "icon": "mariner.genericvaulttask",
      "label": "Mortician's Assistant",
      "description": "<>",
      "aspects": {
        "mariner.local": 1,
        "mariner.aspects.vaults.bizerta_morgue.layer.morgue": 1,
        "modded_talk_allowed": 1
      },
      "slots": [
        {
          "actionId": "talk",
          "id": "talk1",
          "label": "Help",
          "description": "Which implements are available for my approach.",
          "required": {
            "funds": 1,
            "mariner.crew": 1,
            "mariner.song": 1,
            "mariner.tune": 1,
            "mariner.story": 1,
            "mariner.lackheart": 1,
            "mariner.halfheart": 1,
            "mariner.vaults.help": 1
          },
          "forbidden": {
            "mariner.crew.traits.mute": 1,
            "mariner.crew.exhausted": 1
          }
        },
        {
          "actionId": "talk",
          "id": "talk2",
          "label": "Help",
          "description": "Which implements are available for my approach.",
          "required": {
            "funds": 1,
            "mariner.crew": 1,
            "mariner.song": 1,
            "mariner.tune": 1,
            "mariner.story": 1,
            "mariner.lackheart": 1,
            "mariner.halfheart": 1,
            "mariner.vaults.help": 1
          },
          "forbidden": {
            "mariner.crew.traits.mute": 1,
            "mariner.crew.exhausted": 1
          }
        },
        {
          "actionId": "talk",
          "id": "talk3",
          "label": "Help",
          "description": "Which implements are available for my approach.",
          "required": {
            "funds": 1,
            "mariner.crew": 1,
            "mariner.song": 1,
            "mariner.tune": 1,
            "mariner.story": 1,
            "mariner.lackheart": 1,
            "mariner.halfheart": 1,
            "mariner.vaults.help": 1
          },
          "forbidden": {
            "mariner.crew.traits.mute": 1,
            "mariner.crew.exhausted": 1
          }
        }
      ]
    },
    {
      "id": "mariner.vaults.bizerta_morgue.freezer",
      "icon": "mariner.genericvaulttask",
      "label": "<Freezer and Body on Slate>",
      "description": "<>",
      "aspects": {
        "mariner.local": 1,
        "mariner.aspects.vaults.bizerta_morgue.layer.morgue": 1,
        "modded_explore_allowed": 1
      },
      "slots": [
        {
          "actionId": "explore",
          "id": "explore1",
          "label": "Help",
          "description": "Which implements are available for my approach.",
          "required": {
            "funds": 1,
            "mariner.crew": 1,
            "tool": 1,
            "mariner.inspiration.nature": 1,
            "mariner.vaults.help": 1
          },
          "forbidden": {
            "mariner.crew.traits.craven": 1,
            "mariner.crew.exhausted": 1,
            "mariner.tool.broken": 1
          }
        },
        {
          "actionId": "explore",
          "id": "explore2",
          "label": "Help",
          "description": "Which implements are available for my approach.",
          "required": {
            "funds": 1,
            "mariner.crew": 1,
            "tool": 1,
            "mariner.inspiration.nature": 1,
            "mariner.vaults.help": 1
          },
          "forbidden": {
            "mariner.crew.traits.craven": 1,
            "mariner.crew.exhausted": 1,
            "mariner.tool.broken": 1
          }
        },
        {
          "actionId": "explore",
          "id": "explore3",
          "label": "Help",
          "description": "Which implements are available for my approach.",
          "required": {
            "funds": 1,
            "mariner.crew": 1,
            "tool": 1,
            "mariner.inspiration.nature": 1,
            "mariner.vaults.help": 1
          },
          "forbidden": {
            "mariner.crew.traits.craven": 1,
            "mariner.crew.exhausted": 1,
            "mariner.tool.broken": 1
          }
        }
      ]
    }
  ]
}