{
  "elements": [
    {
      "isAspect": true,
      "id": "mariner.quest",
      "label": "A Thread",
      "description": "A thread to pursue in the tapestry of lives and stories that together weave the world."
    }
  ]
}