{
  "elements": [
    {
      "id": "mariner.weathers.medsea.mist.1",
      "icon": "weathers/mariner.weathers.mist",
      "label": "Mists Muffle",
      "description": "All sounds muffled by a haze of grey.",
      "lifetime": 384,
      "aspects": {
        "mariner.inspiration": 1,
        "mariner.weather": 1,
        "mariner.inspiration.nature": 1,
        "mariner.weathermeta.misty": 1,
        "winter": 4,
        "moth": 4
      },
      "xtriggers": {
        "mariner.signal.forceweatherdecay": [
          {
            "morpheffect": "decay"
          }
        ],
        "mariner.signal.performanceclearweather": "mariner.weathers.medsea.clear.performancespecial",
        "mariner.signal.performancerouseweather": "mariner.weathers.medsea.storm.performancespecial",
        "mariner.signal.channelratssetstorm": "mariner.weathers.medsea.storm.event",
        "mariner.signal.blizzardsetblizzard": "mariner.weathers.medsea.blizzard.event",
        "mariner.signal.borasetseasmoke": "mariner.weathers.medsea.seasmoke.event",
        "mariner.signal.mistralsetwind": "mariner.weathers.medsea.wind.event",
        "mariner.signal.harmattansetsandstorm": "mariner.weathers.medsea.sandstorm.event",
        "mariner.signal.siroccosetsirocco": "mariner.weathers.medsea.sirocco.event",
        "mariner.signal.brumesetnuma": "mariner.weathers.medsea.numa.event",
        "mariner.signal.arriveinsea.northsea": "mariner.weathers.changeto.northsea",
        "mariner.signal.arriveinsea.medsea": "mariner.weathers.changeto.medsea"
      },
      "decayTo": "mariner.weathers.medsea.storm.2"
    },
    {
      "id": "mariner.weathers.medsea.mist.2",
      "icon": "weathers/mariner.weathers.mist",
      "label": "Mists Muffle",
      "description": "All sounds muffled by a haze of grey.",
      "lifetime": 390,
      "aspects": {
        "mariner.inspiration": 1,
        "mariner.weather": 1,
        "mariner.inspiration.nature": 1,
        "mariner.weathermeta.misty": 1,
        "winter": 4,
        "moth": 4
      },
      "xtriggers": {
        "mariner.signal.forceweatherdecay": [
          {
            "morpheffect": "decay"
          }
        ],
        "mariner.signal.performanceclearweather": "mariner.weathers.medsea.clear.performancespecial",
        "mariner.signal.performancerouseweather": "mariner.weathers.medsea.storm.performancespecial",
        "mariner.signal.channelratssetstorm": "mariner.weathers.medsea.storm.event",
        "mariner.signal.blizzardsetblizzard": "mariner.weathers.medsea.blizzard.event",
        "mariner.signal.borasetseasmoke": "mariner.weathers.medsea.seasmoke.event",
        "mariner.signal.mistralsetwind": "mariner.weathers.medsea.wind.event",
        "mariner.signal.harmattansetsandstorm": "mariner.weathers.medsea.sandstorm.event",
        "mariner.signal.siroccosetsirocco": "mariner.weathers.medsea.sirocco.event",
        "mariner.signal.brumesetnuma": "mariner.weathers.medsea.numa.event",
        "mariner.signal.arriveinsea.northsea": "mariner.weathers.changeto.northsea",
        "mariner.signal.arriveinsea.medsea": "mariner.weathers.changeto.medsea"
      },
      "decayTo": "mariner.weathers.medsea.clear.3"
    },
    {
      "id": "mariner.weathers.medsea.rain.1",
      "icon": "weathers/mariner.weathers.rain",
      "label": "The Rain's Patter",
      "description": "The quiet cacophony of rain.",
      "lifetime": 346,
      "aspects": {
        "mariner.inspiration": 1,
        "mariner.weather": 1,
        "mariner.inspiration.nature": 1,
        "mariner.weathermeta.rainy": 1,
        "moth": 4
      },
      "xtriggers": {
        "mariner.signal.forceweatherdecay": [
          {
            "morpheffect": "decay"
          }
        ],
        "mariner.signal.performanceclearweather": "mariner.weathers.medsea.clear.performancespecial",
        "mariner.signal.performancerouseweather": "mariner.weathers.medsea.storm.performancespecial",
        "mariner.signal.channelratssetstorm": "mariner.weathers.medsea.storm.event",
        "mariner.signal.blizzardsetblizzard": "mariner.weathers.medsea.blizzard.event",
        "mariner.signal.borasetseasmoke": "mariner.weathers.medsea.seasmoke.event",
        "mariner.signal.mistralsetwind": "mariner.weathers.medsea.wind.event",
        "mariner.signal.harmattansetsandstorm": "mariner.weathers.medsea.sandstorm.event",
        "mariner.signal.siroccosetsirocco": "mariner.weathers.medsea.sirocco.event",
        "mariner.signal.brumesetnuma": "mariner.weathers.medsea.numa.event",
        "mariner.signal.arriveinsea.northsea": "mariner.weathers.changeto.northsea",
        "mariner.signal.arriveinsea.medsea": "mariner.weathers.changeto.medsea"
      },
      "decayTo": "mariner.weathers.medsea.clear.1"
    },
    {
      "id": "mariner.weathers.medsea.rain.2",
      "icon": "weathers/mariner.weathers.rain",
      "label": "The Rain's Patter",
      "description": "The quiet cacophony of rain.",
      "lifetime": 384,
      "aspects": {
        "mariner.inspiration": 1,
        "mariner.weather": 1,
        "mariner.inspiration.nature": 1,
        "mariner.weathermeta.rainy": 1,
        "moth": 4
      },
      "xtriggers": {
        "mariner.signal.forceweatherdecay": [
          {
            "morpheffect": "decay"
          }
        ],
        "mariner.signal.performanceclearweather": "mariner.weathers.medsea.clear.performancespecial",
        "mariner.signal.performancerouseweather": "mariner.weathers.medsea.storm.performancespecial",
        "mariner.signal.channelratssetstorm": "mariner.weathers.medsea.storm.event",
        "mariner.signal.blizzardsetblizzard": "mariner.weathers.medsea.blizzard.event",
        "mariner.signal.borasetseasmoke": "mariner.weathers.medsea.seasmoke.event",
        "mariner.signal.mistralsetwind": "mariner.weathers.medsea.wind.event",
        "mariner.signal.harmattansetsandstorm": "mariner.weathers.medsea.sandstorm.event",
        "mariner.signal.siroccosetsirocco": "mariner.weathers.medsea.sirocco.event",
        "mariner.signal.brumesetnuma": "mariner.weathers.medsea.numa.event",
        "mariner.signal.arriveinsea.northsea": "mariner.weathers.changeto.northsea",
        "mariner.signal.arriveinsea.medsea": "mariner.weathers.changeto.medsea"
      },
      "decayTo": "mariner.weathers.medsea.hot.2"
    },
    {
      "id": "mariner.weathers.medsea.wind.1",
      "icon": "weathers/mariner.weathers.wind",
      "label": "Winds Whistle",
      "description": "The wind plays the trees, and sings it's own many voiced harmonies.",
      "lifetime": 383,
      "aspects": {
        "mariner.inspiration": 1,
        "mariner.weather": 1,
        "mariner.inspiration.nature": 1,
        "mariner.weathermeta.windy": 1,
        "moth": 4,
        "heart": 4
      },
      "xtriggers": {
        "mariner.signal.forceweatherdecay": [
          {
            "morpheffect": "decay"
          }
        ],
        "mariner.signal.performanceclearweather": "mariner.weathers.medsea.clear.performancespecial",
        "mariner.signal.performancerouseweather": "mariner.weathers.medsea.storm.performancespecial",
        "mariner.signal.channelratssetstorm": "mariner.weathers.medsea.storm.event",
        "mariner.signal.blizzardsetblizzard": "mariner.weathers.medsea.blizzard.event",
        "mariner.signal.borasetseasmoke": "mariner.weathers.medsea.seasmoke.event",
        "mariner.signal.mistralsetwind": "mariner.weathers.medsea.wind.event",
        "mariner.signal.harmattansetsandstorm": "mariner.weathers.medsea.sandstorm.event",
        "mariner.signal.siroccosetsirocco": "mariner.weathers.medsea.sirocco.event",
        "mariner.signal.brumesetnuma": "mariner.weathers.medsea.numa.event",
        "mariner.signal.arriveinsea.northsea": "mariner.weathers.changeto.northsea",
        "mariner.signal.arriveinsea.medsea": "mariner.weathers.changeto.medsea"
      },
      "decayTo": "mariner.weathers.medsea.trade.1"
    },
    {
      "id": "mariner.weathers.medsea.wind.2",
      "icon": "weathers/mariner.weathers.wind",
      "label": "Winds Whistle",
      "description": "The wind plays the trees, and sings it's own many voiced harmonies.",
      "lifetime": 360,
      "aspects": {
        "mariner.inspiration": 1,
        "mariner.weather": 1,
        "mariner.inspiration.nature": 1,
        "mariner.weathermeta.windy": 1,
        "moth": 4,
        "heart": 4
      },
      "xtriggers": {
        "mariner.signal.forceweatherdecay": [
          {
            "morpheffect": "decay"
          }
        ],
        "mariner.signal.performanceclearweather": "mariner.weathers.medsea.clear.performancespecial",
        "mariner.signal.performancerouseweather": "mariner.weathers.medsea.storm.performancespecial",
        "mariner.signal.channelratssetstorm": "mariner.weathers.medsea.storm.event",
        "mariner.signal.blizzardsetblizzard": "mariner.weathers.medsea.blizzard.event",
        "mariner.signal.borasetseasmoke": "mariner.weathers.medsea.seasmoke.event",
        "mariner.signal.mistralsetwind": "mariner.weathers.medsea.wind.event",
        "mariner.signal.harmattansetsandstorm": "mariner.weathers.medsea.sandstorm.event",
        "mariner.signal.siroccosetsirocco": "mariner.weathers.medsea.sirocco.event",
        "mariner.signal.brumesetnuma": "mariner.weathers.medsea.numa.event",
        "mariner.signal.arriveinsea.northsea": "mariner.weathers.changeto.northsea",
        "mariner.signal.arriveinsea.medsea": "mariner.weathers.changeto.medsea"
      },
      "decayTo": "mariner.weathers.medsea.clear.2"
    },
    {
      "id": "mariner.weathers.medsea.storm.1",
      "icon": "weathers/mariner.weathers.storm",
      "label": "A Storm Howls",
      "description": "The sky's drum beats a furious rhythm.",
      "lifetime": 348,
      "aspects": {
        "mariner.inspiration": 1,
        "mariner.weather": 1,
        "mariner.inspiration.nature": 1,
        "mariner.weathermeta.rainy": 1,
        "mariner.weathermeta.windy": 1,
        "mariner.weathermeta.stormy": 1,
        "heart": 4,
        "edge": 4
      },
      "xtriggers": {
        "mariner.signal.forceweatherdecay": [
          {
            "morpheffect": "decay"
          }
        ],
        "mariner.signal.performanceclearweather": "mariner.weathers.medsea.clear.performancespecial",
        "mariner.signal.performancerouseweather": "mariner.weathers.medsea.storm.performancespecial",
        "mariner.signal.channelratssetstorm": "mariner.weathers.medsea.storm.event",
        "mariner.signal.blizzardsetblizzard": "mariner.weathers.medsea.blizzard.event",
        "mariner.signal.borasetseasmoke": "mariner.weathers.medsea.seasmoke.event",
        "mariner.signal.mistralsetwind": "mariner.weathers.medsea.wind.event",
        "mariner.signal.harmattansetsandstorm": "mariner.weathers.medsea.sandstorm.event",
        "mariner.signal.siroccosetsirocco": "mariner.weathers.medsea.sirocco.event",
        "mariner.signal.brumesetnuma": "mariner.weathers.medsea.numa.event",
        "mariner.signal.arriveinsea.northsea": "mariner.weathers.changeto.northsea",
        "mariner.signal.arriveinsea.medsea": "mariner.weathers.changeto.medsea"
      },
      "decayTo": "mariner.weathers.medsea.mist.2"
    },
    {
      "id": "mariner.weathers.medsea.storm.2",
      "icon": "weathers/mariner.weathers.storm",
      "label": "A Storm Howls",
      "description": "The sky's drum beats a furious rhythm.",
      "lifetime": 335,
      "aspects": {
        "mariner.inspiration": 1,
        "mariner.weather": 1,
        "mariner.inspiration.nature": 1,
        "mariner.weathermeta.rainy": 1,
        "mariner.weathermeta.windy": 1,
        "mariner.weathermeta.stormy": 1,
        "heart": 4,
        "edge": 4
      },
      "xtriggers": {
        "mariner.signal.forceweatherdecay": [
          {
            "morpheffect": "decay"
          }
        ],
        "mariner.signal.performanceclearweather": "mariner.weathers.medsea.clear.performancespecial",
        "mariner.signal.performancerouseweather": "mariner.weathers.medsea.storm.performancespecial",
        "mariner.signal.channelratssetstorm": "mariner.weathers.medsea.storm.event",
        "mariner.signal.blizzardsetblizzard": "mariner.weathers.medsea.blizzard.event",
        "mariner.signal.borasetseasmoke": "mariner.weathers.medsea.seasmoke.event",
        "mariner.signal.mistralsetwind": "mariner.weathers.medsea.wind.event",
        "mariner.signal.harmattansetsandstorm": "mariner.weathers.medsea.sandstorm.event",
        "mariner.signal.siroccosetsirocco": "mariner.weathers.medsea.sirocco.event",
        "mariner.signal.brumesetnuma": "mariner.weathers.medsea.numa.event",
        "mariner.signal.arriveinsea.northsea": "mariner.weathers.changeto.northsea",
        "mariner.signal.arriveinsea.medsea": "mariner.weathers.changeto.medsea"
      },
      "decayTo": "mariner.weathers.medsea.storm.1"
    },
    {
      "id": "mariner.weathers.medsea.clear.1",
      "icon": "weathers/mariner.weathers.clear",
      "label": "A Blank Sky",
      "description": "The sky is a patchwork of grey and white and blue, partway between stained vellum and a half-shorn fleece",
      "lifetime": 374,
      "aspects": {
        "mariner.inspiration": 1,
        "mariner.weather": 1,
        "mariner.inspiration.nature": 1,
        "mariner.weathermeta.clear": 1
      },
      "xtriggers": {
        "mariner.signal.forceweatherdecay": [
          {
            "morpheffect": "decay"
          }
        ],
        "mariner.signal.performanceclearweather": "mariner.weathers.medsea.clear.performancespecial",
        "mariner.signal.performancerouseweather": "mariner.weathers.medsea.storm.performancespecial",
        "mariner.signal.channelratssetstorm": "mariner.weathers.medsea.storm.event",
        "mariner.signal.blizzardsetblizzard": "mariner.weathers.medsea.blizzard.event",
        "mariner.signal.borasetseasmoke": "mariner.weathers.medsea.seasmoke.event",
        "mariner.signal.mistralsetwind": "mariner.weathers.medsea.wind.event",
        "mariner.signal.harmattansetsandstorm": "mariner.weathers.medsea.sandstorm.event",
        "mariner.signal.siroccosetsirocco": "mariner.weathers.medsea.sirocco.event",
        "mariner.signal.brumesetnuma": "mariner.weathers.medsea.numa.event",
        "mariner.signal.arriveinsea.northsea": "mariner.weathers.changeto.northsea",
        "mariner.signal.arriveinsea.medsea": "mariner.weathers.changeto.medsea"
      },
      "decayTo": "mariner.weathers.medsea.rain.2"
    },
    {
      "id": "mariner.weathers.medsea.clear.2",
      "icon": "weathers/mariner.weathers.clear",
      "label": "A Blank Sky",
      "description": "The sky is a patchwork of grey and white and blue, partway between stained vellum and a half-shorn fleece",
      "lifetime": 351,
      "aspects": {
        "mariner.inspiration": 1,
        "mariner.weather": 1,
        "mariner.inspiration.nature": 1,
        "mariner.weathermeta.clear": 1
      },
      "xtriggers": {
        "mariner.signal.forceweatherdecay": [
          {
            "morpheffect": "decay"
          }
        ],
        "mariner.signal.performanceclearweather": "mariner.weathers.medsea.clear.performancespecial",
        "mariner.signal.performancerouseweather": "mariner.weathers.medsea.storm.performancespecial",
        "mariner.signal.channelratssetstorm": "mariner.weathers.medsea.storm.event",
        "mariner.signal.blizzardsetblizzard": "mariner.weathers.medsea.blizzard.event",
        "mariner.signal.borasetseasmoke": "mariner.weathers.medsea.seasmoke.event",
        "mariner.signal.mistralsetwind": "mariner.weathers.medsea.wind.event",
        "mariner.signal.harmattansetsandstorm": "mariner.weathers.medsea.sandstorm.event",
        "mariner.signal.siroccosetsirocco": "mariner.weathers.medsea.sirocco.event",
        "mariner.signal.brumesetnuma": "mariner.weathers.medsea.numa.event",
        "mariner.signal.arriveinsea.northsea": "mariner.weathers.changeto.northsea",
        "mariner.signal.arriveinsea.medsea": "mariner.weathers.changeto.medsea"
      },
      "decayTo": "mariner.weathers.medsea.bright.2"
    },
    {
      "id": "mariner.weathers.medsea.clear.3",
      "icon": "weathers/mariner.weathers.clear",
      "label": "A Blank Sky",
      "description": "The sky is a patchwork of grey and white and blue, partway between stained vellum and a half-shorn fleece",
      "lifetime": 338,
      "aspects": {
        "mariner.inspiration": 1,
        "mariner.weather": 1,
        "mariner.inspiration.nature": 1,
        "mariner.weathermeta.clear": 1
      },
      "xtriggers": {
        "mariner.signal.forceweatherdecay": [
          {
            "morpheffect": "decay"
          }
        ],
        "mariner.signal.performanceclearweather": "mariner.weathers.medsea.clear.performancespecial",
        "mariner.signal.performancerouseweather": "mariner.weathers.medsea.storm.performancespecial",
        "mariner.signal.channelratssetstorm": "mariner.weathers.medsea.storm.event",
        "mariner.signal.blizzardsetblizzard": "mariner.weathers.medsea.blizzard.event",
        "mariner.signal.borasetseasmoke": "mariner.weathers.medsea.seasmoke.event",
        "mariner.signal.mistralsetwind": "mariner.weathers.medsea.wind.event",
        "mariner.signal.harmattansetsandstorm": "mariner.weathers.medsea.sandstorm.event",
        "mariner.signal.siroccosetsirocco": "mariner.weathers.medsea.sirocco.event",
        "mariner.signal.brumesetnuma": "mariner.weathers.medsea.numa.event",
        "mariner.signal.arriveinsea.northsea": "mariner.weathers.changeto.northsea",
        "mariner.signal.arriveinsea.medsea": "mariner.weathers.changeto.medsea"
      },
      "decayTo": "mariner.weathers.medsea.wind.1"
    },
    {
      "id": "mariner.weathers.medsea.bright.1",
      "icon": "weathers/mariner.weathers.bright",
      "label": "Bright Day's Bustle",
      "description": "Life inevitably finds its way outside on a lovely day. Its sounds follow.",
      "lifetime": 372,
      "aspects": {
        "mariner.inspiration": 1,
        "mariner.weather": 1,
        "mariner.inspiration.nature": 1,
        "mariner.weathermeta.sunny": 1,
        "mariner.weathermeta.clear": 1,
        "lantern": 4,
        "heart": 4
      },
      "xtriggers": {
        "mariner.signal.forceweatherdecay": [
          {
            "morpheffect": "decay"
          }
        ],
        "mariner.signal.performanceclearweather": "mariner.weathers.medsea.clear.performancespecial",
        "mariner.signal.performancerouseweather": "mariner.weathers.medsea.storm.performancespecial",
        "mariner.signal.channelratssetstorm": "mariner.weathers.medsea.storm.event",
        "mariner.signal.blizzardsetblizzard": "mariner.weathers.medsea.blizzard.event",
        "mariner.signal.borasetseasmoke": "mariner.weathers.medsea.seasmoke.event",
        "mariner.signal.mistralsetwind": "mariner.weathers.medsea.wind.event",
        "mariner.signal.harmattansetsandstorm": "mariner.weathers.medsea.sandstorm.event",
        "mariner.signal.siroccosetsirocco": "mariner.weathers.medsea.sirocco.event",
        "mariner.signal.brumesetnuma": "mariner.weathers.medsea.numa.event",
        "mariner.signal.arriveinsea.northsea": "mariner.weathers.changeto.northsea",
        "mariner.signal.arriveinsea.medsea": "mariner.weathers.changeto.medsea"
      },
      "decayTo": "mariner.weathers.medsea.rain.1"
    },
    {
      "id": "mariner.weathers.medsea.bright.2",
      "icon": "weathers/mariner.weathers.bright",
      "label": "Bright Day's Bustle",
      "description": "Life inevitably finds its way outside on a lovely day. Its sounds follow.",
      "lifetime": 342,
      "aspects": {
        "mariner.inspiration": 1,
        "mariner.weather": 1,
        "mariner.inspiration.nature": 1,
        "mariner.weathermeta.sunny": 1,
        "mariner.weathermeta.clear": 1,
        "lantern": 4,
        "heart": 4
      },
      "xtriggers": {
        "mariner.signal.forceweatherdecay": [
          {
            "morpheffect": "decay"
          }
        ],
        "mariner.signal.performanceclearweather": "mariner.weathers.medsea.clear.performancespecial",
        "mariner.signal.performancerouseweather": "mariner.weathers.medsea.storm.performancespecial",
        "mariner.signal.channelratssetstorm": "mariner.weathers.medsea.storm.event",
        "mariner.signal.blizzardsetblizzard": "mariner.weathers.medsea.blizzard.event",
        "mariner.signal.borasetseasmoke": "mariner.weathers.medsea.seasmoke.event",
        "mariner.signal.mistralsetwind": "mariner.weathers.medsea.wind.event",
        "mariner.signal.harmattansetsandstorm": "mariner.weathers.medsea.sandstorm.event",
        "mariner.signal.siroccosetsirocco": "mariner.weathers.medsea.sirocco.event",
        "mariner.signal.brumesetnuma": "mariner.weathers.medsea.numa.event",
        "mariner.signal.arriveinsea.northsea": "mariner.weathers.changeto.northsea",
        "mariner.signal.arriveinsea.medsea": "mariner.weathers.changeto.medsea"
      },
      "decayTo": "mariner.weathers.medsea.bright.1"
    },
    {
      "id": "mariner.weathers.medsea.sirocco.1",
      "icon": "weathers/mariner.weathers.sirocco",
      "label": "The Whistle Of The Sirocco",
      "description": "The winds flow here mercilesly from where the Sun's rule is still felt most oppressively.",
      "lifetime": 378,
      "aspects": {
        "mariner.inspiration": 1,
        "mariner.weather": 1,
        "mariner.inspiration.nature": 1,
        "mariner.weathermeta.sunny": 1,
        "mariner.weathermeta.windy": 1,
        "forge": 4,
        "lantern": 4
      },
      "xtriggers": {
        "mariner.signal.forceweatherdecay": [
          {
            "morpheffect": "decay"
          }
        ],
        "mariner.signal.performanceclearweather": "mariner.weathers.medsea.clear.performancespecial",
        "mariner.signal.performancerouseweather": "mariner.weathers.medsea.storm.performancespecial",
        "mariner.signal.channelratssetstorm": "mariner.weathers.medsea.storm.event",
        "mariner.signal.blizzardsetblizzard": "mariner.weathers.medsea.blizzard.event",
        "mariner.signal.borasetseasmoke": "mariner.weathers.medsea.seasmoke.event",
        "mariner.signal.mistralsetwind": "mariner.weathers.medsea.wind.event",
        "mariner.signal.harmattansetsandstorm": "mariner.weathers.medsea.sandstorm.event",
        "mariner.signal.siroccosetsirocco": "mariner.weathers.medsea.sirocco.event",
        "mariner.signal.brumesetnuma": "mariner.weathers.medsea.numa.event",
        "mariner.signal.arriveinsea.northsea": "mariner.weathers.changeto.northsea",
        "mariner.signal.arriveinsea.medsea": "mariner.weathers.changeto.medsea"
      },
      "decayTo": "mariner.weathers.medsea.mist.1"
    },
    {
      "id": "mariner.weathers.medsea.sirocco.2",
      "icon": "weathers/mariner.weathers.sirocco",
      "label": "The Whistle Of The Sirocco",
      "description": "The winds flow here mercilesly from where the Sun's rule is still felt most oppressively.",
      "lifetime": 384,
      "aspects": {
        "mariner.inspiration": 1,
        "mariner.weather": 1,
        "mariner.inspiration.nature": 1,
        "mariner.weathermeta.sunny": 1,
        "mariner.weathermeta.windy": 1,
        "forge": 4,
        "lantern": 4
      },
      "xtriggers": {
        "mariner.signal.forceweatherdecay": [
          {
            "morpheffect": "decay"
          }
        ],
        "mariner.signal.performanceclearweather": "mariner.weathers.medsea.clear.performancespecial",
        "mariner.signal.performancerouseweather": "mariner.weathers.medsea.storm.performancespecial",
        "mariner.signal.channelratssetstorm": "mariner.weathers.medsea.storm.event",
        "mariner.signal.blizzardsetblizzard": "mariner.weathers.medsea.blizzard.event",
        "mariner.signal.borasetseasmoke": "mariner.weathers.medsea.seasmoke.event",
        "mariner.signal.mistralsetwind": "mariner.weathers.medsea.wind.event",
        "mariner.signal.harmattansetsandstorm": "mariner.weathers.medsea.sandstorm.event",
        "mariner.signal.siroccosetsirocco": "mariner.weathers.medsea.sirocco.event",
        "mariner.signal.brumesetnuma": "mariner.weathers.medsea.numa.event",
        "mariner.signal.arriveinsea.northsea": "mariner.weathers.changeto.northsea",
        "mariner.signal.arriveinsea.medsea": "mariner.weathers.changeto.medsea"
      },
      "decayTo": "mariner.weathers.medsea.trade.2"
    },
    {
      "id": "mariner.weathers.medsea.hot.1",
      "icon": "weathers/mariner.weathers.hot",
      "label": "The Hum Of Heat",
      "description": "The air wavers. Even sound does not escape such heat unchanged.",
      "lifetime": 336,
      "aspects": {
        "mariner.inspiration": 1,
        "mariner.weather": 1,
        "mariner.inspiration.nature": 1,
        "mariner.weathermeta.sunny": 1,
        "mariner.weathermeta.sickly": 1,
        "forge": 4
      },
      "xtriggers": {
        "mariner.signal.forceweatherdecay": [
          {
            "morpheffect": "decay"
          }
        ],
        "mariner.signal.performanceclearweather": "mariner.weathers.medsea.clear.performancespecial",
        "mariner.signal.performancerouseweather": "mariner.weathers.medsea.storm.performancespecial",
        "mariner.signal.channelratssetstorm": "mariner.weathers.medsea.storm.event",
        "mariner.signal.blizzardsetblizzard": "mariner.weathers.medsea.blizzard.event",
        "mariner.signal.borasetseasmoke": "mariner.weathers.medsea.seasmoke.event",
        "mariner.signal.mistralsetwind": "mariner.weathers.medsea.wind.event",
        "mariner.signal.harmattansetsandstorm": "mariner.weathers.medsea.sandstorm.event",
        "mariner.signal.siroccosetsirocco": "mariner.weathers.medsea.sirocco.event",
        "mariner.signal.brumesetnuma": "mariner.weathers.medsea.numa.event",
        "mariner.signal.arriveinsea.northsea": "mariner.weathers.changeto.northsea",
        "mariner.signal.arriveinsea.medsea": "mariner.weathers.changeto.medsea"
      },
      "decayTo": "mariner.weathers.medsea.sirocco.1"
    },
    {
      "id": "mariner.weathers.medsea.hot.2",
      "icon": "weathers/mariner.weathers.hot",
      "label": "The Hum Of Heat",
      "description": "The air wavers. Even sound does not escape such heat unchanged.",
      "lifetime": 377,
      "aspects": {
        "mariner.inspiration": 1,
        "mariner.weather": 1,
        "mariner.inspiration.nature": 1,
        "mariner.weathermeta.sunny": 1,
        "mariner.weathermeta.sickly": 1,
        "forge": 4
      },
      "xtriggers": {
        "mariner.signal.forceweatherdecay": [
          {
            "morpheffect": "decay"
          }
        ],
        "mariner.signal.performanceclearweather": "mariner.weathers.medsea.clear.performancespecial",
        "mariner.signal.performancerouseweather": "mariner.weathers.medsea.storm.performancespecial",
        "mariner.signal.channelratssetstorm": "mariner.weathers.medsea.storm.event",
        "mariner.signal.blizzardsetblizzard": "mariner.weathers.medsea.blizzard.event",
        "mariner.signal.borasetseasmoke": "mariner.weathers.medsea.seasmoke.event",
        "mariner.signal.mistralsetwind": "mariner.weathers.medsea.wind.event",
        "mariner.signal.harmattansetsandstorm": "mariner.weathers.medsea.sandstorm.event",
        "mariner.signal.siroccosetsirocco": "mariner.weathers.medsea.sirocco.event",
        "mariner.signal.brumesetnuma": "mariner.weathers.medsea.numa.event",
        "mariner.signal.arriveinsea.northsea": "mariner.weathers.changeto.northsea",
        "mariner.signal.arriveinsea.medsea": "mariner.weathers.changeto.medsea"
      },
      "decayTo": "mariner.weathers.medsea.hot.1"
    },
    {
      "id": "mariner.weathers.medsea.trade.1",
      "icon": "weathers/mariner.weathers.trade",
      "label": "Trade Winds' Bellows",
      "description": "Unrelenting, unified, unceasing. The sound of air moving with purpose.",
      "lifetime": 342,
      "aspects": {
        "mariner.inspiration": 1,
        "mariner.weather": 1,
        "mariner.inspiration.nature": 1,
        "mariner.weathermeta.windy": 1,
        "heart": 4
      },
      "xtriggers": {
        "mariner.signal.forceweatherdecay": [
          {
            "morpheffect": "decay"
          }
        ],
        "mariner.signal.performanceclearweather": "mariner.weathers.medsea.clear.performancespecial",
        "mariner.signal.performancerouseweather": "mariner.weathers.medsea.storm.performancespecial",
        "mariner.signal.channelratssetstorm": "mariner.weathers.medsea.storm.event",
        "mariner.signal.blizzardsetblizzard": "mariner.weathers.medsea.blizzard.event",
        "mariner.signal.borasetseasmoke": "mariner.weathers.medsea.seasmoke.event",
        "mariner.signal.mistralsetwind": "mariner.weathers.medsea.wind.event",
        "mariner.signal.harmattansetsandstorm": "mariner.weathers.medsea.sandstorm.event",
        "mariner.signal.siroccosetsirocco": "mariner.weathers.medsea.sirocco.event",
        "mariner.signal.brumesetnuma": "mariner.weathers.medsea.numa.event",
        "mariner.signal.arriveinsea.northsea": "mariner.weathers.changeto.northsea",
        "mariner.signal.arriveinsea.medsea": "mariner.weathers.changeto.medsea"
      },
      "decayTo": "mariner.weathers.medsea.sirocco.2"
    },
    {
      "id": "mariner.weathers.medsea.trade.2",
      "icon": "weathers/mariner.weathers.trade",
      "label": "Trade Winds' Bellows",
      "description": "Unrelenting, unified, unceasing. The sound of air moving with purpose.",
      "lifetime": 367,
      "aspects": {
        "mariner.inspiration": 1,
        "mariner.weather": 1,
        "mariner.inspiration.nature": 1,
        "mariner.weathermeta.windy": 1,
        "heart": 4
      },
      "xtriggers": {
        "mariner.signal.forceweatherdecay": [
          {
            "morpheffect": "decay"
          }
        ],
        "mariner.signal.performanceclearweather": "mariner.weathers.medsea.clear.performancespecial",
        "mariner.signal.performancerouseweather": "mariner.weathers.medsea.storm.performancespecial",
        "mariner.signal.channelratssetstorm": "mariner.weathers.medsea.storm.event",
        "mariner.signal.blizzardsetblizzard": "mariner.weathers.medsea.blizzard.event",
        "mariner.signal.borasetseasmoke": "mariner.weathers.medsea.seasmoke.event",
        "mariner.signal.mistralsetwind": "mariner.weathers.medsea.wind.event",
        "mariner.signal.harmattansetsandstorm": "mariner.weathers.medsea.sandstorm.event",
        "mariner.signal.siroccosetsirocco": "mariner.weathers.medsea.sirocco.event",
        "mariner.signal.brumesetnuma": "mariner.weathers.medsea.numa.event",
        "mariner.signal.arriveinsea.northsea": "mariner.weathers.changeto.northsea",
        "mariner.signal.arriveinsea.medsea": "mariner.weathers.changeto.medsea"
      },
      "decayTo": "mariner.weathers.medsea.wind.2"
    },
    {
      "id": "mariner.weathers.changeto.medsea",
      "decayTo": [
        "mariner.weathers.medsea.mist.1",
        "mariner.weathers.medsea.mist.2",
        "mariner.weathers.medsea.rain.1",
        "mariner.weathers.medsea.rain.2",
        "mariner.weathers.medsea.wind.1",
        "mariner.weathers.medsea.wind.2",
        "mariner.weathers.medsea.storm.1",
        "mariner.weathers.medsea.storm.2",
        "mariner.weathers.medsea.clear.1",
        "mariner.weathers.medsea.clear.2",
        "mariner.weathers.medsea.clear.3",
        "mariner.weathers.medsea.bright.1",
        "mariner.weathers.medsea.bright.2",
        "mariner.weathers.medsea.sirocco.1",
        "mariner.weathers.medsea.sirocco.2",
        "mariner.weathers.medsea.hot.1",
        "mariner.weathers.medsea.hot.2",
        "mariner.weathers.medsea.trade.1",
        "mariner.weathers.medsea.trade.2"
      ],
      "lifetime": 1
    },
    {
      "id": "mariner.weathers.medsea.clear.performancespecial",
      "icon": "weathers/mariner.weathers.clear",
      "label": "A Blank Sky",
      "description": "The sky is a patchwork of grey and white and blue, partway between stained vellum and a half-shorn fleece",
      "lifetime": 280,
      "aspects": {
        "mariner.inspiration": 1,
        "mariner.weather": 1,
        "mariner.inspiration.nature": 1,
        "mariner.weathermeta.clear": 1
      },
      "xtriggers": {
        "mariner.signal.forceweatherdecay": [
          {
            "morpheffect": "decay"
          }
        ],
        "mariner.signal.performanceclearweather": "mariner.weathers.medsea.clear.performancespecial",
        "mariner.signal.performancerouseweather": "mariner.weathers.medsea.storm.performancespecial",
        "mariner.signal.channelratssetstorm": "mariner.weathers.medsea.storm.event",
        "mariner.signal.blizzardsetblizzard": "mariner.weathers.medsea.blizzard.event",
        "mariner.signal.borasetseasmoke": "mariner.weathers.medsea.seasmoke.event",
        "mariner.signal.mistralsetwind": "mariner.weathers.medsea.wind.event",
        "mariner.signal.harmattansetsandstorm": "mariner.weathers.medsea.sandstorm.event",
        "mariner.signal.siroccosetsirocco": "mariner.weathers.medsea.sirocco.event",
        "mariner.signal.brumesetnuma": "mariner.weathers.medsea.numa.event",
        "mariner.signal.arriveinsea.northsea": "mariner.weathers.changeto.northsea",
        "mariner.signal.arriveinsea.medsea": "mariner.weathers.changeto.medsea"
      },
      "decayTo": "mariner.weathers.medsea.bright.1"
    },
    {
      "id": "mariner.weathers.medsea.storm.performancespecial",
      "icon": "weathers/mariner.weathers.storm",
      "label": "A Storm Howls",
      "description": "The sky's drum beats a furious rhythm.",
      "lifetime": 280,
      "aspects": {
        "mariner.inspiration": 1,
        "mariner.weather": 1,
        "mariner.inspiration.nature": 1,
        "mariner.weathermeta.rainy": 1,
        "mariner.weathermeta.windy": 1,
        "mariner.weathermeta.stormy": 1,
        "heart": 4,
        "edge": 4
      },
      "xtriggers": {
        "mariner.signal.forceweatherdecay": [
          {
            "morpheffect": "decay"
          }
        ],
        "mariner.signal.performanceclearweather": "mariner.weathers.medsea.clear.performancespecial",
        "mariner.signal.performancerouseweather": "mariner.weathers.medsea.storm.performancespecial",
        "mariner.signal.channelratssetstorm": "mariner.weathers.medsea.storm.event",
        "mariner.signal.blizzardsetblizzard": "mariner.weathers.medsea.blizzard.event",
        "mariner.signal.borasetseasmoke": "mariner.weathers.medsea.seasmoke.event",
        "mariner.signal.mistralsetwind": "mariner.weathers.medsea.wind.event",
        "mariner.signal.harmattansetsandstorm": "mariner.weathers.medsea.sandstorm.event",
        "mariner.signal.siroccosetsirocco": "mariner.weathers.medsea.sirocco.event",
        "mariner.signal.brumesetnuma": "mariner.weathers.medsea.numa.event",
        "mariner.signal.arriveinsea.northsea": "mariner.weathers.changeto.northsea",
        "mariner.signal.arriveinsea.medsea": "mariner.weathers.changeto.medsea"
      },
      "decayTo": "mariner.weathers.medsea.wind.1"
    },
    {
      "id": "mariner.weathers.medsea.blizzard.event",
      "icon": "weathers/mariner.weathers.blizzard",
      "label": "Blizzard",
      "description": "When snow and sleet is more pushing then falling, and the cold is so deep it no longer bites but burns. when even the memory of warmth flickers in the soul.",
      "lifetime": 280,
      "aspects": {
        "mariner.inspiration": 1,
        "mariner.weather": 1,
        "mariner.inspiration.nature": 1,
        "mariner.weathermeta.windy": 1,
        "mariner.weathermeta.cold": 1,
        "mariner.weathermeta.stormy": 1,
        "winter": 4,
        "edge": 4
      },
      "xtriggers": {
        "mariner.signal.forceweatherdecay": [
          {
            "morpheffect": "decay"
          }
        ],
        "mariner.signal.performanceclearweather": "mariner.weathers.medsea.clear.performancespecial",
        "mariner.signal.performancerouseweather": "mariner.weathers.medsea.storm.performancespecial",
        "mariner.signal.channelratssetstorm": "mariner.weathers.medsea.storm.event",
        "mariner.signal.blizzardsetblizzard": "mariner.weathers.medsea.blizzard.event",
        "mariner.signal.borasetseasmoke": "mariner.weathers.medsea.seasmoke.event",
        "mariner.signal.mistralsetwind": "mariner.weathers.medsea.wind.event",
        "mariner.signal.harmattansetsandstorm": "mariner.weathers.medsea.sandstorm.event",
        "mariner.signal.siroccosetsirocco": "mariner.weathers.medsea.sirocco.event",
        "mariner.signal.brumesetnuma": "mariner.weathers.medsea.numa.event",
        "mariner.signal.arriveinsea.northsea": "mariner.weathers.changeto.northsea",
        "mariner.signal.arriveinsea.medsea": "mariner.weathers.changeto.medsea"
      },
      "decayTo": "mariner.weathers.medsea.hot.2"
    },
    {
      "id": "mariner.weathers.medsea.sandstorm.event",
      "icon": "weathers/mariner.weathers.sandstorm",
      "label": "Sandstorm",
      "description": "The sky thirsts and the wind is laced with a million needles and a thousand sabres.",
      "lifetime": 280,
      "aspects": {
        "mariner.inspiration": 1,
        "mariner.weather": 1,
        "mariner.inspiration.nature": 1,
        "mariner.weathermeta.windy": 1,
        "mariner.weathermeta.sandstorm": 1,
        "forge": 4,
        "edge": 4
      },
      "xtriggers": {
        "mariner.signal.forceweatherdecay": [
          {
            "morpheffect": "decay"
          }
        ],
        "mariner.signal.performanceclearweather": "mariner.weathers.medsea.clear.performancespecial",
        "mariner.signal.performancerouseweather": "mariner.weathers.medsea.storm.performancespecial",
        "mariner.signal.channelratssetstorm": "mariner.weathers.medsea.storm.event",
        "mariner.signal.blizzardsetblizzard": "mariner.weathers.medsea.blizzard.event",
        "mariner.signal.borasetseasmoke": "mariner.weathers.medsea.seasmoke.event",
        "mariner.signal.mistralsetwind": "mariner.weathers.medsea.wind.event",
        "mariner.signal.harmattansetsandstorm": "mariner.weathers.medsea.sandstorm.event",
        "mariner.signal.siroccosetsirocco": "mariner.weathers.medsea.sirocco.event",
        "mariner.signal.brumesetnuma": "mariner.weathers.medsea.numa.event",
        "mariner.signal.arriveinsea.northsea": "mariner.weathers.changeto.northsea",
        "mariner.signal.arriveinsea.medsea": "mariner.weathers.changeto.medsea"
      },
      "decayTo": "mariner.weathers.medsea.storm.1"
    },
    {
      "id": "mariner.weathers.medsea.seasmoke.event",
      "icon": "weathers/mariner.weathers.seasmoke",
      "label": "Seasmoke",
      "description": "The violence of the Furies, in a fog as dence as Asphodel. Forget everything except your will to survive.",
      "lifetime": 280,
      "aspects": {
        "mariner.inspiration": 1,
        "mariner.weather": 1,
        "mariner.inspiration.nature": 1,
        "mariner.weathermeta.misty": 1,
        "mariner.weathermeta.windy": 1,
        "mariner.weathermeta.rainy": 1,
        "mariner.weathermeta.stormy": 1,
        "moth": 4,
        "edge": 4
      },
      "xtriggers": {
        "mariner.signal.forceweatherdecay": [
          {
            "morpheffect": "decay"
          }
        ],
        "mariner.signal.performanceclearweather": "mariner.weathers.medsea.clear.performancespecial",
        "mariner.signal.performancerouseweather": "mariner.weathers.medsea.storm.performancespecial",
        "mariner.signal.channelratssetstorm": "mariner.weathers.medsea.storm.event",
        "mariner.signal.blizzardsetblizzard": "mariner.weathers.medsea.blizzard.event",
        "mariner.signal.borasetseasmoke": "mariner.weathers.medsea.seasmoke.event",
        "mariner.signal.mistralsetwind": "mariner.weathers.medsea.wind.event",
        "mariner.signal.harmattansetsandstorm": "mariner.weathers.medsea.sandstorm.event",
        "mariner.signal.siroccosetsirocco": "mariner.weathers.medsea.sirocco.event",
        "mariner.signal.brumesetnuma": "mariner.weathers.medsea.numa.event",
        "mariner.signal.arriveinsea.northsea": "mariner.weathers.changeto.northsea",
        "mariner.signal.arriveinsea.medsea": "mariner.weathers.changeto.medsea"
      },
      "decayTo": "mariner.weathers.medsea.trade.2"
    },
    {
      "id": "mariner.weathers.medsea.storm.event",
      "icon": "weathers/mariner.weathers.storm",
      "label": "A Storm Howls",
      "description": "The sky's drum beats a furious rhythm.",
      "lifetime": 280,
      "aspects": {
        "mariner.inspiration": 1,
        "mariner.weather": 1,
        "mariner.inspiration.nature": 1,
        "mariner.weathermeta.rainy": 1,
        "mariner.weathermeta.windy": 1,
        "mariner.weathermeta.stormy": 1,
        "heart": 4,
        "edge": 4
      },
      "xtriggers": {
        "mariner.signal.forceweatherdecay": [
          {
            "morpheffect": "decay"
          }
        ],
        "mariner.signal.performanceclearweather": "mariner.weathers.medsea.clear.performancespecial",
        "mariner.signal.performancerouseweather": "mariner.weathers.medsea.storm.performancespecial",
        "mariner.signal.channelratssetstorm": "mariner.weathers.medsea.storm.event",
        "mariner.signal.blizzardsetblizzard": "mariner.weathers.medsea.blizzard.event",
        "mariner.signal.borasetseasmoke": "mariner.weathers.medsea.seasmoke.event",
        "mariner.signal.mistralsetwind": "mariner.weathers.medsea.wind.event",
        "mariner.signal.harmattansetsandstorm": "mariner.weathers.medsea.sandstorm.event",
        "mariner.signal.siroccosetsirocco": "mariner.weathers.medsea.sirocco.event",
        "mariner.signal.brumesetnuma": "mariner.weathers.medsea.numa.event",
        "mariner.signal.arriveinsea.northsea": "mariner.weathers.changeto.northsea",
        "mariner.signal.arriveinsea.medsea": "mariner.weathers.changeto.medsea"
      },
      "decayTo": "mariner.weathers.medsea.hot.2"
    },
    {
      "id": "mariner.weathers.medsea.wind.event",
      "icon": "weathers/mariner.weathers.wind",
      "label": "Winds Whistle",
      "description": "The wind plays the trees, and sings it's own many voiced harmonies.",
      "lifetime": 280,
      "aspects": {
        "mariner.inspiration": 1,
        "mariner.weather": 1,
        "mariner.inspiration.nature": 1,
        "mariner.weathermeta.windy": 1,
        "moth": 4,
        "heart": 4
      },
      "xtriggers": {
        "mariner.signal.forceweatherdecay": [
          {
            "morpheffect": "decay"
          }
        ],
        "mariner.signal.performanceclearweather": "mariner.weathers.medsea.clear.performancespecial",
        "mariner.signal.performancerouseweather": "mariner.weathers.medsea.storm.performancespecial",
        "mariner.signal.channelratssetstorm": "mariner.weathers.medsea.storm.event",
        "mariner.signal.blizzardsetblizzard": "mariner.weathers.medsea.blizzard.event",
        "mariner.signal.borasetseasmoke": "mariner.weathers.medsea.seasmoke.event",
        "mariner.signal.mistralsetwind": "mariner.weathers.medsea.wind.event",
        "mariner.signal.harmattansetsandstorm": "mariner.weathers.medsea.sandstorm.event",
        "mariner.signal.siroccosetsirocco": "mariner.weathers.medsea.sirocco.event",
        "mariner.signal.brumesetnuma": "mariner.weathers.medsea.numa.event",
        "mariner.signal.arriveinsea.northsea": "mariner.weathers.changeto.northsea",
        "mariner.signal.arriveinsea.medsea": "mariner.weathers.changeto.medsea"
      },
      "decayTo": "mariner.weathers.medsea.hot.1"
    },
    {
      "id": "mariner.weathers.medsea.sirocco.event",
      "icon": "weathers/mariner.weathers.sirocco",
      "label": "The Whistle Of The Sirocco",
      "description": "The winds flow here mercilesly from where the Sun's rule is still felt most oppressively.",
      "lifetime": 280,
      "aspects": {
        "mariner.inspiration": 1,
        "mariner.weather": 1,
        "mariner.inspiration.nature": 1,
        "mariner.weathermeta.sunny": 1,
        "mariner.weathermeta.windy": 1,
        "forge": 4,
        "lantern": 4
      },
      "xtriggers": {
        "mariner.signal.forceweatherdecay": [
          {
            "morpheffect": "decay"
          }
        ],
        "mariner.signal.performanceclearweather": "mariner.weathers.medsea.clear.performancespecial",
        "mariner.signal.performancerouseweather": "mariner.weathers.medsea.storm.performancespecial",
        "mariner.signal.channelratssetstorm": "mariner.weathers.medsea.storm.event",
        "mariner.signal.blizzardsetblizzard": "mariner.weathers.medsea.blizzard.event",
        "mariner.signal.borasetseasmoke": "mariner.weathers.medsea.seasmoke.event",
        "mariner.signal.mistralsetwind": "mariner.weathers.medsea.wind.event",
        "mariner.signal.harmattansetsandstorm": "mariner.weathers.medsea.sandstorm.event",
        "mariner.signal.siroccosetsirocco": "mariner.weathers.medsea.sirocco.event",
        "mariner.signal.brumesetnuma": "mariner.weathers.medsea.numa.event",
        "mariner.signal.arriveinsea.northsea": "mariner.weathers.changeto.northsea",
        "mariner.signal.arriveinsea.medsea": "mariner.weathers.changeto.medsea"
      },
      "decayTo": "mariner.weathers.medsea.hot.1"
    },
    {
      "id": "mariner.weathers.medsea.numa.event",
      "icon": "weathers/mariner.weathers.numa",
      "label": "A Whisp of Nume-Brume",
      "description": "A swirl of the Ninth season has wafted onto the sea. Beyond the horizon, wherever we are, can now be found the Edge of the World.",
      "lifetime": 280,
      "aspects": {
        "mariner.inspiration": 1,
        "mariner.weather": 1,
        "mariner.inspiration.nature": 1,
        "mariner.weathermeta.misty": 1,
        "knock": 4
      },
      "xtriggers": {
        "mariner.signal.forceweatherdecay": [
          {
            "morpheffect": "decay"
          }
        ],
        "mariner.signal.performanceclearweather": "mariner.weathers.medsea.clear.performancespecial",
        "mariner.signal.performancerouseweather": "mariner.weathers.medsea.storm.performancespecial",
        "mariner.signal.channelratssetstorm": "mariner.weathers.medsea.storm.event",
        "mariner.signal.blizzardsetblizzard": "mariner.weathers.medsea.blizzard.event",
        "mariner.signal.borasetseasmoke": "mariner.weathers.medsea.seasmoke.event",
        "mariner.signal.mistralsetwind": "mariner.weathers.medsea.wind.event",
        "mariner.signal.harmattansetsandstorm": "mariner.weathers.medsea.sandstorm.event",
        "mariner.signal.siroccosetsirocco": "mariner.weathers.medsea.sirocco.event",
        "mariner.signal.brumesetnuma": "mariner.weathers.medsea.numa.event",
        "mariner.signal.arriveinsea.northsea": "mariner.weathers.changeto.northsea",
        "mariner.signal.arriveinsea.medsea": "mariner.weathers.changeto.medsea"
      },
      "decayTo": "mariner.weathers.medsea.sirocco.1"
    }
  ]
}