{
  "elements": [
    {
      "id": "mariner.events.vaults.docksidewarehouse.events.guards",
      "aspects": {
        "mariner.vaults.event": 1
      }
    },
    {
      "id": "mariner.events.vaults.docksidewarehouse.events.don",
      "aspects": {
        "mariner.vaults.event": 1
      }
    }
  ]
}