{
  "recipes": [
    {
      "id": "mariner.sailing.seaevents.start.skies",
      "warmup": 20,
      "label": "A Sky Clear as Diamond",
      "tablereqs": {
        "mariner.weathermeta.clear": 1
      },
      "startdescription": "Certain sights are only reserved for hermits and explorers. Tonight the sky is black velvet overlayed with an affluance of stars. There is nothing to gain or lose here, just a chance to marvel in delight.",
      "linked": [
        {
          "id": "mariner.sailing.seaevents.skies.outcome.firstoutcome",
          "chance": 50
        },
        {
          "id": "mariner.sailing.seaevents.skies.outcome.secondoutcome"
        }
      ]
    },
    {
      "id": "mariner.sailing.seaevents.skies.outcome.firstoutcome",
      "warmup": 20,
      "label": "Quiet Stargazing",
      "startdescription": "I sit on the back of the deck, and trust the running of the ship completely to the crew. I simply enjoy a peaceful moment with the cold far twinkling of the stars.",
      "linked": [
        {
          "id": "mariner.addgroundedness.10"
        },
        {
          "id": "mariner.sailing.postevent"
        }
      ]
    },
    {
      "id": "mariner.sailing.seaevents.skies.outcome.secondoutcome",
      "warmup": 20,
      "label": "A Sparkle Retained",
      "startdescription": "Something of that candlelight glimmer has gotten caught in my eyes. The stars still dance in echoes on my retina, and I am sure those sensitive to this will be able to see them glimmer.",
      "linked": [
        {
          "id": "mariner.sailing.postevent"
        }
      ],
      "effects": {
        "mariner.influences.lantern": 2
      }
    }
  ]
}