{
  "elements": [
    {
      "isAspect": true,
      "id": "mariner.aspects.vaults.aleppo.layer.cafe",
      "noArtNeeded": true,
      "isHidden": true
    },
    {
      "isAspect": true,
      "id": "mariner.aspects.vaults.aleppo.activelayer.cafe",
      "noArtNeeded": true,
      "isHidden": true
    },
    {
      "isAspect": true,
      "id": "mariner.aspects.vaults.aleppo.activeexclusivelayer.cafe",
      "noArtNeeded": true,
      "isHidden": true
    },
    {
      "isAspect": true,
      "id": "mariner.vaults.aleppo.shelf",
      "noArtNeeded": true,
      "isHidden": true
    },
    {
      "isAspect": true,
      "id": "mariner.vaults.aleppo.shelftrapping",
      "noArtNeeded": true,
      "isHidden": true
    }
  ]
}