{
  "elements": [
    {
      "id": "mariner.vaults.aleppo.maze",
      "label": "Maze of Stairs and Hallways",
      "description": "<The library doesn't have a floor plan. It couldn't have one. Stairs and windowless hallways spring in all directions, seemingly without any logic. Yet, its visitors seem to always reach what they want, assuming they know what to look for. All around us, always at the periphery of our vision, groups of people are sitting, studying books, devices, debating in a river of whispers. And everywhere, the everpresent speckled light, flowing from the central well's network of mirrors.>",
      "aspects": {
        "mariner.local": 1,
        "mariner.aspects.vaults.aleppo.layer.cafe": 1,
        "modded_explore_allowed": 1
      },
      "slots": [
        {
          "id": "intent",
          "label": "Intent",
          "description": "What am I looking for?",
          "required": {
            "mariner.lackheart": 1,
            "mariner.halfheart": 1
          }
        }
      ]
    },
    {
      "id": "mariner.vaults.aleppo.group",
      "icon": "tasks/mariner.tasks.concentrate.vertdegris",
      "label": "Group of Students",
      "description": "Here in a corner, sitting on comfy benches and armchairs, a group of people is vividly discussing some kind of parable. As they converse, spots of light keep drifting accross their faces, scintillating leaves in the golden afternoon of a sunflooded wood.",
      "aspects": {
        "mariner.local": 1,
        "mariner.aspects.vaults.aleppo.layer.cafe": 1,
        "modded_talk_allowed": 1
      },
      "slots": [
        {
          "actionId": "talk",
          "id": "talk1",
          "label": "Help",
          "description": "Which implements are available for my approach.",
          "required": {
            "funds": 1,
            "mariner.crew": 1,
            "mariner.song": 1,
            "mariner.tune": 1,
            "mariner.story": 1,
            "mariner.lackheart": 1,
            "mariner.halfheart": 1,
            "mariner.vaults.help": 1
          },
          "forbidden": {
            "mariner.crew.traits.mute": 1,
            "mariner.crew.exhausted": 1
          }
        },
        {
          "actionId": "talk",
          "id": "talk2",
          "label": "Help",
          "description": "Which implements are available for my approach.",
          "required": {
            "funds": 1,
            "mariner.crew": 1,
            "mariner.song": 1,
            "mariner.tune": 1,
            "mariner.story": 1,
            "mariner.lackheart": 1,
            "mariner.halfheart": 1,
            "mariner.vaults.help": 1
          },
          "forbidden": {
            "mariner.crew.traits.mute": 1,
            "mariner.crew.exhausted": 1
          }
        },
        {
          "actionId": "talk",
          "id": "talk3",
          "label": "Help",
          "description": "Which implements are available for my approach.",
          "required": {
            "funds": 1,
            "mariner.crew": 1,
            "mariner.song": 1,
            "mariner.tune": 1,
            "mariner.story": 1,
            "mariner.lackheart": 1,
            "mariner.halfheart": 1,
            "mariner.vaults.help": 1
          },
          "forbidden": {
            "mariner.crew.traits.mute": 1,
            "mariner.crew.exhausted": 1
          }
        },
        {
          "actionId": "talk",
          "id": "song",
          "label": "Direction",
          "description": "Which direction do I want to push the conversation toward?",
          "required": {
            "mariner.song": 1
          }
        }
      ]
    },
    {
      "id": "mariner.vaults.aleppo.shelf.default.1",
      "label": "<Default Shelf 1>",
      "aspects": {
        "mariner.local": 1,
        "mariner.aspects.vaults.aleppo.layer.cafe": 1,
        "mariner.navigate_allowed": 1,
        "mariner.vaults.aleppo.shelf": 1
      },
      "xtriggers": {
        "mariner.signal.alepposhelf.spawnreward": {
          "morpheffect": "spawn",
          "id": "funds"
        }
      }
    },
    {
      "id": "mariner.vaults.aleppo.shelf.lantern.1",
      "label": "<Shelf lantern (1)>",
      "aspects": {
        "mariner.local": 1,
        "mariner.aspects.vaults.aleppo.layer.cafe": 1,
        "mariner.navigate_allowed": 1,
        "mariner.vaults.aleppo.shelf": 1
      },
      "xtriggers": {
        "mariner.signal.alepposhelf.spawnreward": {
          "morpheffect": "spawn",
          "id": "funds"
        }
      }
    },
    {
      "id": "mariner.vaults.aleppo.shelf.forge.1",
      "label": "<Shelf forge (1)>",
      "aspects": {
        "mariner.local": 1,
        "mariner.aspects.vaults.aleppo.layer.cafe": 1,
        "mariner.navigate_allowed": 1,
        "mariner.vaults.aleppo.shelf": 1
      },
      "xtriggers": {
        "mariner.signal.alepposhelf.spawnreward": {
          "morpheffect": "spawn",
          "id": "funds"
        }
      }
    },
    {
      "id": "mariner.vaults.aleppo.shelf.edge.1",
      "label": "<Shelf edge (1)>",
      "aspects": {
        "mariner.local": 1,
        "mariner.aspects.vaults.aleppo.layer.cafe": 1,
        "mariner.navigate_allowed": 1,
        "mariner.vaults.aleppo.shelf": 1
      },
      "xtriggers": {
        "mariner.signal.alepposhelf.spawnreward": {
          "morpheffect": "spawn",
          "id": "funds"
        }
      }
    },
    {
      "id": "mariner.vaults.aleppo.shelf.winter.1",
      "label": "<Shelf winter (1)>",
      "aspects": {
        "mariner.local": 1,
        "mariner.aspects.vaults.aleppo.layer.cafe": 1,
        "mariner.navigate_allowed": 1,
        "mariner.vaults.aleppo.shelf": 1
      },
      "xtriggers": {
        "mariner.signal.alepposhelf.spawnreward": {
          "morpheffect": "spawn",
          "id": "funds"
        }
      }
    },
    {
      "id": "mariner.vaults.aleppo.shelf.heart.1",
      "label": "<Shelf heart (1)>",
      "aspects": {
        "mariner.local": 1,
        "mariner.aspects.vaults.aleppo.layer.cafe": 1,
        "mariner.navigate_allowed": 1,
        "mariner.vaults.aleppo.shelf": 1
      },
      "xtriggers": {
        "mariner.signal.alepposhelf.spawnreward": {
          "morpheffect": "spawn",
          "id": "funds"
        }
      }
    },
    {
      "id": "mariner.vaults.aleppo.shelf.grail.1",
      "label": "<Shelf grail (1)>",
      "aspects": {
        "mariner.local": 1,
        "mariner.aspects.vaults.aleppo.layer.cafe": 1,
        "mariner.navigate_allowed": 1,
        "mariner.vaults.aleppo.shelf": 1
      },
      "xtriggers": {
        "mariner.signal.alepposhelf.spawnreward": {
          "morpheffect": "spawn",
          "id": "funds"
        }
      }
    },
    {
      "id": "mariner.vaults.aleppo.shelf.moth.1",
      "label": "<Shelf moth (1)>",
      "aspects": {
        "mariner.local": 1,
        "mariner.aspects.vaults.aleppo.layer.cafe": 1,
        "mariner.navigate_allowed": 1,
        "mariner.vaults.aleppo.shelf": 1
      },
      "xtriggers": {
        "mariner.signal.alepposhelf.spawnreward": {
          "morpheffect": "spawn",
          "id": "funds"
        }
      }
    },
    {
      "id": "mariner.vaults.aleppo.shelf.knock.1",
      "label": "<Shelf knock (1)>",
      "aspects": {
        "mariner.local": 1,
        "mariner.aspects.vaults.aleppo.layer.cafe": 1,
        "mariner.navigate_allowed": 1,
        "mariner.vaults.aleppo.shelf": 1
      },
      "xtriggers": {
        "mariner.signal.alepposhelf.spawnreward": {
          "morpheffect": "spawn",
          "id": "funds"
        }
      }
    }
  ]
}