{
  "elements": [
    {
      "isAspect": true,
      "id": "mariner.smith",
      "label": "<Smith>",
      "description": "<This is where I can find the skilled hands able to work on some of my most precious tools.>",
      "noArtNeeded": true,
      "isHidden": true
    },
    {
      "isAspect": true,
      "id": "mariner.smiths.toolsmith",
      "label": "<Toolsmith>",
      "description": "<Knock and Forge tools>"
    },
    {
      "isAspect": true,
      "id": "mariner.tool.notch",
      "label": "<Tool Notch>",
      "description": "<Tool Notch>"
    },
    {
      "isAspect": true,
      "id": "mariner.tool.level",
      "label": "<Tool Tier/Level>",
      "description": "<Tool Tier/Level>"
    },
    {
      "isAspect": true,
      "id": "mariner.tool.readytoupgrade",
      "label": "<Maxed out Notches>",
      "description": "<Ready to upgrade>"
    },
    {
      "isAspect": true,
      "id": "mariner.tool.specialisationpotential.lantern",
      "noArtNeeded": true,
      "isHidden": true
    },
    {
      "isAspect": true,
      "id": "mariner.tool.specialisationpotential.forge",
      "noArtNeeded": true,
      "isHidden": true
    },
    {
      "isAspect": true,
      "id": "mariner.tool.specialisationpotential.edge",
      "noArtNeeded": true,
      "isHidden": true
    },
    {
      "isAspect": true,
      "id": "mariner.tool.specialisationpotential.winter",
      "noArtNeeded": true,
      "isHidden": true
    },
    {
      "isAspect": true,
      "id": "mariner.tool.specialisationpotential.heart",
      "noArtNeeded": true,
      "isHidden": true
    },
    {
      "isAspect": true,
      "id": "mariner.tool.specialisationpotential.grail",
      "noArtNeeded": true,
      "isHidden": true
    },
    {
      "isAspect": true,
      "id": "mariner.tool.specialisationpotential.moth",
      "noArtNeeded": true,
      "isHidden": true
    },
    {
      "isAspect": true,
      "id": "mariner.tool.specialisationpotential.knock",
      "noArtNeeded": true,
      "isHidden": true
    },
    {
      "isAspect": true,
      "id": "mariner.tool.lantern",
      "label": "Lantern Tool",
      "noArtNeeded": true,
      "isHidden": true
    },
    {
      "isAspect": true,
      "id": "mariner.tool.forge",
      "label": "Forge Tool",
      "noArtNeeded": true,
      "isHidden": true
    },
    {
      "isAspect": true,
      "id": "mariner.tool.edge",
      "label": "Edge Tool",
      "noArtNeeded": true,
      "isHidden": true
    },
    {
      "isAspect": true,
      "id": "mariner.tool.winter",
      "label": "Winter Tool",
      "noArtNeeded": true,
      "isHidden": true
    },
    {
      "isAspect": true,
      "id": "mariner.tool.heart",
      "label": "Heart Tool",
      "noArtNeeded": true,
      "isHidden": true
    },
    {
      "isAspect": true,
      "id": "mariner.tool.grail",
      "label": "Grail Tool",
      "noArtNeeded": true,
      "isHidden": true
    },
    {
      "isAspect": true,
      "id": "mariner.tool.moth",
      "label": "Moth Tool",
      "noArtNeeded": true,
      "isHidden": true
    },
    {
      "isAspect": true,
      "id": "mariner.tool.knock",
      "label": "Knock Tool",
      "noArtNeeded": true,
      "isHidden": true
    }
  ]
}