{
  "recipes": [
    {
      "id": "mariner.specialisetool.with.lantern",
      "craftable": true,
      "grandReqs": {
        "tool": 1,
        "[mariner.tool.level] = 3": 1,
        "mariner.tool.readytoupgrade": 1,
        "mariner.tool.specialisationpotential.lantern": 1,
        "mariner.trappings.lantern": 2,
        "mariner.trapping": 4
      },
      "warmup": 180,
      "label": "<Infuse Tool With the lantern Specialisaton>",
      "startdescription": "<>",
      "description": "<It is done.>",
      "effects": {
        "mariner.trapping": -10
      },
      "aspects": {
        "mariner.signal.specialisetool.with.lantern": 1
      }
    },
    {
      "id": "mariner.specialisetool.with.forge",
      "craftable": true,
      "grandReqs": {
        "tool": 1,
        "[mariner.tool.level] = 3": 1,
        "mariner.tool.readytoupgrade": 1,
        "mariner.tool.specialisationpotential.forge": 1,
        "mariner.trappings.forge": 2,
        "mariner.trapping": 4
      },
      "warmup": 180,
      "label": "<Infuse Tool With the forge Specialisaton>",
      "startdescription": "<>",
      "description": "<It is done.>",
      "effects": {
        "mariner.trapping": -10
      },
      "aspects": {
        "mariner.signal.specialisetool.with.forge": 1
      }
    },
    {
      "id": "mariner.specialisetool.with.edge",
      "craftable": true,
      "grandReqs": {
        "tool": 1,
        "[mariner.tool.level] = 3": 1,
        "mariner.tool.readytoupgrade": 1,
        "mariner.tool.specialisationpotential.edge": 1,
        "mariner.trappings.edge": 2,
        "mariner.trapping": 4
      },
      "warmup": 180,
      "label": "<Infuse Tool With the edge Specialisaton>",
      "startdescription": "<>",
      "description": "<It is done.>",
      "effects": {
        "mariner.trapping": -10
      },
      "aspects": {
        "mariner.signal.specialisetool.with.lantern": 1
      }
    },
    {
      "id": "mariner.specialisetool.with.winter",
      "craftable": true,
      "grandReqs": {
        "tool": 1,
        "[mariner.tool.level] = 3": 1,
        "mariner.tool.readytoupgrade": 1,
        "mariner.tool.specialisationpotential.winter": 1,
        "mariner.trappings.winter": 2,
        "mariner.trapping": 4
      },
      "warmup": 180,
      "label": "<Infuse Tool With the winter Specialisaton>",
      "startdescription": "<>",
      "description": "<It is done.>",
      "effects": {
        "mariner.trapping": -10
      },
      "aspects": {
        "mariner.signal.specialisetool.with.winter": 1
      }
    },
    {
      "id": "mariner.specialisetool.with.heart",
      "craftable": true,
      "grandReqs": {
        "tool": 1,
        "[mariner.tool.level] = 3": 1,
        "mariner.tool.readytoupgrade": 1,
        "mariner.tool.specialisationpotential.heart": 1,
        "mariner.trappings.heart": 2,
        "mariner.trapping": 4
      },
      "warmup": 180,
      "label": "<Infuse Tool With the heart Specialisaton>",
      "startdescription": "<>",
      "description": "<It is done.>",
      "effects": {
        "mariner.trapping": -10
      },
      "aspects": {
        "mariner.signal.specialisetool.with.heart": 1
      }
    },
    {
      "id": "mariner.specialisetool.with.grail",
      "craftable": true,
      "grandReqs": {
        "tool": 1,
        "[mariner.tool.level] = 3": 1,
        "mariner.tool.readytoupgrade": 1,
        "mariner.tool.specialisationpotential.grail": 1,
        "mariner.trappings.grail": 2,
        "mariner.trapping": 4
      },
      "warmup": 180,
      "label": "<Infuse Tool With the grail Specialisaton>",
      "startdescription": "<>",
      "description": "<It is done.>",
      "effects": {
        "mariner.trapping": -10
      },
      "aspects": {
        "mariner.signal.specialisetool.with.grail": 1
      }
    },
    {
      "id": "mariner.specialisetool.with.moth",
      "craftable": true,
      "grandReqs": {
        "tool": 1,
        "[mariner.tool.level] = 3": 1,
        "mariner.tool.readytoupgrade": 1,
        "mariner.tool.specialisationpotential.moth": 1,
        "mariner.trappings.moth": 2,
        "mariner.trapping": 4
      },
      "warmup": 180,
      "label": "<Infuse Tool With the moth Specialisaton>",
      "startdescription": "<>",
      "description": "<It is done.>",
      "effects": {
        "mariner.trapping": -10
      },
      "aspects": {
        "mariner.signal.specialisetool.with.moth": 1
      }
    },
    {
      "id": "mariner.specialisetool.with.knock",
      "craftable": true,
      "grandReqs": {
        "tool": 1,
        "[mariner.tool.level] = 3": 1,
        "mariner.tool.readytoupgrade": 1,
        "mariner.tool.specialisationpotential.knock": 1,
        "mariner.trappings.knock": 2,
        "mariner.trapping": 4
      },
      "warmup": 180,
      "label": "<Infuse Tool With the knock Specialisaton>",
      "startdescription": "<>",
      "description": "<It is done.>",
      "effects": {
        "mariner.trapping": -10
      },
      "aspects": {
        "mariner.signal.specialisetool.with.knock": 1
      }
    }
  ]
}