{
  "recipes": [
    {
      "id": "mariner.usetool",
      "grandReqs": {
        "~/source : mariner.tool.broken": -1,
        "~/source : mariner.tool.readytoupgrade": -1,
        "~/source : mariner.tool.level": -5
      },
      "furthermore": [
        {
          "target": "~/source",
          "mutations": [
            {
              "filter": "tool",
              "mutate": "mariner.tool.notch",
              "level": 1,
              "additive": true
            }
          ]
        }
      ],
      "linked": [
        {
          "id": "mariner.settoolreadytoupgrade"
        }
      ]
    },
    {
      "id": "mariner.settoolreadytoupgrade",
      "grandReqs": {
        "~/source : mariner.tool.broken": -1,
        "~/source : mariner.tool.readytoupgrade": -1,
        "~/source : mariner.tool.notch": "[~/source : mariner.tool.level] * 8"
      },
      "furthermore": [
        {
          "target": "~/source",
          "mutations": [
            {
              "filter": "tool",
              "mutate": "mariner.tool.readytoupgrade",
              "level": 1,
              "additive": false
            }
          ]
        }
      ]
    },
    {
      "id": "mariner.breaktool",
      "furthermore": [
        {
          "target": "~/source",
          "mutations": [
            {
              "filter": "tool",
              "mutate": "mariner.tool.broken",
              "level": 1,
              "additive": false
            }
          ]
        }
      ]
    }
  ]
}