{
  "elements": [
    {
      "$derives": "mariner.composables.tool",
      "id": "mariner.tool.edge.1",
      "icon": "tools/mariner.tool.edge",
      "label": "Axe",
      "description": "It implies a practical use as well as a sinister one.",
      "aspects": {
        "tool": 1,
        "mariner.tool.edge": 1,
        "edge": 3,
        "mariner.tool.level": 1
      },
      "slots": [
        {
          "id": "tool.upgrade.1",
          "label": "Trapping",
          "description": "<>",
          "required": {
            "mariner.trappings.edge": 1
          },
          "ifAspectsPresent": {
            "mariner.tool.readytoupgrade": 1
          }
        }
      ],
      "xtriggers": {
        "mariner.signal.upgradetool": [
          {
            "morpheffect": "setmutation",
            "id": "mariner.tool.notch",
            "level": 0
          },
          {
            "morpheffect": "setmutation",
            "id": "mariner.tool.readytoupgrade",
            "level": 0
          },
          {
            "morpheffect": "transform",
            "id": "mariner.tool.edge.2"
          }
        ]
      }
    },
    {
      "$derives": "mariner.composables.tool",
      "id": "mariner.tool.edge.2",
      "icon": "tools/mariner.tool.edge",
      "label": "Improved Axe",
      "description": "",
      "aspects": {
        "tool": 1,
        "mariner.tool.edge": 1,
        "edge": 4,
        "mariner.tool.level": 2
      },
      "slots": [
        {
          "id": "tool.upgrade.1",
          "label": "Trapping",
          "description": "<>",
          "required": {
            "mariner.trappings.edge": 1
          },
          "ifAspectsPresent": {
            "mariner.tool.readytoupgrade": 1
          }
        },
        {
          "id": "tool.upgrade.2",
          "label": "Trapping",
          "description": "<>",
          "required": {
            "mariner.trappings.edge": 1
          },
          "ifAspectsPresent": {
            "mariner.tool.readytoupgrade": 1
          }
        }
      ],
      "xtriggers": {
        "mariner.signal.upgradetool": [
          {
            "morpheffect": "setmutation",
            "id": "mariner.tool.notch",
            "level": 0
          },
          {
            "morpheffect": "setmutation",
            "id": "mariner.tool.readytoupgrade",
            "level": 0
          },
          {
            "morpheffect": "transform",
            "id": "mariner.tool.edge.3"
          }
        ]
      }
    },
    {
      "$derives": "mariner.composables.tool",
      "id": "mariner.tool.edge.3",
      "icon": "tools/mariner.tool.edge",
      "label": "Glorious Axe",
      "description": "",
      "aspects": {
        "tool": 1,
        "mariner.tool.edge": 1,
        "edge": 5,
        "mariner.tool.level": 3,
        "mariner.tool.specialisationpotential.winter": 1,
        "mariner.tool.specialisationpotential.lantern": 1
      },
      "slots": [
        {
          "id": "tool.upgrade.1",
          "label": "Trapping",
          "description": "<>",
          "required": {
            "mariner.trappings.edge": 1
          },
          "ifAspectsPresent": {
            "mariner.tool.readytoupgrade": 1
          }
        },
        {
          "id": "tool.upgrade.2",
          "label": "Trapping",
          "description": "<>",
          "required": {
            "mariner.trappings.edge": 1
          },
          "ifAspectsPresent": {
            "mariner.tool.readytoupgrade": 1
          }
        },
        {
          "id": "tool.upgrade.3",
          "label": "Trapping",
          "description": "<>",
          "required": {
            "mariner.trappings.edge": 1
          },
          "ifAspectsPresent": {
            "mariner.tool.readytoupgrade": 1
          }
        },
        {
          "id": "tool.specialisation",
          "label": "Specialisation",
          "description": "<>",
          "required": {
            "mariner.trappings.winter": 1,
            "mariner.trappings.lantern": 1
          },
          "ifAspectsPresent": {
            "mariner.tool.readytoupgrade": 1
          }
        }
      ],
      "xtriggers": {
        "mariner.signal.specialisetool.with.winter": [
          {
            "morpheffect": "setmutation",
            "id": "mariner.tool.notch",
            "level": 0
          },
          {
            "morpheffect": "setmutation",
            "id": "mariner.tool.readytoupgrade",
            "level": 0
          },
          {
            "morpheffect": "transform",
            "id": "mariner.tool.edge.4_1"
          }
        ],
        "mariner.signal.specialisetool.with.lantern": [
          {
            "morpheffect": "setmutation",
            "id": "mariner.tool.notch",
            "level": 0
          },
          {
            "morpheffect": "setmutation",
            "id": "mariner.tool.readytoupgrade",
            "level": 0
          },
          {
            "morpheffect": "transform",
            "id": "mariner.tool.edge.4_2"
          }
        ]
      }
    },
    {
      "$derives": "mariner.composables.tool",
      "id": "mariner.tool.edge.4_1",
      "icon": "tools/mariner.tool.edge",
      "label": "Exalted Executioner's Axe",
      "description": "",
      "aspects": {
        "tool": 1,
        "mariner.tool.edge": 1,
        "edge": 6,
        "winter": 2,
        "mariner.tool.level": 4
      },
      "slots": [
        {
          "id": "tool.upgrade.1",
          "label": "Trapping",
          "description": "<>",
          "required": {
            "mariner.trappings.edge": 1
          },
          "ifAspectsPresent": {
            "mariner.tool.readytoupgrade": 1
          }
        },
        {
          "id": "tool.upgrade.2",
          "label": "Trapping",
          "description": "<>",
          "required": {
            "mariner.trappings.edge": 1
          },
          "ifAspectsPresent": {
            "mariner.tool.readytoupgrade": 1
          }
        },
        {
          "id": "tool.upgrade.3",
          "label": "Trapping",
          "description": "<>",
          "required": {
            "mariner.trappings.winter": 1
          },
          "ifAspectsPresent": {
            "mariner.tool.readytoupgrade": 1
          }
        },
        {
          "id": "tool.upgrade.4",
          "label": "Trapping",
          "description": "<>",
          "required": {
            "mariner.trappings.winter": 1
          },
          "ifAspectsPresent": {
            "mariner.tool.readytoupgrade": 1
          }
        }
      ],
      "xtriggers": {
        "mariner.signal.upgradetool": [
          {
            "morpheffect": "setmutation",
            "id": "mariner.tool.notch",
            "level": 0
          },
          {
            "morpheffect": "setmutation",
            "id": "mariner.tool.readytoupgrade",
            "level": 0
          },
          {
            "morpheffect": "transform",
            "id": "mariner.tool.edge.5_1"
          }
        ]
      }
    },
    {
      "$derives": "mariner.composables.tool",
      "id": "mariner.tool.edge.4_2",
      "icon": "tools/mariner.tool.edge",
      "label": "Exalted Commanders Gleam",
      "description": "",
      "aspects": {
        "tool": 1,
        "mariner.tool.edge": 1,
        "edge": 6,
        "lantern": 2,
        "mariner.tool.level": 4
      },
      "slots": [
        {
          "id": "tool.upgrade.1",
          "label": "Trapping",
          "description": "<>",
          "required": {
            "mariner.trappings.edge": 1
          },
          "ifAspectsPresent": {
            "mariner.tool.readytoupgrade": 1
          }
        },
        {
          "id": "tool.upgrade.2",
          "label": "Trapping",
          "description": "<>",
          "required": {
            "mariner.trappings.edge": 1
          },
          "ifAspectsPresent": {
            "mariner.tool.readytoupgrade": 1
          }
        },
        {
          "id": "tool.upgrade.3",
          "label": "Trapping",
          "description": "<>",
          "required": {
            "mariner.trappings.winter": 1
          },
          "ifAspectsPresent": {
            "mariner.tool.readytoupgrade": 1
          }
        },
        {
          "id": "tool.upgrade.4",
          "label": "Trapping",
          "description": "<>",
          "required": {
            "mariner.trappings.winter": 1
          },
          "ifAspectsPresent": {
            "mariner.tool.readytoupgrade": 1
          }
        }
      ],
      "xtriggers": {
        "mariner.signal.upgradetool": [
          {
            "morpheffect": "setmutation",
            "id": "mariner.tool.notch",
            "level": 0
          },
          {
            "morpheffect": "setmutation",
            "id": "mariner.tool.readytoupgrade",
            "level": 0
          },
          {
            "morpheffect": "transform",
            "id": "mariner.tool.edge.5_2"
          }
        ]
      }
    },
    {
      "$derives": "mariner.composables.tool",
      "id": "mariner.tool.edge.5_1",
      "icon": "tools/mariner.tool.edge",
      "label": "Mythical Executioner's Axe",
      "description": "",
      "aspects": {
        "tool": 1,
        "mariner.tool.edge": 1,
        "edge": 7,
        "winter": 3,
        "mariner.tool.level": 5
      },
      "slots": [
        {
          "id": "tool.upgrade.1",
          "label": "Trapping",
          "description": "<>",
          "required": {
            "mariner.trappings.edge": 1
          },
          "ifAspectsPresent": {
            "mariner.tool.readytoupgrade": 1
          }
        },
        {
          "id": "tool.upgrade.2",
          "label": "Trapping",
          "description": "<>",
          "required": {
            "mariner.trappings.edge": 1
          },
          "ifAspectsPresent": {
            "mariner.tool.readytoupgrade": 1
          }
        },
        {
          "id": "tool.upgrade.3",
          "label": "Trapping",
          "description": "<>",
          "required": {
            "mariner.trappings.edge": 1
          },
          "ifAspectsPresent": {
            "mariner.tool.readytoupgrade": 1
          }
        }
      ]
    },
    {
      "$derives": "mariner.composables.tool",
      "id": "mariner.tool.edge.5_2",
      "icon": "tools/mariner.tool.edge",
      "label": "Mythical Commanders Gleam",
      "description": "",
      "aspects": {
        "tool": 1,
        "mariner.tool.edge": 1,
        "edge": 7,
        "lantern": 3,
        "mariner.tool.level": 5
      },
      "slots": [
        {
          "id": "tool.upgrade.1",
          "label": "Trapping",
          "description": "<>",
          "required": {
            "mariner.trappings.edge": 1
          },
          "ifAspectsPresent": {
            "mariner.tool.readytoupgrade": 1
          }
        },
        {
          "id": "tool.upgrade.2",
          "label": "Trapping",
          "description": "<>",
          "required": {
            "mariner.trappings.edge": 1
          },
          "ifAspectsPresent": {
            "mariner.tool.readytoupgrade": 1
          }
        },
        {
          "id": "tool.upgrade.3",
          "label": "Trapping",
          "description": "<>",
          "required": {
            "mariner.trappings.edge": 1
          },
          "ifAspectsPresent": {
            "mariner.tool.readytoupgrade": 1
          }
        }
      ]
    }
  ]
}