{
  "elements": [
    {
      "id": "mariner.vaults.sunkencity.linedown",
      "unique": true,
      "label": "The Line Down",
      "description": "A single rope dangling of the edge of the abyss. With this we can descend...",
      "aspects": {
        "mariner.local": 1,
        "mariner.vaults.help": 1
      }
    },
    {
      "id": "mariner.vaults.sunkencity.courage",
      "icon": "temptation.defiance",
      "label": "Courage",
      "description": "You cannot freeze in fear, if you know you are backed by the greater force. My presence can act as their tailwind tonight. [This card protects your sailors from Terror as long as it is on the board.]<br><br>[This card will affect some obstacles and events of this Adventure from the board.]",
      "unique": true,
      "aspects": {
        "mariner.local": 1,
        "mariner.vaults.help": 1,
        "mariner.vaults.help.passive": 1
      }
    },
    {
      "id": "mariner.vaults.sunkencity.edge",
      "label": "At the Abyss' Edge",
      "description": "Here we witness a miracle one might expect at the edge of the world. A churning mass of water going straight down. It is not a waterfall but simply a door to the depths. As long as we are near it, we have to withstand that proximity, and it's effects on the currents.",
      "aspects": {
        "mariner.local": 1,
        "mariner.aspects.vaults.sunkencity.layer.1": 1,
        "modded_explore_allowed": 1
      }
    },
    {
      "id": "mariner.vaults.sunkencity.sailors",
      "icon": "tasks/mariner.tasks.crowd.blue",
      "label": "Sailors on the Edge",
      "description": "Slack-mouthed and with gaping eyes, the sailors stare at the horrific miracle besides them. This is more than normal men have to bear. Many of them may prefer to flee, instead of following me into the depths.",
      "aspects": {
        "mariner.local": 1,
        "mariner.aspects.vaults.sunkencity.layer.1": 1,
        "modded_talk_allowed": 1
      },
      "slots": [
        {
          "actionId": "talk",
          "id": "talk1",
          "label": "Help",
          "description": "Which implements are available for my approach.",
          "required": {
            "funds": 1,
            "mariner.crew": 1,
            "mariner.song": 1,
            "mariner.tune": 1,
            "mariner.story": 1,
            "mariner.lackheart": 1,
            "mariner.halfheart": 1,
            "mariner.vaults.help": 1
          },
          "forbidden": {
            "mariner.crew.traits.mute": 1,
            "mariner.crew.exhausted": 1
          }
        },
        {
          "actionId": "talk",
          "id": "talk2",
          "label": "Help",
          "description": "Which implements are available for my approach.",
          "required": {
            "funds": 1,
            "mariner.crew": 1,
            "mariner.song": 1,
            "mariner.tune": 1,
            "mariner.story": 1,
            "mariner.lackheart": 1,
            "mariner.halfheart": 1,
            "mariner.vaults.help": 1
          },
          "forbidden": {
            "mariner.crew.traits.mute": 1,
            "mariner.crew.exhausted": 1
          }
        },
        {
          "actionId": "talk",
          "id": "talk3",
          "label": "Help",
          "description": "Which implements are available for my approach.",
          "required": {
            "funds": 1,
            "mariner.crew": 1,
            "mariner.song": 1,
            "mariner.tune": 1,
            "mariner.story": 1,
            "mariner.lackheart": 1,
            "mariner.halfheart": 1,
            "mariner.vaults.help": 1
          },
          "forbidden": {
            "mariner.crew.traits.mute": 1,
            "mariner.crew.exhausted": 1
          }
        }
      ]
    },
    {
      "id": "mariner.vaults.sunkencity.siphon",
      "icon": "tasks/mariner.tasks.whirlpool.vertdegris",
      "label": "A Siphon of Wind and Water",
      "description": "A raging torrent plummeting down into the depths. Some power opened a keyhole towards that sunken city, perhaps in an acknowledgement of her involvement. The sea parts unwillingly, however, and us sailors must reckon with the sea.",
      "aspects": {
        "mariner.local": 1,
        "mariner.aspects.vaults.sunkencity.layer.1": 1,
        "mariner.sing_allowed": 1,
        "mariner.sail_allowed": 1,
        "modded_explore_allowed": 1
      },
      "slots": [
        {
          "actionId": "mariner.sing",
          "id": "mariner.sing1",
          "label": "Help",
          "description": "Which implements are available for my approach.",
          "required": {
            "funds": 1,
            "mariner.crew": 1,
            "mariner.song": 1,
            "mariner.instrument": 1,
            "mariner.inspiration.melody": 1,
            "mariner.tune": 1,
            "mariner.vaults.help": 1
          },
          "forbidden": {
            "mariner.crew.traits.rhythmless": 1,
            "mariner.crew.exhausted": 1
          }
        },
        {
          "actionId": "mariner.sing",
          "id": "mariner.sing2",
          "label": "Help",
          "description": "Which implements are available for my approach.",
          "required": {
            "funds": 1,
            "mariner.crew": 1,
            "mariner.song": 1,
            "mariner.instrument": 1,
            "mariner.inspiration.melody": 1,
            "mariner.tune": 1,
            "mariner.vaults.help": 1
          },
          "forbidden": {
            "mariner.crew.traits.rhythmless": 1,
            "mariner.crew.exhausted": 1
          }
        },
        {
          "actionId": "mariner.sing",
          "id": "mariner.sing3",
          "label": "Help",
          "description": "Which implements are available for my approach.",
          "required": {
            "funds": 1,
            "mariner.crew": 1,
            "mariner.song": 1,
            "mariner.instrument": 1,
            "mariner.inspiration.melody": 1,
            "mariner.tune": 1,
            "mariner.vaults.help": 1
          },
          "forbidden": {
            "mariner.crew.traits.rhythmless": 1,
            "mariner.crew.exhausted": 1
          }
        },
        {
          "actionId": "mariner.sail",
          "id": "mariner.sail1",
          "label": "Help",
          "description": "Which implements are available for my approach.",
          "required": {
            "funds": 1,
            "mariner.crew": 1,
            "tool": 1,
            "mariner.inspiration.nature": 1,
            "mariner.lackheart": 1,
            "mariner.halfheart": 1
          },
          "forbidden": {
            "mariner.crew.traits.fingerless": 1,
            "mariner.crew.traits.landlubber": 1,
            "mariner.crew.exhausted": 1,
            "mariner.tool.broken": 1,
            "mariner.vaults.help": 1
          }
        },
        {
          "actionId": "mariner.sail",
          "id": "mariner.sail2",
          "label": "Help",
          "description": "Which implements are available for my approach.",
          "required": {
            "funds": 1,
            "mariner.crew": 1,
            "tool": 1,
            "mariner.inspiration.nature": 1,
            "mariner.lackheart": 1,
            "mariner.halfheart": 1
          },
          "forbidden": {
            "mariner.crew.traits.fingerless": 1,
            "mariner.crew.traits.landlubber": 1,
            "mariner.crew.exhausted": 1,
            "mariner.tool.broken": 1,
            "mariner.vaults.help": 1
          }
        },
        {
          "actionId": "mariner.sail",
          "id": "mariner.sail3",
          "label": "Help",
          "description": "Which implements are available for my approach.",
          "required": {
            "funds": 1,
            "mariner.crew": 1,
            "tool": 1,
            "mariner.inspiration.nature": 1,
            "mariner.lackheart": 1,
            "mariner.halfheart": 1
          },
          "forbidden": {
            "mariner.crew.traits.fingerless": 1,
            "mariner.crew.traits.landlubber": 1,
            "mariner.crew.exhausted": 1,
            "mariner.tool.broken": 1,
            "mariner.vaults.help": 1
          }
        },
        {
          "id": "shipslot",
          "actionid": "mariner.sail",
          "label": "My Ship",
          "description": "To travel the sea, I require my vessel.",
          "required": {
            "mariner.ship": 1
          }
        },
        {
          "actionId": "explore",
          "id": "explore1",
          "label": "Help",
          "description": "Which implements are available for my approach.",
          "required": {
            "funds": 1,
            "mariner.crew": 1,
            "tool": 1,
            "mariner.inspiration.nature": 1,
            "mariner.vaults.help": 1
          },
          "forbidden": {
            "mariner.crew.traits.craven": 1,
            "mariner.crew.exhausted": 1,
            "mariner.tool.broken": 1
          }
        },
        {
          "actionId": "explore",
          "id": "explore2",
          "label": "Help",
          "description": "Which implements are available for my approach.",
          "required": {
            "funds": 1,
            "mariner.crew": 1,
            "tool": 1,
            "mariner.inspiration.nature": 1,
            "mariner.vaults.help": 1
          },
          "forbidden": {
            "mariner.crew.traits.craven": 1,
            "mariner.crew.exhausted": 1,
            "mariner.tool.broken": 1
          }
        },
        {
          "actionId": "explore",
          "id": "explore3",
          "label": "Help",
          "description": "Which implements are available for my approach.",
          "required": {
            "funds": 1,
            "mariner.crew": 1,
            "tool": 1,
            "mariner.inspiration.nature": 1,
            "mariner.vaults.help": 1
          },
          "forbidden": {
            "mariner.crew.traits.craven": 1,
            "mariner.crew.exhausted": 1,
            "mariner.tool.broken": 1
          }
        },
        {
          "id": "lnedown",
          "actionid": "explore",
          "label": "Stable Position",
          "description": "A stable position on an unstable sea, to travel to destinations unimaginable.",
          "required": {
            "mariner.vaults.sunkencity.linedown": 1
          }
        }
      ]
    },
    {
      "id": "mariner.vaults.sunkencity.gapingcup",
      "icon": "toolgrailf",
      "label": "The Gaping Cup",
      "unique": true,
      "description": "The city was guided to venerate the power that births and consumes. These objects show their widespread worship. Each face is of the same man, but his expression changes from haughty to ravenous. [A Piece of the Story of Ker Ys.]",
      "aspects": {
        "mariner.local": 1,
        "mariner.vaults.help": 1
      }
    },
    {
      "id": "mariner.vaults.sunkencity.links",
      "label": "Love-long Links",
      "icon": "toolwinterd",
      "unique": true,
      "description": "A metallic knot, made of two triskelions entwining. Tin, Silver, Gold and some metals that seem more exotic still. A symbol of an upcoming union, or tribute paid to a rising power? [A Piece of the Story of Ker Ys.]",
      "aspects": {
        "mariner.local": 1,
        "mariner.vaults.help": 1
      }
    },
    {
      "id": "mariner.vaults.sunkencity.pair",
      "icon": "toolheartb",
      "label": "Icons of a Royal Pair",
      "unique": true,
      "description": "A stone statue, showing a crowned man behind a robed woman, her hair entangled in his beard. Is he sheltering her or keeping her trapped, or could her fate have been direr still? [A Piece of the Story of Ker Ys.]",
      "aspects": {
        "mariner.local": 1,
        "mariner.vaults.help": 1
      }
    },
    {
      "id": "mariner.vaults.sunkencity.dust",
      "label": "Only Dust",
      "icon": "jumble",
      "unique": true,
      "description": "our only reward is the dust of crumpled memories.",
      "aspects": {
        "mariner.local": 1,
        "mariner.vaults.help": 1
      }
    },
    {
      "id": "mariner.vaults.sunkencity.homebound",
      "label": "The Homebound Song",
      "icon": "contentment",
      "description": "Remember home, remember birdsong. Remember the smell of  grass, remember sand scrapping your heels. Remember that small thing can be enough, even when big things are not. [This card protects me and my sailors from Horror as long as it is on the board.]",
      "aspects": {
        "mariner.local": 1,
        "mariner.vaults.help": 1
      }
    },
    {
      "id": "mariner.vaults.sunkencity.city",
      "label": "Waterlogged Ruins",
      "description": "The city is surrounded by grinding walls of water, black as ink. The only light is from the spotlight-moon above. Mother-moon casts the cobbled streets in her bleak light: pale colors, deep shade. The newly revealed doors still weep. Each of us feels in our heart, that we are trespassing on grounds hallowed, or profaned.",
      "aspects": {
        "mariner.local": 1,
        "mariner.aspects.vaults.sunkencity.layer.2": 1,
        "modded_explore_allowed": 1
      }
    },
    {
      "id": "mariner.vaults.sunkencity.cityremains",
      "icon": "tasks/mariner.tasks.hiddenentrance.vertdegris",
      "label": "What Remains Of The City",
      "description": "This city is like a skeleton, salt-crusted upon the abyssal silt. Here we pass beneath the palace gaping stare, and there lies the dike-wall like a snapped spine. If we scamper like beetles, we might still find scraps preserved below the salt. ",
      "aspects": {
        "mariner.local": 1,
        "mariner.aspects.vaults.sunkencity.layer.2": 1,
        "modded_explore_allowed": 1
      },
      "slots": [
        {
          "actionId": "explore",
          "id": "explore1",
          "label": "Help",
          "description": "Which implements are available for my approach.",
          "required": {
            "funds": 1,
            "mariner.crew": 1,
            "tool": 1,
            "mariner.inspiration.nature": 1,
            "mariner.vaults.help": 1
          },
          "forbidden": {
            "mariner.crew.traits.craven": 1,
            "mariner.crew.exhausted": 1,
            "mariner.tool.broken": 1
          }
        },
        {
          "actionId": "explore",
          "id": "explore2",
          "label": "Help",
          "description": "Which implements are available for my approach.",
          "required": {
            "funds": 1,
            "mariner.crew": 1,
            "tool": 1,
            "mariner.inspiration.nature": 1,
            "mariner.vaults.help": 1
          },
          "forbidden": {
            "mariner.crew.traits.craven": 1,
            "mariner.crew.exhausted": 1,
            "mariner.tool.broken": 1
          }
        },
        {
          "actionId": "explore",
          "id": "explore3",
          "label": "Help",
          "description": "Which implements are available for my approach.",
          "required": {
            "funds": 1,
            "mariner.crew": 1,
            "tool": 1,
            "mariner.inspiration.nature": 1,
            "mariner.vaults.help": 1
          },
          "forbidden": {
            "mariner.crew.traits.craven": 1,
            "mariner.crew.exhausted": 1,
            "mariner.tool.broken": 1
          }
        }
      ]
    },
    {
      "id": "mariner.vaults.sunkencity.inkwall",
      "icon": "tasks/mariner.tasks.haze.petroleblue",
      "label": "The Ink-Wall Lure",
      "description": "The city is unnerving, like walking through a tomb, where each step leaves a crisp outline recording our trespasses. But more ominous still are the black walls of water beyond, their low roar pervasive in the back of our mind.",
      "aspects": {
        "mariner.local": 1,
        "mariner.aspects.vaults.sunkencity.layer.2": 1,
        "mariner.sing_allowed": 1
      },
      "slots": [
        {
          "actionId": "mariner.sing",
          "id": "mariner.sing1",
          "label": "Help",
          "description": "Which implements are available for my approach.",
          "required": {
            "funds": 1,
            "mariner.crew": 1,
            "mariner.song": 1,
            "mariner.instrument": 1,
            "mariner.inspiration.melody": 1,
            "mariner.tune": 1,
            "mariner.vaults.help": 1
          },
          "forbidden": {
            "mariner.crew.traits.rhythmless": 1,
            "mariner.crew.exhausted": 1
          }
        },
        {
          "actionId": "mariner.sing",
          "id": "mariner.sing2",
          "label": "Help",
          "description": "Which implements are available for my approach.",
          "required": {
            "funds": 1,
            "mariner.crew": 1,
            "mariner.song": 1,
            "mariner.instrument": 1,
            "mariner.inspiration.melody": 1,
            "mariner.tune": 1,
            "mariner.vaults.help": 1
          },
          "forbidden": {
            "mariner.crew.traits.rhythmless": 1,
            "mariner.crew.exhausted": 1
          }
        },
        {
          "actionId": "mariner.sing",
          "id": "mariner.sing3",
          "label": "Help",
          "description": "Which implements are available for my approach.",
          "required": {
            "funds": 1,
            "mariner.crew": 1,
            "mariner.song": 1,
            "mariner.instrument": 1,
            "mariner.inspiration.melody": 1,
            "mariner.tune": 1,
            "mariner.vaults.help": 1
          },
          "forbidden": {
            "mariner.crew.traits.rhythmless": 1,
            "mariner.crew.exhausted": 1
          }
        }
      ]
    },
    {
      "id": "mariner.vaults.sunkencity.storiesend",
      "icon": "tasks/mariner.tasks.book.darkpurple",
      "label": "Stories End",
      "description": "There is an itch at the back of my skull. I can feel a hundred feet tap me just above the skin of my neck, urging me forward. I am here to sight-see, yes, but only if I see this story to its end.",
      "aspects": {
        "mariner.local": 1,
        "mariner.aspects.vaults.sunkencity.layer.2": 1,
        "mariner.navigate_allowed": 1
      },
      "slots": [
        {
          "actionId": "mariner.navigate",
          "id": "mariner.navigate1",
          "label": "Help",
          "description": "Which implements are available for my approach.",
          "required": {
            "funds": 1,
            "mariner.crew": 1,
            "mariner.song": 1,
            "mariner.story": 1,
            "mariner.inspiration.melody": 1,
            "mariner.tune": 1,
            "mariner.lackheart": 1,
            "mariner.halfheart": 1,
            "mariner.vaults.help": 1
          },
          "forbidden": {
            "mariner.crew.traits.singleminded": 1,
            "mariner.crew.exhausted": 1,
            "mariner.tool.broken": 1
          }
        },
        {
          "actionId": "mariner.navigate",
          "id": "mariner.navigate2",
          "label": "Help",
          "description": "Which implements are available for my approach.",
          "required": {
            "funds": 1,
            "mariner.crew": 1,
            "mariner.song": 1,
            "mariner.story": 1,
            "mariner.inspiration.melody": 1,
            "mariner.tune": 1,
            "mariner.lackheart": 1,
            "mariner.halfheart": 1,
            "mariner.vaults.help": 1
          },
          "forbidden": {
            "mariner.crew.traits.singleminded": 1,
            "mariner.crew.exhausted": 1,
            "mariner.tool.broken": 1
          }
        },
        {
          "actionId": "mariner.navigate",
          "id": "mariner.navigate3",
          "label": "Help",
          "description": "Which implements are available for my approach.",
          "required": {
            "funds": 1,
            "mariner.crew": 1,
            "mariner.song": 1,
            "mariner.story": 1,
            "mariner.inspiration.melody": 1,
            "mariner.tune": 1,
            "mariner.lackheart": 1,
            "mariner.halfheart": 1,
            "mariner.vaults.help": 1
          },
          "forbidden": {
            "mariner.crew.traits.singleminded": 1,
            "mariner.crew.exhausted": 1,
            "mariner.tool.broken": 1
          }
        },
        {
          "actionId": "mariner.navigate",
          "id": "mariner.navigate4",
          "label": "Help",
          "description": "Which implements are available for my approach.",
          "required": {
            "funds": 1,
            "mariner.crew": 1,
            "mariner.song": 1,
            "mariner.story": 1,
            "mariner.inspiration.melody": 1,
            "mariner.tune": 1,
            "mariner.lackheart": 1,
            "mariner.halfheart": 1,
            "mariner.vaults.help": 1
          },
          "forbidden": {
            "mariner.crew.traits.singleminded": 1,
            "mariner.crew.exhausted": 1,
            "mariner.tool.broken": 1
          }
        },
        {
          "actionId": "mariner.navigate",
          "id": "mariner.navigate5",
          "label": "Help",
          "description": "Which implements are available for my approach.",
          "required": {
            "funds": 1,
            "mariner.crew": 1,
            "mariner.song": 1,
            "mariner.story": 1,
            "mariner.inspiration.melody": 1,
            "mariner.tune": 1,
            "mariner.lackheart": 1,
            "mariner.halfheart": 1,
            "mariner.vaults.help": 1
          },
          "forbidden": {
            "mariner.crew.traits.singleminded": 1,
            "mariner.crew.exhausted": 1,
            "mariner.tool.broken": 1
          }
        },
        {
          "actionId": "mariner.navigate",
          "id": "mariner.navigate6",
          "label": "Help",
          "description": "Which implements are available for my approach.",
          "required": {
            "funds": 1,
            "mariner.crew": 1,
            "mariner.song": 1,
            "mariner.story": 1,
            "mariner.inspiration.melody": 1,
            "mariner.tune": 1,
            "mariner.lackheart": 1,
            "mariner.halfheart": 1,
            "mariner.vaults.help": 1
          },
          "forbidden": {
            "mariner.crew.traits.singleminded": 1,
            "mariner.crew.exhausted": 1,
            "mariner.tool.broken": 1
          }
        }
      ]
    },
    {
      "id": "mariner.vaults.sunkencity.doorsplinters",
      "label": "Door Slivers",
      "description": "Splinters of a great gate, broken in betrayal, sanctified in mercy.",
      "aspects": {
        "mariner.trapping": 1,
        "mariner.trapping.worth": 1,
        "mariner.trappings.knock": 4,
        "knock": 4,
        "mariner.trappingtypes.artifact": 1
      }
    },
    {
      "id": "mariner.vaults.sunkencity.etchedbands",
      "label": "Etched Lovelinks",
      "icon": "toolwinterd",
      "description": "A metallic knot, made of two triskelions entwining. The bands are now marred by five finger prints, left by its owner letting go.",
      "aspects": {
        "mariner.trapping": 1,
        "mariner.trapping.worth": 3,
        "mariner.trappings.moth": 2,
        "mariner.trappings.grail": 2,
        "moth": 2,
        "grail": 2,
        "mariner.trappingtypes.artifact": 1
      }
    },
    {
      "id": "mariner.vaults.sunkencity.seawall",
      "label": "The Broken Lock",
      "description": "The dike encircles the city, but the barrier has been broken.\n\nsea-gate stands fractured- \ndoor-splinters white in moonlight -\nits salt-coated scars",
      "aspects": {
        "mariner.local": 1,
        "mariner.aspects.vaults.sunkencity.layer.3": 1,
        "modded_explore_allowed": 1
      }
    },
    {
      "id": "mariner.vaults.sunkencity.blubberthing",
      "icon": "tasks/mariner.tasks.blubberthing.vertdegris",
      "label": "The Blubberthing",
      "description": "A mound lies at the edge of town. It resembles a whale, if not for the crying. It resembles a stillborn, if not for the mottled beard. It resembles a caterpillar, but it will never take its final form.",
      "aspects": {
        "mariner.local": 1,
        "mariner.aspects.vaults.sunkencity.layer.3": 1,
        "modded_explore_allowed": 1,
        "mariner.sing_allowed": 1
      },
      "slots": [
        {
          "actionId": "explore",
          "id": "explore1",
          "label": "Help",
          "description": "Which implements are available for my approach.",
          "required": {
            "funds": 1,
            "mariner.crew": 1,
            "tool": 1,
            "mariner.inspiration.nature": 1,
            "mariner.vaults.help": 1
          },
          "forbidden": {
            "mariner.crew.traits.craven": 1,
            "mariner.crew.exhausted": 1,
            "mariner.tool.broken": 1
          }
        },
        {
          "actionId": "explore",
          "id": "explore2",
          "label": "Help",
          "description": "Which implements are available for my approach.",
          "required": {
            "funds": 1,
            "mariner.crew": 1,
            "tool": 1,
            "mariner.inspiration.nature": 1,
            "mariner.vaults.help": 1
          },
          "forbidden": {
            "mariner.crew.traits.craven": 1,
            "mariner.crew.exhausted": 1,
            "mariner.tool.broken": 1
          }
        },
        {
          "actionId": "explore",
          "id": "explore3",
          "label": "Help",
          "description": "Which implements are available for my approach.",
          "required": {
            "funds": 1,
            "mariner.crew": 1,
            "tool": 1,
            "mariner.inspiration.nature": 1,
            "mariner.vaults.help": 1
          },
          "forbidden": {
            "mariner.crew.traits.craven": 1,
            "mariner.crew.exhausted": 1,
            "mariner.tool.broken": 1
          }
        },
        {
          "actionId": "mariner.sing",
          "id": "mariner.sing1",
          "label": "Help",
          "description": "Which implements are available for my approach.",
          "required": {
            "funds": 1,
            "mariner.crew": 1,
            "mariner.song": 1,
            "mariner.instrument": 1,
            "mariner.inspiration.melody": 1,
            "mariner.tune": 1,
            "mariner.vaults.help": 1
          },
          "forbidden": {
            "mariner.crew.traits.rhythmless": 1,
            "mariner.crew.exhausted": 1
          }
        },
        {
          "actionId": "mariner.sing",
          "id": "mariner.sing2",
          "label": "Help",
          "description": "Which implements are available for my approach.",
          "required": {
            "funds": 1,
            "mariner.crew": 1,
            "mariner.song": 1,
            "mariner.instrument": 1,
            "mariner.inspiration.melody": 1,
            "mariner.tune": 1,
            "mariner.vaults.help": 1
          },
          "forbidden": {
            "mariner.crew.traits.rhythmless": 1,
            "mariner.crew.exhausted": 1
          }
        },
        {
          "actionId": "mariner.sing",
          "id": "mariner.sing3",
          "label": "Help",
          "description": "Which implements are available for my approach.",
          "required": {
            "funds": 1,
            "mariner.crew": 1,
            "mariner.song": 1,
            "mariner.instrument": 1,
            "mariner.inspiration.melody": 1,
            "mariner.tune": 1,
            "mariner.vaults.help": 1
          },
          "forbidden": {
            "mariner.crew.traits.rhythmless": 1,
            "mariner.crew.exhausted": 1
          }
        }
      ]
    },
    {
      "id": "mariner.vaults.sunkencity.slivers",
      "icon": "tasks/mariner.tasks.treasure.darkpurple",
      "label": "The Door Slivers",
      "description": "The Broken Lock is consecrated in triplicate: A great Gate, wounded illicitly by moonlight, to cause a cataclysmic purification. Its remnants remember.",
      "aspects": {
        "mariner.local": 1,
        "mariner.aspects.vaults.sunkencity.layer.3": 1,
        "modded_explore_allowed": 1
      },
      "slots": [
        {
          "actionId": "explore",
          "id": "explore1",
          "label": "Help",
          "description": "Which implements are available for my approach.",
          "required": {
            "funds": 1,
            "mariner.crew": 1,
            "tool": 1,
            "mariner.inspiration.nature": 1,
            "mariner.vaults.help": 1
          },
          "forbidden": {
            "mariner.crew.traits.craven": 1,
            "mariner.crew.exhausted": 1,
            "mariner.tool.broken": 1
          }
        },
        {
          "actionId": "explore",
          "id": "explore2",
          "label": "Help",
          "description": "Which implements are available for my approach.",
          "required": {
            "funds": 1,
            "mariner.crew": 1,
            "tool": 1,
            "mariner.inspiration.nature": 1,
            "mariner.vaults.help": 1
          },
          "forbidden": {
            "mariner.crew.traits.craven": 1,
            "mariner.crew.exhausted": 1,
            "mariner.tool.broken": 1
          }
        },
        {
          "actionId": "explore",
          "id": "explore3",
          "label": "Help",
          "description": "Which implements are available for my approach.",
          "required": {
            "funds": 1,
            "mariner.crew": 1,
            "tool": 1,
            "mariner.inspiration.nature": 1,
            "mariner.vaults.help": 1
          },
          "forbidden": {
            "mariner.crew.traits.craven": 1,
            "mariner.crew.exhausted": 1,
            "mariner.tool.broken": 1
          }
        }
      ]
    },
    {
      "id": "mariner.vaults.sunkencity.wallsedge",
      "icon": "tasks/mariner.tasks.bubbles.petroleblue",
      "label": "Walls' Edge",
      "description": "Like sheets of onyx, like a diaphanous mirror, like an inviting death. Here, so close to the edge, the sound of the water roars strong enough to cover movement, conversation, thought. Its emptiness calls to mine, and echoes within my Lack-Heart",
      "aspects": {
        "mariner.local": 1,
        "mariner.aspects.vaults.sunkencity.layer.3": 1,
        "mariner.navigate_allowed": 1
      },
      "slots": [
        {
          "actionId": "mariner.navigate",
          "id": "mariner.navigate1",
          "label": "Help",
          "description": "Which implements are available for my approach.",
          "required": {
            "funds": 1,
            "mariner.crew": 1,
            "mariner.song": 1,
            "mariner.story": 1,
            "mariner.inspiration.melody": 1,
            "mariner.tune": 1,
            "mariner.lackheart": 1,
            "mariner.halfheart": 1,
            "mariner.vaults.help": 1
          },
          "forbidden": {
            "mariner.crew.traits.singleminded": 1,
            "mariner.crew.exhausted": 1,
            "mariner.tool.broken": 1
          }
        },
        {
          "actionId": "mariner.navigate",
          "id": "mariner.navigate2",
          "label": "Help",
          "description": "Which implements are available for my approach.",
          "required": {
            "funds": 1,
            "mariner.crew": 1,
            "mariner.song": 1,
            "mariner.story": 1,
            "mariner.inspiration.melody": 1,
            "mariner.tune": 1,
            "mariner.lackheart": 1,
            "mariner.halfheart": 1,
            "mariner.vaults.help": 1
          },
          "forbidden": {
            "mariner.crew.traits.singleminded": 1,
            "mariner.crew.exhausted": 1,
            "mariner.tool.broken": 1
          }
        },
        {
          "actionId": "mariner.navigate",
          "id": "mariner.navigate3",
          "label": "Help",
          "description": "Which implements are available for my approach.",
          "required": {
            "funds": 1,
            "mariner.crew": 1,
            "mariner.song": 1,
            "mariner.story": 1,
            "mariner.inspiration.melody": 1,
            "mariner.tune": 1,
            "mariner.lackheart": 1,
            "mariner.halfheart": 1,
            "mariner.vaults.help": 1
          },
          "forbidden": {
            "mariner.crew.traits.singleminded": 1,
            "mariner.crew.exhausted": 1,
            "mariner.tool.broken": 1
          }
        }
      ]
    },
    {
      "id": "mariner.vaults.sunkencity.hiraezh",
      "label": "Hiraezh",
      "description": "The longing for that which is no longer.",
      "aspects": {
        "mariner.local": 1,
        "mariner.vaults.help": 1
      }
    },
    {
      "id": "mariner.vaults.sunkencity.oma",
      "icon": "mariner.vaults.sunkencity.oma",
      "label": "Old Mother Anguish",
      "description": "Nations rose and empires sank, still Old Mother Anguish returned to the home she condemned. Stricken with a trifold grief for a trifold death, she wears all the scars that time and sadness can leave a woman with. Her eyes know cruelty, but her hands know mercy.",
      "aspects": {
        "mariner.local": 1,
        "mariner.aspects.vaults.sunkencity.layer.3": 1,
        "modded_talk_allowed": 1
      },
      "slots": []
    }
  ]
}